model:ar, T:500, V:22, CI:0.01
t-levels:[400, 100], v-levels:[12, 22], splits:[3, 3]
trails:1000, experiment type:efficiency, error: 2
Loading AR Model
990=====SRS=====
estimate avg: 0.9190935817395637, std:0.005277389545421333
cost avg: 1372743.125, std:77746.17767047699
avg time: 2.821449725151062
=====MLSS=====295/1000
estimate avg: 0.9193508836813735, std:0.01055503218061826
cost avg: 121843.8439716312, std:46202.404784836646
avg time: 0.2576692435758334
=====MLSS-OPT=====363/1000
estimate avg: 0.9194344978137898, std:0.010693884751977875
cost avg: 121279.23704866561, std:46924.65316429115
avg time: 0.25868049708415797

model:ar, T:500, V:19.5, CI:0.01
t-levels:[400, 100], v-levels:[10.0, 19.5], splits:[3, 3]
trails:1000, experiment type:efficiency, error: 2
Loading AR Model
999=====SRS=====
estimate avg: 0.1729837507961807, std:0.005048457969341551
cost avg: 1299052.239, std:40156.80862187481
avg time: 3.9207599704265594
=====MLSS=====136/1000
estimate avg: 0.17297367915337217, std:0.00968417508131899
cost avg: 179662.94212962964, std:24157.63899478189
avg time: 0.5441531977719731
=====MLSS-OPT=====132/1000
estimate avg: 0.17363147917699356, std:0.009718254513677851
cost avg: 179009.4158986175, std:24664.388420507687
avg time: 0.5485685855012885

model:ar, T:500, V:20.5, CI:0.01
t-levels:[400, 100], v-levels:[10.0, 20.5], splits:[3, 3]
trails:1000, experiment type:efficiency, error: 2
Loading AR Model
999=====SRS=====
estimate avg: 0.5585731231582522, std:0.0048234631464310115
cost avg: 3592029.107, std:10347.42380815394
avg time: 10.077563940286636
=====MLSS=====221/1000
estimate avg: 0.5589443526948663, std:0.010188897450381514
cost avg: 388341.5917843389, std:37878.55875255779
avg time: 1.0939207731988831
=====MLSS-OPT=====202/1000
estimate avg: 0.5589858270184518, std:0.010601745038201492
cost avg: 389125.1015037594, std:36958.26947046631
avg time: 1.1124433299951386