====================================================
srs estimate: 0.053166051620658177, cost: 803647.93, time: 6.027769658565521
T:500, V:600, Levels:[60, 500, 600], ground_truth:0.056
g-mlss estimate: 0.05602153414486748, cost: 772730.38, time: 6.096986484527588
T:500, V:600, Levels:[200, 500, 600], ground_truth:0.056
g-mlss estimate: 0.05512592011681647, cost: 452869.63265306124, std: 67980.59940630538 time: 3.677085956748651
g-mlss estimate: 0.05566108906525573/0.004492976033032217, cost: 469083.85/57775.92703373525, simulation time: 3.8912257719039918/0.4771199487632845, eval time:1.3578371167182923/0.783139852254183
====================================================
srs estimate: 0.05426022535687224, cost: 819074.42, time: 5.98238557100296
T:500, V:600, Levels:[60, 300, 600], ground_truth:0.056
g-mlss estimate: 0.055449065255731914, cost: 467539.44, time: 3.8363991665840147
T:500, V:600, Levels:[200, 400, 600], ground_truth:0.056
g-mlss estimate: 0.05513938031104698, cost: 331048.68, std: 50969.00735444629 time: 2.8861383986473084
=====================================================
srs estimate: 0.021248927725917396, cost: 2149240.72, time: 15.751836652755737
T:500, V:700, Levels:[250, 600, 700], ground_truth:0.022
g-mlss estimate: 0.02213873864236845, cost: 952805.2222222222, std: 115486.50464840545 time: 7.715042893091837
g-mlss estimate: 0.02160913059163059/0.0021970296400020536, cost: 1003249.59/126111.40388482677, simulation time: 7.972232830524445/0.9996385396862023, eval time:4.2647865295410154/2.2232897339360105
T:500, V:700, Levels:[200, 400, 600, 700], ground_truth:0.022
g-mlss estimate: 0.021814200470311577/0.0019375548797500683, cost: 581193.28/87473.7109065438, simulation time: 5.206364488601684/0.7777115128997295, eval time:3.261156105995178/1.7378556575666297
T:500, V:700, Levels:[250, 500, 700], ground_truth:0.022
g-mlss estimate: 0.02141206626614404, cost: 639645.9494949495, std: 98165.14975834478 time: 5.250804852957677
T:500, V:700, Levels:[239.127834877909, 449.68113129882096, 505.30093175118, 700], ground_truth:0.022 search cost: 4.414382696151733
818910, 6.33739972114563, 2.660614252090454

500 40 [20, 30, 40]
srs:0.034/0.016
srs estimate: 0.034020390726209666/0.004202870913235229, cost: 1423634.25/169563.04149344427, time: 8.136543188095093/8.136543188095093
s-mlss:0.033/0.011
g-mlss:0.034/0.012

500 40 [20, 36, 40]
srs:0.034/0.016
s-mlss:0.029/0.011
g-mlss:0.035/0.011

500 35 [15, 25, 35]
srs:0.077/0.023
s-mlss:0.078/0.014
g-mlss:0.078/0.015

500 35 [15, 32, 35]
srs:0.077/0.023
s-mlss:0.062/0.013
g-mlss:0.078/0.016

// new queue model
500 65 [40, 50, 65]
srs estimate:0.017764705882352943/0.009187775841491498, mlss estimate:0.016198028673835126/0.005568606997274547, g-mlss estiamte:0.016193853427895977/0.004942362315996669

500 65 [40, 62, 65]
srs estimate:0.01711764705882353/0.010753449595394588, mlss estimate:0.012074820788530467/0.005118373163262069, g-mlss estiamte:0.017333333333333333/0.005713315614303306
srs cost: 3026198.52/300728.3925096359, time: 16.729022822380067/16.729022822380067
g-mlss estimate: 0.01665462151456024/0.0015315320965316173, cost: 1448587.23/144157.48360170936, simulation time: 8.511545724868775/0.8486846082498376, eval time:5.894438831806183/3.8076051778974582
T:500, V:65, Levels:[30, 40, 50, 62, 65], ground_truth:0.017
g-mlss cost: 712562.36/156903.1991925926, simulation time: 4.939040117263794/1.097257934205148, eval time:3.851124997138977/2.065248355682007
[31.805008384814172, 36.885337997474714, 46.05855459219667, 60.3080591094225, 65] search cost: 2.294968843460083
779475, 5.426138162612915, 2.9268574714660645


500 55 [30, 40, 55]
srs estimate:0.06917647058823528/0.021869699061126135, mlss estimate:0.06895320197044334/0.01135170448416769, g-mlss estiamte:0.06902962962962962/0.012443428089007866

500 55 [30, 52, 55]
mlss estimate:0.05118279569892473/0.011934602909737307, g-mlss estiamte:0.06965721040189125/0.013017473967569259
srs cost: 686445.49/61449.79809625008, time: 3.898315291404724/3.898315291404724
g-mlss estimate: 0.06891156966490299/0.005546477193906533, cost: 413084.56/73686.69293221402, simulation time: 2.4727253413200376/0.44159342117979267, eval time:1.8615695858001708/0.9896613256173953
g-mlss estimate: 0.06941089947089946/0.005939801394404215, cost: 412128.7/41569.01835778661, simulation time: 2.5196562695503233/0.25936172632191484, eval time:1.5814150476455688/0.8460079589082448

T:500, V:75, Levels:[40, 72, 75], ground_truth:0.003
srs estimate: 0.0031548759213043454/0.00037149439339328566, cost: 17475955.6/2051558.5556722092, time: 102.27857484817505/12.618052366437768
T:500, V:75, Levels:[40, 50, 72, 75], ground_truth:0.003
estimate: 0.002680933136217449/0.0002522479943836278
g-mlss cost: 4286573.28/203254.1484508535, simulation time: 25.951569747924804/1.2576272903777126, eval time:16.320166816711424/6.189071402995098
g-mlss cost: 3773362.12/177965.92693138088, simulation time: 23.485325050354003/1.1074033847302724, eval time:16.04712254524231/9.013126944712724
T:500, V:75, Levels:[40, 50, 60, 72, 75], ground_truth:0.003
g-mlss cost: 2103438.84/388427.58311630547, simulation time: 12.84720636844635/2.346727487678461, eval time:25.409719128608703/15.049941544758482
T:500, V:75, Levels:[41.774878130352235, 55.37816876299449, 71.21928302250406, 75], search cost: 3.812818765640259
2578955, 15.543535947799683, 8.633843898773193

T:500, V:1000, Levels:[400, 600, 900, 1000], ground_truth:0.001
srs estimate: 0.0009240158869804682/9.705882829406266e-05, cost: 46160775.2/4843256.028347496, time: 345.57292478084565/37.90097057617947
g-mlss estimate: 0.0009443874643874643/6.45693419923518e-05, cost: 13902850.72/13739.966742376053, simulation time: 110.84951780319214/1.9096770050303826, eval time:48.097623348236084/0.90123181327394
T:500, V:1000, Levels:[300, 500, 700, 900, 1000], ground_truth:0.001
g-mlss estimate: 0.0009187144296033183/9.107593083269958e-05, cost: 3382531.38/392994.41123257164, simulation time: 27.26259816646576/3.1981255769245096, eval time:30.130046253204345/18.65671026806411
T:500, V:1000, Levels:[322.9346927339154, 406.4297693120413, 664.136185094996, 777.4587221519264, 1000] search cost: 23.249648809432983
4676598, 35.89484763145447, 19.041144609451294)