2020-06-07 12:15:50.860763: I tensorflow/stream_executor/platform/default/dso_loader.cc:44] Successfully opened dynamic library libnvinfer.so.6
2020-06-07 12:15:50.862755: I tensorflow/stream_executor/platform/default/dso_loader.cc:44] Successfully opened dynamic library libnvinfer_plugin.so.6
model:cp, T:500, V:500.0, CI:0.0
v-splits:[240.0, 300.0, 400.0, 500.0], splits:3
trails:10, experiment type:efficiency
Loading Compound-Poisson model
relative error:0.0003/0.1
01234567891.0
=====SRS=====
estimate avg: 0.0003525170426726136, std:2.6331677103902073e-05
cost avg: 195773797.5, std:14617540.511767061
avg time: 533.5123735666275, std:36.09198347176298
error: 0.09999880873683885/6.135513491585695e-07
=====MLSS=====
estimate avg: 0.0003624837080267277, std:4.2331818142869646e-05
cost avg: 18438095.8, std:3400349.5954714953
avg time: 49.84995036125183, std:8.896983971096766
error: 0.09999305034769336/5.02858841065243e-06
