2020-06-12 11:12:16.104910: I tensorflow/stream_executor/platform/default/dso_loader.cc:44] Successfully opened dynamic library libnvinfer.so.6
2020-06-12 11:12:16.110096: I tensorflow/stream_executor/platform/default/dso_loader.cc:44] Successfully opened dynamic library libnvinfer_plugin.so.6
model:cp, T:500, V:500.0, CI:0.0
v-splits:[240.0, 300.0, 400.0, 500.0], splits:3
trails:20, experiment type:splitting
Loading Compound-Poisson model
relative error:0.0003/0.1
relative error:0.0003/0.1
relative error:0.0003/0.1
relative error:0.0003/0.1
relative error:0.0003/0.1
=====8=====
13779370.2/6647126.281898205
46.77105813026428/22.328221601146918
=====9=====
14626820.6/7824900.607813165
48.51480932235718/25.907753429525712
=====10=====
12404101.05/10858978.196278997
41.08343504667282/36.00193042339603
=====11=====
18801303.5/11288028.939441392
63.297063899040225/37.94128055419339
=====12=====
24750553.2/10781633.66951198
83.0872577548027/36.02771439969473
