---CP MODEL---500---350---0.01---100 average---
L1: 955242.1/97162.68854570668, 2.396479787826538/0.23941833706799587
L2: 0.05330773264588526/0.005061156587953361, 642918.09/72838.07778615455, 2.1663928771018983/0.25451648777412494, 16.680082321520082
L3: 0.05094781665300312/0.012285450017865815, 517078.44/143498.36517043112, 1.185552592277527/0.32771509700073065, 13.388756356917458
L4: 0.05177262343341539/0.011734993315061079, 552016.46/141190.55249707185, 1.2963431930541993/0.33847323251809713, 14.280833141929294
L5: 0.04936865571923781/0.01569348060480599, 709439.97/259679.90664360058, 1.6774642205238341/0.6234448819334415, 18.33756788944753

---Queue MODEL---500---26---0.01---100 average---
L1: 915936.81/93498.58434443755, 3.248079631328583/0.3294989642952145
L2: 0.05299054550954944/0.004737129923395988, 534203.46/61205.96686033478, 2.0606519889831545/0.23793671384217066, 13.8319695319446
L3: 0.05288598992298187/0.008132015514581146, 427287.75/82669.11330132616, 1.2196228170394898/0.2370482750116474, 11.05206544895052
L4: 0.05208411068608663/0.012287083341875874, 416561.85/118065.3577878266, 1.5463978505134583/0.44000362353260714, 10.732157833378897
L5: 0.052834630294867145/0.014726838074191017, 512025.87/170183.40357612167, 1.872136833667755/0.6262382035722758, 13.19121192118586

---Queue MODEL---500---40---0.01---100 average---
L1: 30144172/5557412
L2: 13427861.23/1444713.2972269056, 37.23566687107086/4.023376382202706
L3: 6560949.63/903539.271149026, 25.54432170391083/3.528244742091363
L4: 3840817.76/560028.7350882117, 15.32722190141678/2.2312759923384236
L5: 2940323.19/599604.2282345695, 11.490475902557373/2.344261752780081
L6: 2296016.46/875760.7309990831, 6.789268476963043/2.5907416677545183
L7: 2756715.01/1009402.5403199805, 11.65492505311966/4.310811626272508
L8: 3563458.55/1559223.543990857, 14.091445446014404/6.201882926343223

---CP MODEL---500---450---0.01---100 average---
L1: 13177112/1524548
L2: 6960043.13/1147497.978992422, 15.567316806316375/2.5740445009389914
L3: 3977040.44/993168.1906552216, 9.313923115730285/2.3397653251577384
L4: 2619714.48/1087119.55033659, 5.904206745624542/2.4513384084972607
L5: 1946548.17/1031324.296061894, 4.284195964336395/2.2692374926690353
L6: 1792850.44/993949.1696743482, 4.06314905166626/2.246692859073381
L7: 2008761.3/1452176.7518689968, 4.465051302909851/3.227211413811177
L8: 2324991.67/1644466.3143944119, 7.132425971031189/5.040122679029872