2020-06-12 11:12:30.561060: I tensorflow/stream_executor/platform/default/dso_loader.cc:44] Successfully opened dynamic library libnvinfer.so.6
2020-06-12 11:12:30.563828: I tensorflow/stream_executor/platform/default/dso_loader.cc:44] Successfully opened dynamic library libnvinfer_plugin.so.6
model:queue, T:500, V:45.0, CI:0.0
v-splits:[20.0, 30.0, 40.0, 45.0], splits:3
trails:20, experiment type:splitting
Loading Queue Model...
relative error:0.0003/0.1
relative error:0.0003/0.1
relative error:0.0003/0.1
relative error:0.0003/0.1
relative error:0.0003/0.1
=====8=====
8152322.15/1104266.176405819
31.496698367595673/4.24720790043911
=====9=====
7630695.9/1013750.3636722355
29.552795028686525/3.933786223806759
=====10=====
7304747.3/2032158.5613338125
28.389431297779083/7.9174886213849565
=====11=====
7102332.85/3210022.063921123
27.621300661563872/12.48638119500657
=====12=====
6396852.15/4366609.502653486
25.06862474679947/17.102924343605864
