2020-06-11 19:12:49.647401: I tensorflow/stream_executor/platform/default/dso_loader.cc:44] Successfully opened dynamic library libnvinfer.so.6
2020-06-11 19:12:49.649411: I tensorflow/stream_executor/platform/default/dso_loader.cc:44] Successfully opened dynamic library libnvinfer_plugin.so.6
model:queue, T:500, V:40.0, CI:0.0
v-splits:[14.0, 20.0, 30.0, 40.0], splits:3
trails:100, experiment type:splitting
Loading Queue Model...
relative error:0.0016/0.1
relative error:0.0016/0.1
relative error:0.0016/0.1
relative error:0.0016/0.1
relative error:0.0016/0.1
relative error:0.0016/0.1
relative error:0.0016/0.1
=====1=====
34461336.7/3156185.432355962
100.24801575422288/9.20944388651976
=====2=====
7148149.34/881913.52500966
20.967524127960203/2.5887583119887703
=====3=====
3741608.82/542027.2068416193
11.039188330173493/1.5968568465156
=====4=====
2907712.41/447144.97361176036
8.632465019226075/1.331691984610004
=====5=====
2771433.05/604639.2871542401
8.294675097465515/1.8109713545281638
=====6=====
2966897.38/720041.5491111298
8.91394285440445/2.1569150750594455
=====7=====
3224657.58/878636.0281101519
9.742298619747162/2.6548757174097393
