2020-06-07 11:41:23.310517: I tensorflow/stream_executor/platform/default/dso_loader.cc:44] Successfully opened dynamic library libnvinfer.so.6
2020-06-07 11:41:23.314912: I tensorflow/stream_executor/platform/default/dso_loader.cc:44] Successfully opened dynamic library libnvinfer_plugin.so.6
model:queue, T:500, V:45.0, CI:0.0
v-splits:[20.0, 30.0, 40.0, 45.0], splits:3
trails:5, experiment type:efficiency
Loading Queue Model...
relative error:0.0003/0.1
012341.0
=====SRS=====
estimate avg: 0.00035465193054341423, std:1.6237746098016926e-05
cost avg: 196955723.4, std:9011699.2600985
avg time: 674.442302942276, std:34.50796972097989
error: 0.09999865704915316/6.97077708797031e-07
=====MLSS=====
estimate avg: 0.0003978882488036995, std:2.1885996566551833e-05
cost avg: 19747214.8, std:1593064.0205122204
avg time: 68.15568237304687, std:6.916762257723661
error: 0.09999168692852718/5.38368563027116e-06
