2020-06-07 11:40:56.585055: I tensorflow/stream_executor/platform/default/dso_loader.cc:44] Successfully opened dynamic library libnvinfer.so.6
2020-06-07 11:40:56.817386: I tensorflow/stream_executor/platform/default/dso_loader.cc:44] Successfully opened dynamic library libnvinfer_plugin.so.6
model:queue, T:500, V:20.0, CI:0.01
v-splits:[12.0, 16.0, 20.0], splits:3
trails:100, experiment type:efficiency
Loading Queue Model...
confidence interval:0.01
01234567891011121314151617181920212223242526272829303132333435363738394041424344454647484950515253545556575859606162636465666768697071727374757677787980818283848586878889909192939495969798990.96
=====SRS=====
estimate avg: 0.17228720303852257, std:0.005350338580077544
cost avg: 2601506.81, std:59925.06553399754
avg time: 9.218702023029328, std:0.2984506947424043
error: 0.009994320583350254/4.34296516966623e-06
=====MLSS=====
estimate avg: 0.17913900243441586, std:0.004197216818277019
cost avg: 1843449.1354166667, std:60364.89575811353
avg time: 6.693851498266061, std:0.2664197717154943
error: 0.009991133876719844/5.2910439097170386e-06
