[22, 32, 40] 0.0016 0.1
00->22 0.11765503219247712 14755
cost: 483.97045069467976
22->32 0.11770353302611367 1736 613
cost: 125.46332565284179
32->40 0.14246873300706905 613 262
cost: 81.78031538879826
102030405060708090mlss: 0.0016849178962138444/0.00016187318227823045, 6560949.63/903539.271149026, 25.54432170391083/3.528244742091363
