2020-05-28 23:41:14.499750: I tensorflow/stream_executor/platform/default/dso_loader.cc:44] Successfully opened dynamic library libnvinfer.so.6
2020-05-28 23:41:14.501872: I tensorflow/stream_executor/platform/default/dso_loader.cc:44] Successfully opened dynamic library libnvinfer_plugin.so.6
2020-05-28 23:41:17.151298: I tensorflow/stream_executor/platform/default/dso_loader.cc:44] Successfully opened dynamic library libcuda.so.1
2020-05-28 23:41:17.153450: E tensorflow/stream_executor/cuda/cuda_driver.cc:351] failed call to cuInit: CUDA_ERROR_NO_DEVICE: no CUDA-capable device is detected
2020-05-28 23:41:17.153479: I tensorflow/stream_executor/cuda/cuda_diagnostics.cc:169] retrieving CUDA diagnostic information for host: linux54
2020-05-28 23:41:17.153485: I tensorflow/stream_executor/cuda/cuda_diagnostics.cc:176] hostname: linux54
2020-05-28 23:41:17.153554: I tensorflow/stream_executor/cuda/cuda_diagnostics.cc:200] libcuda reported version is: 435.21.0
2020-05-28 23:41:17.153576: I tensorflow/stream_executor/cuda/cuda_diagnostics.cc:204] kernel reported version is: 435.21.0
2020-05-28 23:41:17.153581: I tensorflow/stream_executor/cuda/cuda_diagnostics.cc:310] kernel version seems to match DSO: 435.21.0
2020-05-28 23:41:17.160700: I tensorflow/core/platform/cpu_feature_guard.cc:142] Your CPU supports instructions that this TensorFlow binary was not compiled to use: AVX2 AVX512F FMA
2020-05-28 23:41:17.186375: I tensorflow/core/platform/profile_utils/cpu_utils.cc:94] CPU Frequency: 2700000000 Hz
2020-05-28 23:41:17.186563: I tensorflow/compiler/xla/service/service.cc:168] XLA service 0x561b1e22dc10 initialized for platform Host (this does not guarantee that XLA will be used). Devices:
2020-05-28 23:41:17.186581: I tensorflow/compiler/xla/service/service.cc:176]   StreamExecutor device (0): Host, Default Version
WARNING:tensorflow:From /home/home1/jygao/.local/lib/python3.7/site-packages/tensorflow_core/python/ops/linalg/linear_operator_diag.py:166: calling LinearOperator.__init__ (from tensorflow.python.ops.linalg.linear_operator) with graph_parents is deprecated and will be removed in a future version.
Instructions for updating:
Do not pass `graph_parents`.  They will  no longer be used.
200 1550 [1380, 1440, 1500, 1550] 0.1
Num CPUs: 1
Num GPUs: 0
Model Loaded!
ground-truth: 0.022222222222222223
srs: (0.31, 1.4716444883191049, 19955, 273.56228590011597)
srs: (0.21, 1.0582178414674361, 39919, 547.4227402210236)
srs: (0.1625, 0.830044944189771, 59832, 820.8472144603729)
srs: (0.136, 0.6898486790594006, 79699, 1094.2805345058441)
srs: (0.115, 0.5860807324933998, 99682, 1369.281477689743)
srs: (0.1, 0.5102520385624567, 119672, 1643.462676525116)
srs: (0.08875, 0.4524498742091493, 139602, 1916.9826085567474)
srs: (0.08222222222222222, 0.41205447320577515, 159449, 2189.464380502701)
srs: (0.075, 0.37481245310154787, 179424, 2463.2640376091003)
srs: (0.07, 0.3461837399679278, 199376, 2737.0490262508392)
srs: (0.06416666666666666, 0.318328765783113, 219376, 3010.8760454654694)
srs: (0.06307692307692307, 0.3034087181515082, 239278, 3283.806765317917)
srs: (0.060714285714285714, 0.28720553115892433, 259109, 3555.5545938014984)
srs: (0.058, 0.27158534570186216, 279046, 3827.650060415268)
srs: (0.055625, 0.25784562997360333, 298979, 4099.954847097397)
srs: (0.052941176470588235, 0.24438431260018328, 318971, 4373.961361885071)
srs: (0.05, 0.2311655251113366, 338971, 4648.511853933334)
srs: (0.04789473684210526, 0.2204560856443377, 358953, 4922.392174959183)
srs: (0.0465, 0.21187725662515075, 378872, 5195.454760789871)
srs: (0.04476190476190476, 0.20305466095432767, 398866, 5469.7199165821075)
srs: (0.04363636363636364, 0.19599138268978855, 418790, 5742.301298618317)
srs: (0.04217391304347826, 0.18858792212780476, 438779, 6016.454121589661)
srs: (0.041666666666666664, 0.18355218944485513, 458653, 6288.717888116837)
srs: (0.0408, 0.17804393165733, 478636, 6562.616815328598)
srs: (0.03923076923076923, 0.1713360674815064, 498636, 6836.546670675278)
srs: (0.03851851851851852, 0.1666617283219, 518494, 7108.354936599731)
srs: (0.037142857142857144, 0.16082445203754883, 538494, 7382.487604141235)
srs: (0.03620689655172414, 0.15609934206214388, 558454, 7656.034967184067)
srs: (0.036, 0.15305293202026546, 578332, 7928.096235275269)
srs: (0.03516129032258065, 0.14886459784140654, 598325, 8201.164247512817)
srs: (0.0346875, 0.14556534359727177, 618266, 8473.946621894836)
srs: (0.034545454545454546, 0.14305957000843825, 638160, 8745.93001461029)
srs: (0.033529411764705884, 0.13892498015816987, 658160, 9020.11242055893)
srs: (0.033428571428571426, 0.1367270290267155, 677974, 9291.988402843475)
srs: (0.03277777777777778, 0.13354085413169342, 697901, 9565.147059202194)
srs: (0.03216216216216216, 0.13052255568935026, 717878, 9838.873461723328)
srs: (0.031315789473684214, 0.12714330846966937, 737878, 10112.626133203506)
srs: (0.03076923076923077, 0.1244377432070193, 757861, 10386.49359703064)
srs: (0.031, 0.12331765384566801, 777803, 10659.100900411606)
srs: (0.03048780487804878, 0.1208259731499851, 797778, 10931.601340770721)
srs: (0.03, 0.11844980853871034, 817754, 11204.378139019012)
srs: (0.02930232558139535, 0.115736761336712, 837754, 11477.083278179169)
srs: (0.02909090909090909, 0.11401292978990908, 857707, 11748.883291244507)
srs: (0.028444444444444446, 0.11151641633011308, 877707, 12021.105092525482)
srs: (0.028043478260869566, 0.10954005542494581, 897678, 12294.347619533539)
srs: (0.0274468085106383, 0.10724231803740394, 917678, 12568.945065021515)
srs: (0.027291666666666665, 0.10582742829757379, 937566, 12841.052292108536)
srs: (0.026938775510204082, 0.10408148565538287, 957534, 13114.961495876312)
srs: (0.0264, 0.10202809024969545, 977534, 13389.224239826202)
srs: (0.026470588235294117, 0.10115416286626086, 997431, 13661.553717851639)
mlss, (0.027407407407407408, 0.3853137249912941, 20520, 280.95934534072876)
mlss, (0.01888888888888889, 0.23033188615078407, 36362, 496.9974446296692)
mlss, (0.016049382716049384, 0.1724311755108856, 52043, 711.4377887248993)
mlss, (0.018703703703703705, 0.15723191469927472, 74959, 1024.8430485725403)
mlss, (0.01925925925925926, 0.14942854107863357, 92968, 1270.885354757309)
mlss, (0.01950617283950617, 0.1359450990615246, 112670, 1540.8364217281342)
mlss, (0.020423280423280423, 0.13287116206237878, 130606, 1786.392196893692)
mlss, (0.019814814814814816, 0.12101351508543717, 147505, 2017.2058863639832)
mlss, (0.019588477366255144, 0.11452319263881516, 164164, 2245.129506111145)
mlss, (0.01859259259259259, 0.1049337357044382, 178680, 2443.6832749843597)
mlss, (0.018585858585858588, 0.09947050736212068, 196913, 2693.4429037570953)
======SRS History======
(0.5454545454545454, 2.136407595819928, 2000, 27.501548528671265)
(0.5, 2.053959590644373, 4000, 54.87844705581665)
(0.47692307692307695, 1.9712775975008539, 5955, 81.66761660575867)
(0.44285714285714284, 1.8891376624988765, 7955, 109.07161545753479)
(0.41333333333333333, 1.8093092604637826, 9955, 136.42710256576538)
(0.3875, 1.7331710348195588, 11955, 163.86480855941772)
(0.36470588235294116, 1.6612953680849032, 13955, 191.16561222076416)
(0.34444444444444444, 1.5938248893080373, 15955, 218.3909261226654)
(0.3263157894736842, 1.5306748338096314, 17955, 245.96600580215454)
(0.31, 1.4716444883191049, 19955, 273.56228590011597)
(0.29523809523809524, 1.416479436550032, 21955, 300.8989441394806)
(0.2818181818181818, 1.3649064333318104, 23955, 328.27374839782715)
(0.26956521739130435, 1.316652734254009, 25955, 355.9457380771637)
(0.2625, 1.2780638738439485, 27919, 382.8408501148224)
(0.252, 1.2356446091008528, 29919, 410.3534562587738)
(0.2423076923076923, 1.1957926498550775, 31919, 437.7814426422119)
(0.23333333333333334, 1.1583033569262702, 33919, 465.1701295375824)
(0.225, 1.1229892745321681, 35919, 492.56001114845276)
(0.21724137931034482, 1.0896793484577034, 37919, 520.0904445648193)
(0.21, 1.0582178414674361, 39919, 547.4227402210236)
(0.2064516129032258, 1.0344928981757615, 41836, 573.4548985958099)
(0.203125, 1.0120787697997111, 43832, 600.7860286235809)
(0.19696969696969696, 0.9851927772850985, 45832, 628.3238749504089)
(0.19117647058823528, 0.9596594923926423, 47832, 655.7607886791229)
(0.18571428571428572, 0.935383178682458, 49832, 683.0687959194183)
(0.18055555555555555, 0.9122764185754715, 51832, 710.7238128185272)
(0.17567567567567569, 0.8902593132999952, 53832, 738.3023824691772)
(0.17105263157894737, 0.8692587561249348, 55832, 765.7904164791107)
(0.16666666666666666, 0.8492077756084468, 57832, 793.1945886611938)
(0.1625, 0.830044944189771, 59832, 820.8472144603729)
(0.15853658536585366, 0.8117138468282866, 61832, 848.117769241333)
(0.15476190476190477, 0.7941626042458227, 63832, 875.4667234420776)
(0.1511627906976744, 0.7773434454624633, 65832, 903.0277366638184)
(0.14772727272727273, 0.7612123246090667, 67832, 930.5121338367462)
(0.14444444444444443, 0.7457285773732365, 69832, 958.0863230228424)
(0.14347826086956522, 0.7355223008072528, 71781, 985.0044920444489)
(0.1425531914893617, 0.7256975406656734, 73714, 1011.7675333023071)
(0.13958333333333334, 0.7118083608515181, 75714, 1039.393028497696)
(0.13877551020408163, 0.7027956675244378, 77699, 1066.8178100585938)
(0.136, 0.6898486790594006, 79699, 1094.2805345058441)
(0.13333333333333333, 0.6773651374345779, 81699, 1121.604465007782)
(0.13076923076923078, 0.665320908808501, 83699, 1149.0219581127167)
(0.12830188679245283, 0.6536934803185919, 85699, 1176.790268421173)
(0.1259259259259259, 0.6424618289409032, 87699, 1204.2467241287231)
(0.12363636363636364, 0.6316063025433422, 89699, 1231.6476032733917)
(0.12142857142857143, 0.6211085118783165, 91699, 1259.443162202835)
(0.12105263157894737, 0.6148138446441471, 93682, 1286.6732723712921)
(0.11896551724137931, 0.6049305516872087, 95682, 1314.0556149482727)
(0.11694915254237288, 0.5953576018827293, 97682, 1341.6138503551483)
(0.115, 0.5860807324933998, 99682, 1369.281477689743)
(0.11311475409836065, 0.5770865323781242, 101682, 1396.6302666664124)
(0.11129032258064517, 0.5683623801824026, 103682, 1424.0352454185486)
(0.10952380952380952, 0.5598963877491774, 105682, 1451.5492157936096)
(0.1078125, 0.5516773482534222, 107682, 1479.0796904563904)
(0.1076923076923077, 0.5471488561011687, 109672, 1506.2054343223572)
(0.10606060606060606, 0.5393511838070624, 111672, 1533.6297993659973)
(0.1044776119402985, 0.5317713739758235, 113672, 1561.165795326233)
(0.10294117647058823, 0.5244004820371136, 115672, 1588.5678126811981)
(0.10144927536231885, 0.517230042699344, 117672, 1615.9356853961945)
(0.1, 0.5102520385624567, 119672, 1643.462676525116)
(0.09859154929577464, 0.5034588711386823, 121672, 1670.9826927185059)
(0.09722222222222222, 0.49684333407132586, 123672, 1698.2948470115662)
(0.0958904109589041, 0.49039858836195277, 125672, 1725.716227054596)
(0.0945945945945946, 0.4841181394345188, 127672, 1753.2479116916656)
(0.09333333333333334, 0.47799581588126894, 129672, 1780.5133204460144)
(0.09210526315789473, 0.472025749749825, 131672, 1808.0255315303802)
(0.09220779220779221, 0.4691850746753015, 133602, 1834.6487629413605)
(0.09102564102564102, 0.46347135936953954, 135602, 1862.1818709373474)
(0.08987341772151898, 0.45789457312910714, 137602, 1889.4893493652344)
(0.08875, 0.4524498742091493, 139602, 1916.9826085567474)
(0.08765432098765433, 0.44713264530742886, 141602, 1944.5476434230804)
(0.08658536585365853, 0.44193848078406217, 143602, 1971.879566192627)
(0.0855421686746988, 0.43686317473881103, 145602, 1999.2984566688538)
(0.08452380952380953, 0.43190270988007157, 147602, 2026.8079760074615)
(0.08352941176470588, 0.42705324712536435, 149602, 2054.2291991710663)
(0.08372093023255814, 0.42500515119853, 151549, 2080.972254037857)
(0.0839080459770115, 0.4229842783138455, 153459, 2107.33477807045)
(0.08295454545454546, 0.41839520913928974, 155459, 2134.8817191123962)
(0.08202247191011236, 0.41390432275803507, 157459, 2162.162014245987)
(0.08222222222222222, 0.41205447320577515, 159449, 2189.464380502701)
(0.08241758241758242, 0.4102270507274826, 161424, 2216.721790790558)
(0.08152173913043478, 0.4059660900765228, 163424, 2243.987442970276)
(0.08064516129032258, 0.40179245763677063, 165424, 2271.371485710144)
(0.0797872340425532, 0.3977035052942639, 167424, 2298.870479106903)
(0.07894736842105263, 0.39369669051574463, 169424, 2326.319929599762)
(0.078125, 0.38976957116162314, 171424, 2353.729424715042)
(0.07731958762886598, 0.3859198006002551, 173424, 2381.157903432846)
(0.07653061224489796, 0.3821451231034234, 175424, 2408.616685628891)
(0.07575757575757576, 0.37844336950442564, 177424, 2435.8171207904816)
(0.075, 0.37481245310154787, 179424, 2463.2640376091003)
(0.07524752475247524, 0.3735172705478345, 181406, 2490.6023757457733)
(0.07450980392156863, 0.3700028330685184, 183406, 2517.9562656879425)
(0.07378640776699029, 0.36655374436939864, 185406, 2545.348281621933)
(0.07307692307692308, 0.36316820369337605, 187406, 2572.724493265152)
(0.07333333333333333, 0.3620181526624636, 189376, 2599.789876461029)
(0.07264150943396226, 0.35873672363279985, 191376, 2627.161431789398)
(0.07196261682242991, 0.3555141034178907, 193376, 2654.6709401607513)
(0.0712962962962963, 0.3523487293259523, 195376, 2682.093729019165)
(0.07064220183486239, 0.34923909338330417, 197376, 2709.4412870407104)
(0.07, 0.3461837399679278, 199376, 2737.0490262508392)
(0.06936936936936937, 0.34318126356434325, 201376, 2764.4562265872955)
(0.06875, 0.3402303066326386, 203376, 2791.738128185272)
(0.06814159292035399, 0.33732955758496264, 205376, 2819.074670791626)
(0.06754385964912281, 0.3344777488632371, 207376, 2846.3432030677795)
(0.06695652173913043, 0.33167365511225133, 209376, 2873.643942832947)
(0.06637931034482758, 0.3289160914426819, 211376, 2900.9765844345093)
(0.06581196581196581, 0.32620391177893565, 213376, 2928.4749953746796)
(0.06525423728813559, 0.32353600728703713, 215376, 2956.0247094631195)
(0.06470588235294118, 0.32091130487808894, 217376, 2983.5159587860107)
(0.06416666666666666, 0.318328765783113, 219376, 3010.8760454654694)
(0.06446280991735537, 0.31769104489937605, 221371, 3038.1259319782257)
(0.06393442622950819, 0.31517598665591867, 223371, 3065.467067718506)
(0.06341463414634146, 0.312700364518255, 225371, 3092.8988797664642)
(0.06370967741935483, 0.31211140704510215, 227316, 3119.7422454357147)
(0.064, 0.31151963020008866, 229297, 3147.1230778694153)
(0.06349206349206349, 0.30913109571433367, 231297, 3174.4407999515533)
(0.06299212598425197, 0.3067788439456996, 233297, 3201.9670412540436)
(0.0625, 0.30446205601796666, 235297, 3229.4286439418793)
(0.06279069767441861, 0.3039370250063876, 237284, 3256.587682247162)
(0.06307692307692307, 0.3034087181515082, 239278, 3283.806765317917)
(0.06259541984732825, 0.301169979843833, 241278, 3311.2144627571106)
(0.06212121212121212, 0.29896397932130614, 243278, 3338.558786392212)
(0.061654135338345864, 0.29679000505205727, 245278, 3365.802307367325)
(0.06194029850746269, 0.29632070704129243, 247221, 3392.403131723404)
(0.061481481481481484, 0.29419766038241296, 249221, 3419.8047907352448)
(0.061764705882352944, 0.29374408586534484, 251130, 3445.772512435913)
(0.061313868613138686, 0.2916700192922247, 253130, 3473.438878774643)
(0.06086956521739131, 0.28962498744499043, 255130, 3500.916356086731)
(0.06115107913669065, 0.2892044905601857, 257109, 3528.1626937389374)
(0.060714285714285714, 0.28720553115892433, 259109, 3555.5545938014984)
(0.06028368794326241, 0.28523397008709933, 261109, 3583.092810869217)
(0.05985915492957746, 0.2832892488798678, 263109, 3610.3445947170258)
(0.05944055944055944, 0.28137082411865805, 265109, 3637.4859731197357)
(0.059722222222222225, 0.2810135966337849, 267074, 3664.3371019363403)
(0.05931034482758621, 0.2791366879896293, 269074, 3691.6305408477783)
(0.0589041095890411, 0.27728464593450003, 271074, 3718.8723447322845)
(0.058503401360544216, 0.2754569803743543, 273074, 3746.2325603961945)
(0.05810810810810811, 0.2736532139867534, 275074, 3773.524874687195)
(0.05838926174496644, 0.27335157023097806, 277046, 3800.3619651794434)
(0.058, 0.27158534570186216, 279046, 3827.650060415268)
(0.0576158940397351, 0.2698417652067212, 281046, 3854.9380571842194)
(0.057236842105263155, 0.26812039674914606, 283046, 3882.1887757778168)
(0.056862745098039215, 0.26642081923307404, 285046, 3909.543030500412)
(0.05714285714285714, 0.2661681443177652, 287037, 3936.707141160965)
(0.05741935483870968, 0.2659102496786456, 288979, 3963.1067984104156)
(0.05705128205128205, 0.2642572772290339, 290979, 3990.54292845726)
(0.056687898089171976, 0.26262469905128605, 292979, 4017.8959987163544)
(0.056329113924050635, 0.2610121406051402, 294979, 4045.3554117679596)
(0.0559748427672956, 0.25941923645057874, 296979, 4072.5630831718445)
(0.055625, 0.25784562997360333, 298979, 4099.954847097397)
(0.055279503105590065, 0.2562909731218485, 300979, 4127.165607452393)
(0.05493827160493827, 0.25475492614962403, 302979, 4154.499139070511)
(0.05460122699386503, 0.25323715737199676, 304979, 4182.1064453125)
(0.054878048780487805, 0.25306602616061813, 306971, 4209.634730577469)
(0.05454545454545454, 0.25157654665717333, 308971, 4236.992836475372)
(0.05421686746987952, 0.25010447512418227, 310971, 4264.447585582733)
(0.05389221556886228, 0.24864950858134327, 312971, 4291.801127672195)
(0.05357142857142857, 0.24721135102834468, 314971, 4319.152648448944)
(0.05325443786982249, 0.24578971324533455, 316971, 4346.486482381821)
(0.052941176470588235, 0.24438431260018328, 318971, 4373.961361885071)
(0.05263157894736842, 0.2429948728622733, 320971, 4401.411249399185)
(0.05232558139534884, 0.2416211240225579, 322971, 4428.845721244812)
(0.05202312138728324, 0.240262802119646, 324971, 4456.353826999664)
(0.05172413793103448, 0.23891964907167917, 326971, 4483.788126945496)
(0.05142857142857143, 0.23759141251377658, 328971, 4511.190112113953)
(0.05113636363636364, 0.23627784564083512, 330971, 4538.595745563507)
(0.05084745762711865, 0.23497870705548032, 332971, 4566.210312604904)
(0.05056179775280899, 0.2336937606209719, 334971, 4593.606850147247)
(0.05027932960893855, 0.23242277531887776, 336971, 4620.999992132187)
(0.05, 0.2311655251113366, 338971, 4648.511853933334)
(0.049723756906077346, 0.2299217888077383, 340971, 4675.869192361832)
(0.04945054945054945, 0.22869134993565776, 342971, 4703.222166776657)
(0.04918032786885246, 0.2274739966158846, 344971, 4730.724567890167)
(0.04891304347826087, 0.2262695214413988, 346971, 4758.110077619553)
(0.04864864864864865, 0.22507772136014717, 348971, 4785.4621489048)
(0.04838709677419355, 0.2238983975614829, 350971, 4812.955913543701)
(0.0481283422459893, 0.22273135536613511, 352971, 4840.270095825195)
(0.047872340425531915, 0.22157640411958165, 354971, 4867.715923547745)
(0.047619047619047616, 0.2204333570887027, 356971, 4895.096480369568)
(0.04789473684210526, 0.2204560856443377, 358953, 4922.392174959183)
(0.04764397905759162, 0.2193307423753145, 360953, 4949.768288135529)
(0.04739583333333333, 0.21821681847305432, 362953, 4977.1800627708435)
(0.047150259067357515, 0.21711414117793953, 364953, 5004.56205868721)
(0.04690721649484536, 0.2160225411938793, 366953, 5031.984826087952)
(0.04666666666666667, 0.21494185260204676, 368953, 5059.333005428314)
(0.04693877551020408, 0.2149862856318987, 370913, 5086.233048200607)
(0.046700507614213196, 0.21392172018243027, 372913, 5113.7317225933075)
(0.04696969696969697, 0.213964711625976, 374872, 5140.595058441162)
(0.04673366834170854, 0.21291587267400083, 376872, 5168.009142160416)
(0.0465, 0.21187725662515075, 378872, 5195.454760789871)
(0.046766169154228855, 0.211923982567198, 380866, 5222.709636688232)
(0.046534653465346534, 0.2109004603928593, 382866, 5250.183521986008)
(0.04630541871921182, 0.209886768095519, 384866, 5277.787196159363)
(0.04607843137254902, 0.20888276488184832, 386866, 5305.228670835495)
(0.045853658536585365, 0.2078883126317263, 388866, 5332.616959571838)
(0.04563106796116505, 0.20690327583516535, 390866, 5359.917649745941)
(0.04541062801932367, 0.20592752153101165, 392866, 5387.411833286285)
(0.04519230769230769, 0.20496091924736382, 394866, 5414.768458843231)
(0.044976076555023926, 0.20400334094365236, 396866, 5442.2566957473755)
(0.04476190476190476, 0.20305466095432767, 398866, 5469.7199165821075)
(0.04454976303317536, 0.202114755934104, 400866, 5497.149197101593)
(0.04433962264150943, 0.20118350480470948, 402866, 5524.381907463074)
(0.044131455399061034, 0.20026078870309444, 404866, 5551.740123748779)
(0.04392523364485981, 0.1993464909310518, 406866, 5579.240986585617)
(0.04372093023255814, 0.19844049690620433, 408866, 5606.527378082275)
(0.04398148148148148, 0.1985426058687772, 410829, 5633.286487817764)
(0.04377880184331797, 0.19764861079036639, 412829, 5660.619643211365)
(0.04357798165137615, 0.19676262402210629, 414829, 5687.994158506393)
(0.043835616438356165, 0.19686580938193848, 416790, 5714.791713237762)
(0.04363636363636364, 0.19599138268978855, 418790, 5742.301298618317)
(0.04343891402714932, 0.19512468333153787, 420790, 5769.8038148880005)
(0.043243243243243246, 0.19426560941495075, 422790, 5797.348804950714)
(0.04349775784753363, 0.19437325794618104, 424779, 5824.54599905014)
(0.04330357142857143, 0.19352516166631073, 426779, 5852.131927013397)
(0.043111111111111114, 0.1926844282470405, 428779, 5879.466482877731)
(0.04292035398230089, 0.19185096230056817, 430779, 5906.7772216796875)
(0.042731277533039645, 0.191024670078249, 432779, 5934.146944522858)
(0.04254385964912281, 0.1902054594355695, 434779, 5961.5119643211365)
(0.042358078602620086, 0.18939323979801512, 436779, 5988.9998190402985)
(0.04217391304347826, 0.18858792212780476, 438779, 6016.454121589661)
(0.04242424242424243, 0.1887122718922508, 440717, 6043.0531141757965)
(0.04224137931034483, 0.1879167970899396, 442717, 6070.448447704315)
(0.04248927038626609, 0.18803816944711996, 444685, 6097.383953332901)
(0.04230769230769231, 0.18725233985228265, 446685, 6124.758060216904)
(0.04212765957446808, 0.1864730460738287, 448685, 6152.092304229736)
(0.04194915254237288, 0.18570020697587444, 450685, 6179.523086071014)
(0.04177215189873418, 0.18493374275883956, 452685, 6206.969935178757)
(0.04159663865546218, 0.18417357493207334, 454685, 6234.350684404373)
(0.04142259414225941, 0.18341962628715033, 456685, 6261.732819080353)
(0.041666666666666664, 0.18355218944485513, 458653, 6288.717888116837)
(0.04149377593360996, 0.1828070497735739, 460653, 6316.0995807647705)
(0.04132231404958678, 0.18206793112024994, 462653, 6343.459423542023)
(0.0411522633744856, 0.1813347608559984, 464653, 6370.873733282089)
(0.040983606557377046, 0.18060746751443718, 466653, 6398.359184265137)
(0.04122448979591837, 0.18074470467292694, 468647, 6425.585087060928)
(0.04105691056910569, 0.18002570090212677, 470647, 6453.040948867798)
(0.04129554655870445, 0.18015985299169446, 472636, 6480.365651607513)
(0.04112903225806452, 0.17944898390095207, 474636, 6507.820027589798)
(0.04096385542168675, 0.1787436986174081, 476636, 6535.273151636124)
(0.0408, 0.17804393165733, 478636, 6562.616815328598)
(0.04063745019920319, 0.17734961855613182, 480636, 6590.0871732234955)
(0.04047619047619048, 0.17666069584864075, 482636, 6617.565208911896)
(0.04031620553359684, 0.17597710104982012, 484636, 6644.937913894653)
(0.04015748031496063, 0.1752987726359367, 486636, 6672.351320505142)
(0.04, 0.17462565002615973, 488636, 6699.837207794189)
(0.03984375, 0.17395767356458103, 490636, 6727.230798006058)
(0.03968871595330739, 0.17329478450264454, 492636, 6754.549839258194)
(0.03953488372093023, 0.17263692498197428, 494636, 6781.868348360062)
(0.039382239382239385, 0.17198403801759102, 496636, 6809.225185871124)
(0.03923076923076923, 0.1713360674815064, 498636, 6836.546670675278)
(0.03908045977011494, 0.17069295808668547, 500636, 6863.739217042923)
(0.038931297709923665, 0.17005465537136769, 502636, 6891.1657972335815)
(0.03878326996197719, 0.16942110568373706, 504636, 6918.479396820068)
(0.03901515151515152, 0.16958423218973415, 506584, 6945.051221609116)
(0.038867924528301886, 0.1689572326891188, 508584, 6972.392589330673)
(0.0387218045112782, 0.16833484955923195, 510584, 6999.7280032634735)
(0.03895131086142322, 0.1684963965020944, 512494, 7025.970363616943)
(0.03880597014925373, 0.16788037155452928, 514494, 7053.342032670975)
(0.038661710037174724, 0.16726883175214502, 516494, 7080.881084442139)
(0.03851851851851852, 0.1666617283219, 518494, 7108.354936599731)
(0.03837638376383764, 0.16605901319487493, 520494, 7135.734674692154)
(0.03823529411764706, 0.16546063899362135, 522494, 7163.045893192291)
(0.0380952380952381, 0.1648665590197815, 524494, 7190.520658969879)
(0.03795620437956204, 0.16427672724197337, 526494, 7217.911252737045)
(0.03781818181818182, 0.16369109828393372, 528494, 7245.344556570053)
(0.03768115942028986, 0.16310962741291307, 530494, 7272.848291158676)
(0.03754512635379061, 0.1625322705283163, 532494, 7300.316466808319)
(0.03741007194244604, 0.16195898415058294, 534494, 7327.715540409088)
(0.03727598566308244, 0.16138972541030094, 536494, 7355.100945234299)
(0.037142857142857144, 0.16082445203754883, 538494, 7382.487604141235)
(0.03701067615658363, 0.16026312235145995, 540494, 7409.793954372406)
(0.03687943262411347, 0.15970569525000405, 542494, 7437.306061506271)
(0.03674911660777385, 0.15915213019998067, 544494, 7464.624904632568)
(0.036619718309859155, 0.15860238722721906, 546494, 7492.007389307022)
(0.036491228070175435, 0.1580564269069801, 548494, 7519.382388114929)
(0.03636363636363636, 0.15751421035455507, 550494, 7546.918806552887)
(0.03623693379790941, 0.15697569921605664, 552494, 7574.2715716362)
(0.03611111111111111, 0.1564408556593975, 554494, 7601.684417247772)
(0.03633217993079585, 0.1566292970871153, 556454, 7628.652231216431)
(0.03620689655172414, 0.15609934206214388, 558454, 7656.034967184067)
(0.03608247422680412, 0.15557295919703085, 560454, 7683.371676683426)
(0.03595890410958904, 0.15505011251644027, 562454, 7710.808824539185)
(0.03583617747440273, 0.15453076652621078, 564454, 7738.219667673111)
(0.03571428571428571, 0.15401488620534265, 566454, 7765.590309619904)
(0.03559322033898305, 0.1535024369981444, 568454, 7793.104895114899)
(0.03581081081081081, 0.1536932747431435, 570412, 7819.872750759125)
(0.036026936026936025, 0.15387937108653207, 572401, 7847.014195680618)
(0.035906040268456375, 0.15337261399325566, 574401, 7874.381329536438)
(0.03578595317725752, 0.15286918187444481, 576401, 7901.843937635422)
(0.036, 0.15305293202026546, 578332, 7928.096235275269)
(0.035880398671096346, 0.15255391314983616, 580332, 7955.307065486908)
(0.03609271523178808, 0.15273425505660798, 582325, 7982.732512950897)
(0.03597359735973597, 0.15223958747855337, 584325, 8009.997395992279)
(0.03585526315789474, 0.1517481120418086, 586325, 8037.250117778778)
(0.035737704918032784, 0.15125979796426403, 588325, 8064.4267547130585)
(0.03562091503267974, 0.15077461485808905, 590325, 8091.838102579117)
(0.03550488599348534, 0.15029253272344334, 592325, 8119.134499073029)
(0.03538961038961039, 0.14981352194230813, 594325, 8146.508589744568)
(0.035275080906148865, 0.14933755327243448, 596325, 8173.970303058624)
(0.03516129032258065, 0.14886459784140654, 598325, 8201.164247512817)
(0.03504823151125402, 0.1483946271408166, 600325, 8228.488745450974)
(0.03493589743589744, 0.14792761302055024, 602325, 8255.881806850433)
(0.034824281150159744, 0.14746352768317814, 604325, 8283.228583335876)
(0.03471337579617834, 0.14700234367845344, 606325, 8310.619495153427)
(0.0346031746031746, 0.1465440338979115, 608325, 8338.173897981644)
(0.03449367088607595, 0.14608857156956992, 610325, 8365.411224603653)
(0.03438485804416404, 0.145635930252727, 612325, 8392.68978047371)
(0.03490566037735849, 0.14646429565046756, 614266, 8419.2595911026)
(0.034796238244514104, 0.14601343670542058, 616266, 8446.556918144226)
(0.0346875, 0.14556534359727177, 618266, 8473.946621894836)
(0.03489096573208723, 0.14574869779832003, 620216, 8500.809033632278)
(0.035093167701863354, 0.14592797455203513, 622185, 8527.702742815018)
(0.03498452012383901, 0.14548437516561713, 624185, 8554.883045434952)
(0.03487654320987654, 0.14504346319208544, 626185, 8582.119559764862)
(0.03476923076923077, 0.14460521429679035, 628185, 8609.491956233978)
(0.034662576687116566, 0.14416960443783744, 630185, 8636.784432172775)
(0.0345565749235474, 0.14373660986170086, 632185, 8664.06389594078)
(0.034451219512195125, 0.14330620709891537, 634185, 8691.580469846725)
(0.03434650455927052, 0.14287837295984485, 636185, 8718.93759560585)
(0.034545454545454546, 0.14305957000843825, 638160, 8745.93001461029)
(0.03444108761329305, 0.14263507476594994, 640160, 8773.419820785522)
(0.03433734939759036, 0.14221309001284457, 642160, 8800.822953939438)
(0.03423423423423423, 0.14179359355540705, 644160, 8828.296430826187)
(0.03413173652694611, 0.1413765634606153, 646160, 8855.69845032692)
(0.03402985074626866, 0.1409619780523262, 648160, 8883.061811685562)
(0.033928571428571426, 0.14054981590752774, 650160, 8910.510295152664)
(0.03382789317507418, 0.14014005585265693, 652160, 8937.894100904465)
(0.03372781065088758, 0.13973267695998143, 654160, 8965.270080804825)
(0.033628318584070796, 0.13932765854404427, 656160, 8992.690574169159)
(0.033529411764705884, 0.13892498015816987, 658160, 9020.11242055893)
(0.03343108504398827, 0.13852462159103027, 660160, 9047.750830411911)
(0.033625730994152045, 0.13871007507220268, 662076, 9074.034798145294)
(0.03381924198250729, 0.13889179171072166, 664044, 9101.011987924576)
(0.03372093023255814, 0.13849508210670775, 666044, 9128.362341165543)
(0.0336231884057971, 0.13810063118854946, 668044, 9155.755751371384)
(0.0338150289017341, 0.13828003626121138, 669974, 9182.195520401001)
(0.03371757925072046, 0.1378884879230205, 671974, 9209.530180454254)
(0.03362068965517241, 0.13749914966991308, 673974, 9237.182206630707)
(0.0335243553008596, 0.1371120028515429, 675974, 9264.574374437332)
(0.033428571428571426, 0.1367270290267155, 677974, 9291.988402843475)
(0.03333333333333333, 0.13634420996046584, 679974, 9319.528578281403)
(0.033238636363636366, 0.1359635276211852, 681974, 9346.983855724335)
(0.033144475920679886, 0.13558496417779564, 683974, 9374.344141721725)
(0.03305084745762712, 0.13520850199697182, 685974, 9401.83294057846)
(0.03295774647887324, 0.13483412364040806, 687974, 9429.143150568008)
(0.03286516853932584, 0.13446181186213157, 689974, 9456.576428890228)
(0.03277310924369748, 0.13409154960585934, 691974, 9483.887472867966)
(0.032681564245810056, 0.13372332000239834, 693974, 9511.454737663269)
(0.03286908077994429, 0.13390651358396913, 695901, 9537.783220291138)
(0.03277777777777778, 0.13354085413169342, 697901, 9565.147059202194)
(0.032686980609418284, 0.13317718537594364, 699901, 9592.622235774994)
(0.03287292817679558, 0.13335803697035625, 701878, 9619.69666647911)
(0.03278236914600551, 0.1329968857460125, 703878, 9647.176131725311)
(0.032692307692307694, 0.1326376844643864, 705878, 9674.507774353027)
(0.0326027397260274, 0.13228041738295102, 707878, 9701.740584850311)
(0.032513661202185795, 0.1319250689281028, 709878, 9729.125756502151)
(0.03242506811989101, 0.13157162369290282, 711878, 9756.442060470581)
(0.03233695652173913, 0.13122006643485443, 713878, 9783.993889331818)
(0.03224932249322493, 0.13087038207371635, 715878, 9811.399485111237)
(0.03216216216216216, 0.13052255568935026, 717878, 9838.873461723328)
(0.03207547169811321, 0.130176572519603, 719878, 9866.144967794418)
(0.03198924731182796, 0.12983241795822179, 721878, 9893.350905179977)
(0.03190348525469169, 0.1294900775528027, 723878, 9920.862097501755)
(0.031818181818181815, 0.12914953700277143, 725878, 9948.285848140717)
(0.031733333333333336, 0.1288107821573955, 727878, 9975.578230381012)
(0.03164893617021276, 0.1284737990138278, 729878, 10002.966521978378)
(0.03156498673740053, 0.12813857371518073, 731878, 10030.358825922012)
(0.03148148148148148, 0.12780509254863007, 733878, 10057.741289138794)
(0.03139841688654354, 0.12747334194354884, 735878, 10085.14613032341)
(0.031315789473684214, 0.12714330846966937, 737878, 10112.626133203506)
(0.031233595800524934, 0.12681497883527443, 739878, 10140.063170671463)
(0.031151832460732984, 0.12648833988541586, 741878, 10167.44802737236)
(0.031070496083550912, 0.12616337860016075, 743878, 10194.95017838478)
(0.030989583333333334, 0.12584008209286465, 745878, 10222.365165233612)
(0.03090909090909091, 0.12551843760847078, 747878, 10249.752499818802)
(0.030829015544041452, 0.12519843252183563, 749878, 10277.218690156937)
(0.03074935400516796, 0.12488005433607999, 751878, 10304.516356945038)
(0.030927835051546393, 0.12506894051758893, 753861, 10331.679129600525)
(0.030848329048843187, 0.12475254377999899, 755861, 10359.10062456131)
(0.03076923076923077, 0.1244377432070193, 757861, 10386.49359703064)
(0.030690537084398978, 0.12412452675538105, 759861, 10413.847363233566)
(0.03086734693877551, 0.12431133921926218, 761847, 10441.005010604858)
(0.03078880407124682, 0.1240000498343864, 763847, 10468.31317782402)
(0.03071065989847716, 0.12369031495703453, 765847, 10495.685386180878)
(0.030886075949367087, 0.12387473836545013, 767836, 10522.775964975357)
(0.03106060606060606, 0.1240561189235507, 769810, 10549.76646399498)
(0.031234256926952142, 0.12423450564067272, 771803, 10577.05461859703)
(0.031155778894472363, 0.12392737790758951, 773803, 10604.42473077774)
(0.03107769423558897, 0.12362176436446878, 775803, 10631.707457304)
(0.031, 0.12331765384566801, 777803, 10659.100900411606)
(0.030922693266832918, 0.12301503529500894, 779803, 10686.365136384964)
(0.030845771144278607, 0.12271389776444007, 781803, 10713.515159606934)
(0.03076923076923077, 0.12241423041271851, 783803, 10740.735121488571)
(0.030693069306930693, 0.1221160225041114, 785803, 10767.973360061646)
(0.030617283950617285, 0.12181926340711587, 787803, 10795.232291460037)
(0.030541871921182268, 0.12152394259319779, 789803, 10822.63718676567)
(0.030466830466830467, 0.1212300496355488, 791803, 10849.97266626358)
(0.030392156862745098, 0.12093757420786107, 793803, 10877.299320697784)
(0.030317848410757946, 0.12064650608311996, 795803, 10904.582184791565)
(0.03048780487804878, 0.1208259731499851, 797778, 10931.601340770721)
(0.030413625304136254, 0.12053660367971337, 799778, 10958.939534425735)
(0.03033980582524272, 0.12024861641176839, 801778, 10986.24279999733)
(0.03026634382566586, 0.11996200147029223, 803778, 11013.661303043365)
(0.030434782608695653, 0.1201395383335366, 805754, 11040.716119766235)
(0.030361445783132532, 0.11985457804588098, 807754, 11068.071620464325)
(0.03028846153846154, 0.11957096585100112, 809754, 11095.363135814667)
(0.030215827338129497, 0.11928869220886015, 811754, 11122.581552505493)
(0.03014354066985646, 0.11900774766918863, 813754, 11149.875576496124)
(0.03007159904534606, 0.11872812287043154, 815754, 11177.173606872559)
(0.03, 0.11844980853871034, 817754, 11204.378139019012)
(0.02992874109263658, 0.11817279548679928, 819754, 11231.587262392044)
(0.02985781990521327, 0.11789707461311595, 821754, 11258.818431138992)
(0.029787234042553193, 0.11762263690072636, 823754, 11286.04221534729)
(0.029716981132075472, 0.11734947341636329, 825754, 11313.393986940384)
(0.029647058823529412, 0.11707757530945859, 827754, 11340.607384204865)
(0.029577464788732393, 0.11680693381118894, 829754, 11367.789842128754)
(0.029508196721311476, 0.1165375402335344, 831754, 11395.060229301453)
(0.029439252336448597, 0.11626938596835043, 833754, 11422.500039100647)
(0.02937062937062937, 0.11600246248645223, 835754, 11449.776114225388)
(0.02930232558139535, 0.115736761336712, 837754, 11477.083278179169)
(0.02923433874709977, 0.11547227414516821, 839754, 11504.224956035614)
(0.029166666666666667, 0.11520899261414738, 841754, 11531.545318841934)
(0.029099307159353348, 0.11494690852139752, 843754, 11558.734592437744)
(0.02903225806451613, 0.11468601371923355, 845754, 11585.970661640167)
(0.028965517241379312, 0.11442630013369424, 847754, 11613.230146884918)
(0.02912844036697248, 0.11460637462430869, 849729, 11640.057571172714)
(0.029061784897025173, 0.11434804257112907, 851729, 11667.43428850174)
(0.02899543378995434, 0.11409087210096724, 853729, 11694.629203796387)
(0.028929384965831435, 0.11383485539965157, 855729, 11721.853080272675)
(0.02909090909090909, 0.11401292978990908, 857707, 11748.883291244507)
(0.029024943310657598, 0.11375826137038161, 859707, 11776.064747571945)
(0.02895927601809955, 0.1135047277205996, 861707, 11803.369905233383)
(0.028893905191873587, 0.11325232127553841, 863707, 11830.712016105652)
(0.02882882882882883, 0.1130010345372434, 865707, 11857.970407485962)
(0.028764044943820226, 0.11275086007408823, 867707, 11885.13027882576)
(0.028699551569506727, 0.11250179052004355, 869707, 11912.321196079254)
(0.028635346756152126, 0.11225381857395499, 871707, 11939.522624492645)
(0.02857142857142857, 0.11200693699883084, 873707, 11966.715394735336)
(0.028507795100222718, 0.11176113862113896, 875707, 11993.892571926117)
(0.028444444444444446, 0.11151641633011308, 877707, 12021.105092525482)
(0.028381374722838137, 0.11127276307706803, 879707, 12048.391481637955)
(0.02831858407079646, 0.11103017187472393, 881707, 12075.626316785812)
(0.0282560706401766, 0.11078863579653926, 883707, 12102.985303640366)
(0.028193832599118944, 0.1105481479760526, 885707, 12130.283228635788)
(0.028351648351648353, 0.11072623460388216, 887678, 12157.197542905807)
(0.028289473684210528, 0.11048694871110282, 889678, 12184.464476585388)
(0.02822757111597374, 0.1102486944735362, 891678, 12211.934165239334)
(0.02816593886462882, 0.11001146523597627, 893678, 12239.532533168793)
(0.028104575163398694, 0.10977525440031788, 895678, 12266.851032733917)
(0.028043478260869566, 0.10954005542494581, 897678, 12294.347619533539)
(0.027982646420824295, 0.1093058618241318, 899678, 12321.896652460098)
(0.02792207792207792, 0.10907266716743899, 901678, 12349.326929569244)
(0.027861771058315336, 0.10884046507913461, 903678, 12376.66412806511)
(0.027801724137931035, 0.10860924923760926, 905678, 12404.02150130272)
(0.027741935483870966, 0.10837901337480427, 907678, 12431.566095352173)
(0.027682403433476395, 0.108149751275646, 909678, 12459.013127565384)
(0.027623126338329765, 0.10792145677748731, 911678, 12486.508437633514)
(0.027564102564102563, 0.1076941237695562, 913678, 12514.056953907013)
(0.027505330490405117, 0.10746774619241123, 915678, 12541.487788677216)
(0.0274468085106383, 0.10724231803740394, 917678, 12568.945065021515)
(0.027388535031847135, 0.10701783334614784, 919678, 12596.204984664917)
(0.02733050847457627, 0.1067942862099942, 921678, 12623.581112384796)
(0.02727272727272727, 0.10657167076951439, 923678, 12651.035269975662)
(0.027426160337552744, 0.10674981722634821, 925609, 12677.468894004822)
(0.02736842105263158, 0.10652824278637675, 927609, 12704.823845863342)
(0.0273109243697479, 0.10630758598050434, 929609, 12732.181298732758)
(0.027253668763102725, 0.10608784112183058, 931609, 12759.59067773819)
(0.027196652719665274, 0.10586900257033445, 933609, 12786.876753807068)
(0.027348643006263048, 0.10604525645176285, 935566, 12813.69765162468)
(0.027291666666666665, 0.10582742829757379, 937566, 12841.052292108536)
(0.027234927234927236, 0.10561049292294589, 939566, 12868.540556907654)
(0.027178423236514523, 0.10539444485216513, 941566, 12895.94324016571)
(0.027122153209109733, 0.10517927865419083, 943566, 12923.307184696198)
(0.02706611570247934, 0.1049649889422011, 945566, 12950.81074643135)
(0.027010309278350516, 0.10475157037314395, 947566, 12978.339878559113)
(0.026954732510288067, 0.10453901764729379, 949566, 13005.834310293198)
(0.026899383983572896, 0.10432732550781318, 951566, 13033.302445173264)
(0.027049180327868853, 0.10450212014204001, 953534, 13060.196502685547)
(0.026993865030674847, 0.10429137889401333, 955534, 13087.65659403801)
(0.026938775510204082, 0.10408148565538287, 957534, 13114.961495876312)
(0.026883910386965377, 0.10387243531948386, 959534, 13142.430189371109)
(0.026829268292682926, 0.1036642228205591, 961534, 13169.855888843536)
(0.026774847870182555, 0.10345684313335038, 963534, 13197.402727365494)
(0.026720647773279354, 0.10325029127269476, 965534, 13224.7365732193)
(0.02666666666666667, 0.10304456229312549, 967534, 13252.12847495079)
(0.02661290322580645, 0.10283965128847779, 969534, 13279.528707265854)
(0.026559356136820925, 0.1026355533914995, 971534, 13306.880781412125)
(0.02650602409638554, 0.10243226377346597, 973534, 13334.278980016708)
(0.026452905811623247, 0.10222977764379992, 975534, 13361.761073350906)
(0.0264, 0.10202809024969545, 977534, 13389.224239826202)
(0.026347305389221556, 0.1018271968757466, 979534, 13416.663994312286)
(0.02649402390438247, 0.10200088222073395, 981450, 13442.961004018784)
(0.02644135188866799, 0.10180085104721992, 983450, 13470.292833328247)
(0.02638888888888889, 0.10160160266788383, 985450, 13497.744804143906)
(0.026534653465346534, 0.10177328269140413, 987442, 13525.055349588394)
(0.026482213438735178, 0.10157488550189027, 989442, 13552.51312661171)
(0.026627218934911243, 0.10174452240617034, 991431, 13579.814184188843)
(0.0265748031496063, 0.10154697193736431, 993431, 13607.049464941025)
(0.026522593320235755, 0.1013501869036452, 995431, 13634.292279958725)
(0.026470588235294117, 0.10115416286626086, 997431, 13661.553717851639)
(0.026418786692759294, 0.10095889542070284, 999431, 13688.843392133713)
(0.0263671875, 0.1007643801963769, 1001431, 13716.116340875626)
(0.02631578947368421, 0.10057061285627732, 1003431, 13743.451848506927)
(0.026264591439688716, 0.1003775890966649, 1005431, 13770.735294342041)
(0.02621359223300971, 0.10018530464674888, 1007431, 13797.996871232986)
(0.02616279069767442, 0.09999375526837206, 1009431, 13825.275966882706)
======MLSS History======
(0.014814814814814815, 0.5962847939999439, 1546, 21.058374166488647)
(0.022222222222222223, 0.4830458915396479, 3881, 53.01185917854309)
(0.024691358024691357, 0.5132002392796673, 5882, 80.36737155914307)
(0.018518518518518517, 0.3996526269427266, 6980, 95.42053127288818)
(0.02666666666666667, 0.5926962872238098, 9452, 129.2205319404602)
(0.02962962962962963, 0.5351819812796575, 11586, 158.37462735176086)
(0.030687830687830688, 0.5061334209914508, 13857, 189.53269600868225)
(0.028703703703703703, 0.45064575580185173, 15403, 210.79466342926025)
(0.030452674897119343, 0.42322457009512743, 18504, 253.36977577209473)
(0.027407407407407408, 0.3853137249912941, 20520, 280.95934534072876)
(0.028956228956228958, 0.3873360527988749, 22537, 308.54978585243225)
(0.02654320987654321, 0.35808920768215874, 24807, 339.4437139034271)
(0.02564102564102564, 0.3321934690583866, 26305, 360.0013930797577)
(0.023809523809523808, 0.3105034210336481, 27345, 374.0948097705841)
(0.022222222222222223, 0.2914417121912001, 28497, 389.80823493003845)
(0.02175925925925926, 0.2743264320466484, 30495, 417.02901458740234)
(0.020479302832244008, 0.2593961021948186, 31495, 430.73151326179504)
(0.01934156378600823, 0.24599365669520487, 33103, 452.67229175567627)
(0.019883040935672516, 0.24158414079931437, 34924, 477.46483540534973)
(0.01888888888888889, 0.23033188615078407, 36362, 496.9974446296692)
(0.01798941798941799, 0.2200738391790312, 37362, 510.55147194862366)
(0.01717171717171717, 0.21068482582847972, 38802, 530.3496100902557)
(0.018035426731078906, 0.21237222199919747, 41083, 561.4977540969849)
(0.01728395061728395, 0.20406113422711739, 42589, 582.0102128982544)
(0.01748148148148148, 0.19917697323402286, 44392, 606.6680648326874)
(0.01680911680911681, 0.19197538678866008, 45392, 620.4337396621704)
(0.016186556927297667, 0.18527356525374658, 46980, 642.112738609314)
(0.015608465608465608, 0.17902154155877356, 48100, 657.5247194766998)
(0.01532567049808429, 0.1732441360914279, 49836, 681.2068119049072)
(0.016049382716049384, 0.1724311755108856, 52043, 711.4377887248993)
(0.016487455197132617, 0.17146538481653134, 54449, 744.2184064388275)
(0.01597222222222222, 0.16642030946083974, 57191, 781.8117733001709)
(0.01638608305274972, 0.16557741096797565, 59163, 808.69193816185)
(0.01699346405228758, 0.16352628620757648, 61105, 835.3124692440033)
(0.01650793650793651, 0.15914575977355935, 63041, 861.930508852005)
(0.016049382716049384, 0.15499236673093278, 64361, 879.9016697406769)
(0.018018018018018018, 0.160708251095929, 68486, 936.1721065044403)
(0.018518518518518517, 0.16162741905866912, 70719, 966.7497012615204)
(0.018803418803418803, 0.16052421191896277, 73179, 1000.4315192699432)
(0.018703703703703705, 0.15723191469927472, 74959, 1024.8430485725403)
(0.01878952122854562, 0.1549498423938912, 77655, 1061.7816660404205)
(0.019576719576719578, 0.1551843179949582, 80618, 1102.2870421409607)
(0.01946597760551249, 0.1522243193263225, 82030, 1121.507462978363)
(0.019023569023569022, 0.14902481653369037, 83472, 1141.1110317707062)
(0.01925925925925926, 0.14817777481540725, 85492, 1168.673665523529)
(0.01884057971014493, 0.1451958763415752, 86492, 1182.4116938114166)
(0.018439716312056736, 0.14233053713178334, 87662, 1198.2068960666656)
(0.018055555555555554, 0.13957512759185983, 88754, 1213.2290573120117)
(0.019652305366591082, 0.15226860656941107, 91938, 1256.7735602855682)
(0.01925925925925926, 0.14942854107863357, 92968, 1270.885354757309)
(0.01917211328976035, 0.14697464376959912, 94536, 1292.4716708660126)
(0.018803418803418803, 0.14433537736170207, 95976, 1312.1061277389526)
(0.018448637316561847, 0.1417885516484873, 97130, 1327.8699922561646)
(0.018244170096021948, 0.13933196612214413, 98822, 1350.962284564972)
(0.01845117845117845, 0.1385679203012217, 100926, 1379.7443006038666)
(0.018915343915343916, 0.13882808638325694, 103884, 1420.2733793258667)
(0.019233268356075375, 0.13753807368995558, 106475, 1455.905766248703)
(0.018901660280970626, 0.13532853277183884, 107475, 1469.5124654769897)
(0.01933458882611425, 0.13671928598658764, 110492, 1510.8806309700012)
(0.01950617283950617, 0.1359450990615246, 112670, 1540.8364217281342)
(0.01955069823922283, 0.13452094876489162, 114136, 1560.8774511814117)
(0.02043010752688172, 0.13756237546597852, 116661, 1595.51345038414)
(0.020105820105820106, 0.1355335624959596, 117689, 1609.723973274231)
(0.020833333333333332, 0.13708408529429017, 120334, 1645.8548798561096)
(0.020512820512820513, 0.13512676419293934, 121740, 1665.05278134346)
(0.02053872053872054, 0.13376862884133237, 124126, 1697.6151375770569)
(0.02023217247097844, 0.1319142605627636, 125516, 1716.7376642227173)
(0.019934640522875816, 0.1301101680643335, 126722, 1733.186160326004)
(0.01964573268921095, 0.12835435467718578, 127950, 1749.94815325737)
(0.020423280423280423, 0.13287116206237878, 130606, 1786.392196893692)
(0.020448617631716223, 0.13160503853048572, 132642, 1814.1321165561676)
(0.020164609053497942, 0.12990124395446542, 133828, 1830.2540969848633)
(0.020801623541349568, 0.130745434438698, 137017, 1873.9537224769592)
(0.02052052052052052, 0.12910093160834218, 138017, 1887.570467710495)
(0.02034567901234568, 0.12748951703858835, 139299, 1905.0397708415985)
(0.020077972709551656, 0.12592580482803684, 141055, 1929.0983893871307)
(0.019817219817219817, 0.1243996940703491, 142677, 1951.169548034668)
(0.019848053181386514, 0.12334057674720211, 144036, 1969.7271828651428)
(0.02006563525550867, 0.12244001347435683, 145923, 1995.4742934703827)
(0.019814814814814816, 0.12101351508543717, 147505, 2017.2058863639832)
(0.01957018747142204, 0.11961961767261754, 148505, 2030.7964227199554)
(0.019331526648599818, 0.11825722647906815, 149519, 2044.7174036502838)
(0.019723337795626954, 0.11976431828208912, 151874, 2076.882042169571)
(0.019753086419753086, 0.11855276338218083, 154143, 2107.945602416992)
(0.01952069716775599, 0.11725023425225782, 155577, 2127.4935286045074)
(0.01929371231696813, 0.11597580789177335, 156577, 2141.1669087409973)
(0.01907194550872712, 0.11472859232104148, 157935, 2159.872630596161)
(0.018855218855218854, 0.11350773252374936, 159167, 2176.659252166748)
(0.01889305035372451, 0.11268395705107966, 161679, 2211.145536661148)
(0.019588477366255144, 0.11452319263881516, 164164, 2245.129506111145)
(0.019373219373219373, 0.11334659776305081, 165164, 2258.7017192840576)
(0.019404186795491142, 0.11253701090896472, 166922, 2282.8642609119415)
(0.019434488251692552, 0.11174323549513179, 168798, 2308.4592452049255)
(0.019227738376674547, 0.11063191354866239, 169798, 2322.115628004074)
(0.019415204678362573, 0.1099803602572709, 171718, 2348.3275260925293)
(0.019212962962962963, 0.10891001524523623, 172718, 2362.0895433425903)
(0.0191676212294769, 0.10796619941098672, 175088, 2394.3528990745544)
(0.018972033257747545, 0.10693622936096239, 176088, 2408.0525596141815)
(0.018780396558174334, 0.10592558625645494, 177428, 2426.4737827777863)
(0.01859259259259259, 0.1049337357044382, 178680, 2443.6832749843597)
(0.01884855152181885, 0.10500081307151678, 181838, 2486.8386828899384)
(0.01895424836601307, 0.10464812669934881, 184570, 2524.2309198379517)
(0.019201725997842502, 0.10519416143005814, 186339, 2548.3202481269836)
(0.019017094017094015, 0.10424828012061885, 187339, 2562.1453518867493)
(0.01904761904761905, 0.1036080203994096, 189105, 2586.4195487499237)
(0.01893780573025856, 0.10269267801913784, 190845, 2610.228589296341)
(0.018830044998269298, 0.10179397177358389, 192070, 2627.1216015815735)
(0.01886145404663923, 0.10119285988274325, 193633, 2648.4827194213867)
(0.018688413183826028, 0.10032438722351468, 194665, 2662.629177570343)
(0.018585858585858588, 0.09947050736212068, 196913, 2693.4429037570953)
