2020-05-29 23:16:26.874268: I tensorflow/stream_executor/platform/default/dso_loader.cc:44] Successfully opened dynamic library libnvinfer.so.6
2020-05-29 23:16:26.877196: I tensorflow/stream_executor/platform/default/dso_loader.cc:44] Successfully opened dynamic library libnvinfer_plugin.so.6
2020-05-29 23:16:29.762279: I tensorflow/stream_executor/platform/default/dso_loader.cc:44] Successfully opened dynamic library libcuda.so.1
2020-05-29 23:16:29.764557: E tensorflow/stream_executor/cuda/cuda_driver.cc:351] failed call to cuInit: CUDA_ERROR_NO_DEVICE: no CUDA-capable device is detected
2020-05-29 23:16:29.764593: I tensorflow/stream_executor/cuda/cuda_diagnostics.cc:169] retrieving CUDA diagnostic information for host: linux59
2020-05-29 23:16:29.764598: I tensorflow/stream_executor/cuda/cuda_diagnostics.cc:176] hostname: linux59
2020-05-29 23:16:29.764691: I tensorflow/stream_executor/cuda/cuda_diagnostics.cc:200] libcuda reported version is: 435.21.0
2020-05-29 23:16:29.764714: I tensorflow/stream_executor/cuda/cuda_diagnostics.cc:204] kernel reported version is: 435.21.0
2020-05-29 23:16:29.764719: I tensorflow/stream_executor/cuda/cuda_diagnostics.cc:310] kernel version seems to match DSO: 435.21.0
2020-05-29 23:16:29.773186: I tensorflow/core/platform/cpu_feature_guard.cc:142] Your CPU supports instructions that this TensorFlow binary was not compiled to use: AVX2 AVX512F FMA
2020-05-29 23:16:29.802183: I tensorflow/core/platform/profile_utils/cpu_utils.cc:94] CPU Frequency: 2700000000 Hz
2020-05-29 23:16:29.802511: I tensorflow/compiler/xla/service/service.cc:168] XLA service 0x55731f4ff650 initialized for platform Host (this does not guarantee that XLA will be used). Devices:
2020-05-29 23:16:29.802535: I tensorflow/compiler/xla/service/service.cc:176]   StreamExecutor device (0): Host, Default Version
WARNING:tensorflow:From /home/home1/jygao/.local/lib/python3.7/site-packages/tensorflow_core/python/ops/linalg/linear_operator_diag.py:166: calling LinearOperator.__init__ (from tensorflow.python.ops.linalg.linear_operator) with graph_parents is deprecated and will be removed in a future version.
Instructions for updating:
Do not pass `graph_parents`.  They will  no longer be used.
200 4000 [3000, 3400, 3700, 4000] 0.1
Num CPUs: 1
Num GPUs: 0
Model Loaded!
ground-truth: 0.0014814814814814814
srs: (0.025, 7.451798230964121, 19997, 382.02664375305176)
srs: (0.02, 5.455960043841963, 39956, 763.0398931503296)
srs: (0.015, 4.102395451135837, 59956, 1141.1642277240753)
srs: (0.012, 3.2869104034031715, 79956, 1493.1868329048157)
srs: (0.01, 2.7418629615646366, 99956, 1825.112648010254)
srs: (0.008571428571428572, 2.3518632895949985, 119956, 2137.0999393463135)
srs: (0.00875, 2.222564667489312, 139951, 2445.0705182552338)
srs: (0.0077777777777777776, 1.9765816451641962, 159951, 2761.384881734848)
srs: (0.007, 1.7796205705149624, 179951, 3100.080764055252)
srs: (0.008181818181818182, 1.8333626315305744, 199913, 3438.1772949695587)
srs: (0.0075, 1.6811599650613265, 219913, 3773.8895297050476)
srs: (0.006923076923076923, 1.5522909310851418, 239913, 4110.935973167419)
srs: (0.0064285714285714285, 1.4417718406363385, 259913, 4449.5376496315)
srs: (0.006, 1.3459439067063679, 279913, 4786.4001722335815)
srs: (0.005625, 1.2620604099136794, 299913, 5122.262369632721)
srs: (0.005294117647058823, 1.1880191720785211, 319913, 5447.058665275574)
srs: (0.005555555555555556, 1.1825554955265314, 339898, 5788.245856285095)
srs: (0.005789473684210527, 1.1748588506697042, 359825, 6129.951279640198)
srs: (0.0055, 1.1162783800983518, 379825, 6472.228866100311)
srs: (0.005714285714285714, 1.110275357856055, 399803, 6813.0129182338715)
srs: (0.005454545454545455, 1.0599467155568174, 419803, 7156.620079040527)
srs: (0.0052173913043478265, 1.0139829486904908, 439803, 7478.607773780823)
srs: (0.005, 0.9718398305533686, 459803, 7788.7213768959045)
srs: (0.0048, 0.9330599980708635, 479803, 8098.1794974803925)
srs: (0.004615384615384616, 0.8972562866193893, 499803, 8407.82891869545)
srs: (0.0044444444444444444, 0.8640987597877148, 519803, 8717.218844413757)
srs: (0.004285714285714286, 0.8333045123781908, 539803, 9027.498377799988)
srs: (0.004137931034482759, 0.8046295786675395, 559803, 9337.411475419998)
srs: (0.004, 0.7778624557079483, 579803, 9646.737708091736)
srs: (0.004193548387096774, 0.783431848908673, 599786, 9955.658327102661)
srs: (0.0040625, 0.7589995409696495, 619786, 10265.609314203262)
srs: (0.00393939393939394, 0.7360450412711608, 639786, 10575.737246513367)
srs: (0.00411764705882353, 0.7412981085308246, 659758, 10885.419100284576)
srs: (0.004, 0.7201606963528546, 679758, 11194.766349554062)
srs: (0.004166666666666667, 0.724669914081577, 699715, 11503.641313791275)
srs: (0.004054054054054054, 0.7051241064019128, 719715, 11813.702608823776)
srs: (0.003947368421052632, 0.6866049804402313, 739715, 12122.754073381424)
srs: (0.0038461538461538464, 0.6690337141021901, 759715, 12432.240924835205)
srs: (0.00375, 0.6523393525300885, 779715, 12741.371642827988)
srs: (0.003902439024390244, 0.6572503798697397, 799689, 13050.18087887764)
srs: (0.004047619047619047, 0.6612995546252257, 819687, 13359.379302978516)
srs: (0.003953488372093023, 0.6459510185100034, 839687, 13668.518734693527)
srs: (0.003863636363636364, 0.6312987859222988, 859687, 13977.881555080414)
srs: (0.003777777777777778, 0.6172965251805651, 879687, 14287.301854610443)
srs: (0.0036956521739130435, 0.6039019259052122, 899687, 14599.622193336487)
srs: (0.003617021276595745, 0.5910762720062934, 919687, 14909.013492107391)
srs: (0.0035416666666666665, 0.5787840679514711, 939687, 15219.13092803955)
srs: (0.003673469387755102, 0.5833709419766098, 959664, 15529.598519086838)
srs: (0.0036, 0.57172460153469, 979664, 15839.445199489594)
srs: (0.0037254901960784314, 0.5758374506671838, 999656, 16149.057570934296)
srs: (0.0038461538461538464, 0.5794001924007518, 1019653, 16459.223985910416)
srs: (0.0037735849056603774, 0.5684888191253451, 1039653, 16768.987279891968)
srs: (0.0038888888888888888, 0.5717070563963098, 1059613, 17077.832710027695)
srs: (0.0038181818181818182, 0.5613323041411626, 1079613, 17386.884315013885)
srs: (0.00375, 0.55132737931765, 1099613, 17696.946578264236)
srs: (0.0036842105263157894, 0.5416728535240932, 1119613, 18006.079642295837)
srs: (0.003620689655172414, 0.5323506357928447, 1139613, 18315.693150043488)
srs: (0.003559322033898305, 0.5233438594531898, 1159613, 18625.893894433975)
srs: (0.0035, 0.5146367802878065, 1179613, 18935.57987999916)
srs: (0.0034426229508196723, 0.506214684689074, 1199613, 19245.024341106415)
srs: (0.0033870967741935483, 0.4980638066881705, 1219613, 19554.303281784058)
srs: (0.0033333333333333335, 0.4901712528727661, 1239613, 19863.769474983215)
srs: (0.0034375, 0.49384130285610606, 1259609, 20173.09910941124)
srs: (0.0035384615384615385, 0.49714674972298417, 1279605, 20482.08198571205)
srs: (0.0034848484848484847, 0.48962739449838355, 1299605, 20791.582458019257)
srs: (0.0034328358208955225, 0.48233211000067283, 1319605, 21102.311611413956)
srs: (0.0033823529411764705, 0.47525102762109883, 1339605, 21411.85917377472)
srs: (0.0033333333333333335, 0.46837484987987993, 1359605, 21721.800412416458)
srs: (0.003285714285714286, 0.46169480969922866, 1379605, 22031.893310308456)
srs: (0.0032394366197183097, 0.45520263311242654, 1399605, 22341.249616622925)
srs: (0.0031944444444444446, 0.4488905050754305, 1419605, 22650.596615552902)
srs: (0.0031506849315068495, 0.4427510380839881, 1439605, 22960.03676056862)
srs: (0.003243243243243243, 0.44614113531613236, 1459556, 23268.795213222504)
srs: (0.0032, 0.44020213538782393, 1479556, 23578.465811252594)
srs: (0.003157894736842105, 0.4344191767637657, 1499556, 23887.937099695206)
srs: (0.003116883116883117, 0.42878618946338515, 1519556, 24197.97718024254)
srs: (0.003076923076923077, 0.4232974143032873, 1539556, 24507.841656923294)
srs: (0.0031645569620253164, 0.42653868083477303, 1559522, 24818.121176481247)
srs: (0.003125, 0.4212153045221314, 1579522, 25127.49361014366)
srs: (0.0030864197530864196, 0.4160231656391534, 1599522, 25436.760120153427)
srs: (0.003292682926829268, 0.4270272855345546, 1619498, 25745.62904715538)
srs: (0.003253012048192771, 0.4218907742636267, 1639498, 26055.590936899185)
srs: (0.0032142857142857142, 0.4168763632010092, 1659498, 26365.08770108223)
srs: (0.003176470588235294, 0.4119797498279107, 1679498, 26674.022506713867)
srs: (0.0031395348837209304, 0.4071968314252291, 1699498, 26983.412522792816)
srs: (0.003103448275862069, 0.4025236936088604, 1719498, 27292.632878541946)
srs: (0.003068181818181818, 0.39795659964547336, 1739498, 27602.74814414978)
srs: (0.0030337078651685393, 0.39349198048745954, 1759498, 27912.680174589157)
srs: (0.003, 0.38912642547120857, 1779498, 28222.23451423645)
srs: (0.0029670329670329672, 0.38485667362776127, 1799498, 28531.673897504807)
srs: (0.002934782608695652, 0.38067960555931485, 1819498, 28841.348133325577)
srs: (0.002903225806451613, 0.3765922358390527, 1839498, 29151.336578845978)
srs: (0.002872340425531915, 0.3725917058953853, 1859498, 29462.128945350647)
srs: (0.0029473684210526317, 0.37542070874966244, 1879476, 29771.321256399155)
srs: (0.0030208333333333333, 0.3780720571229739, 1899469, 30080.45676445961)
srs: (0.0029896907216494847, 0.3741802510418996, 1919469, 30390.044706106186)
srs: (0.0029591836734693877, 0.3703677514389731, 1939469, 30699.48904490471)
srs: (0.0029292929292929295, 0.3666321586338997, 1959469, 31009.82399749756)
srs: (0.0029, 0.3629711687930599, 1979469, 31319.795373678207)
srs: (0.0028712871287128712, 0.3593825691915183, 1999469, 31630.207641124725)
srs: (0.0029411764705882353, 0.3619300301621254, 2019445, 31939.589159965515)
srs: (0.002912621359223301, 0.3584212787391836, 2039445, 32252.110905647278)
srs: (0.002980769230769231, 0.36083034040415374, 2059430, 32556.781980752945)
srs: (0.0030476190476190477, 0.36310035236723864, 2079421, 32862.56108236313)
srs: (0.0030188679245283017, 0.3596800636418213, 2099421, 33167.65338778496)
srs: (0.0029906542056074765, 0.3563236094406208, 2119421, 33473.33310508728)
srs: (0.002962962962962963, 0.35302921922927233, 2139421, 33778.955511808395)
srs: (0.0030275229357798164, 0.3552023491852936, 2159382, 34084.43591094017)
srs: (0.003, 0.351978095263689, 2179382, 34390.24751210213)
srs: (0.002972972972972973, 0.3488118491935729, 2199382, 34697.08150744438)
srs: (0.0029464285714285716, 0.34570205949951927, 2219382, 35002.899658203125)
srs: (0.002920353982300885, 0.34264722954461024, 2239382, 35307.83300614357)
srs: (0.0029824561403508773, 0.34473849410697194, 2259377, 35611.22235774994)
srs: (0.002956521739130435, 0.34174521271950675, 2279377, 35917.63019323349)
srs: (0.0029310344827586207, 0.3388034636047453, 2299377, 36222.69189095497)
srs: (0.002905982905982906, 0.33591192735652187, 2319377, 36527.56280255318)
srs: (0.00288135593220339, 0.3330693292292473, 2339377, 36833.949796676636)
srs: (0.002857142857142857, 0.33027443726412664, 2359377, 37140.730749845505)
srs: (0.0028333333333333335, 0.3275260605089311, 2379377, 37447.13767886162)
srs: (0.0028099173553719006, 0.32482304732592077, 2399377, 37744.00158047676)
srs: (0.0027868852459016396, 0.32216428378286555, 2419377, 38036.0369849205)
srs: (0.002926829268292683, 0.32878608355035244, 2439322, 38327.18026256561)
srs: (0.002903225806451613, 0.32613844310460016, 2459322, 38619.25515627861)
srs: (0.00288, 0.32353310359219817, 2479322, 38911.56492996216)
srs: (0.003015873015873016, 0.32973811279873305, 2499281, 39203.457158088684)
srs: (0.0030708661417322832, 0.33140915340008487, 2519274, 39540.37837743759)
srs: (0.003203125, 0.33712352974924314, 2539195, 39989.34296011925)
srs: (0.003178294573643411, 0.33451433538799913, 2559195, 40444.23021197319)
srs: (0.0031538461538461538, 0.3319452188237609, 2579195, 40905.30644655228)
srs: (0.0032061068702290076, 0.33339555606402926, 2599180, 41361.8019258976)
srs: (0.0032575757575757577, 0.33477694442606476, 2619178, 41820.88249230385)
srs: (0.003233082706766917, 0.3322639068449547, 2639178, 42277.01232767105)
srs: (0.003208955223880597, 0.3297883167635937, 2659178, 42736.03339982033)
srs: (0.003185185185185185, 0.32734934335139976, 2679178, 43191.55760502815)
srs: (0.003235294117647059, 0.3286907849986654, 2699176, 43649.10828709602)
srs: (0.0032846715328467154, 0.3299704364622558, 2719166, 44103.28770661354)
srs: (0.003260869565217391, 0.32758325768365815, 2739166, 44560.29031419754)
srs: (0.003237410071942446, 0.32523037088238277, 2759166, 45017.618800878525)
srs: (0.0032142857142857142, 0.3229110424210046, 2779166, 45475.270584106445)
srs: (0.0032624113475177305, 0.3241559474955173, 2799164, 45932.818783283234)
srs: (0.0033098591549295775, 0.3253452260936557, 2819139, 46388.59692454338)
srs: (0.003286713286713287, 0.3230738359156899, 2839139, 46825.93558073044)
srs: (0.003263888888888889, 0.3208339410421058, 2859139, 47216.6377954483)
srs: (0.0032413793103448275, 0.318624890910733, 2879139, 47613.02251791954)
srs: (0.0032191780821917808, 0.3164460527540259, 2899139, 48009.74324417114)
srs: (0.003197278911564626, 0.31429681099478385, 2919139, 48432.669157505035)
srs: (0.0031756756756756758, 0.3121765666663314, 2939139, 48872.69049143791)
srs: (0.0031543624161073825, 0.310084736856008, 2959139, 49291.06494116783)
srs: (0.0031333333333333335, 0.3080207541708838, 2979139, 49747.91964221001)
srs: (0.003112582781456954, 0.30598406622467095, 2999139, 50217.31414794922)
srs: (0.0030921052631578947, 0.3039741351448574, 3019139, 50688.02174091339)
srs: (0.0030718954248366015, 0.3019904370991378, 3039139, 51157.348910570145)
srs: (0.003051948051948052, 0.30003246184026755, 3059139, 51628.51293754578)
srs: (0.003032258064516129, 0.2980997122685073, 3079139, 52098.33561873436)
srs: (0.003012820512820513, 0.2961917040108711, 3099139, 52554.026871442795)
srs: (0.0029936305732484077, 0.2943079650164304, 3119139, 53012.23489832878)
srs: (0.0029746835443037974, 0.29244803516696255, 3139139, 53439.11535716057)
srs: (0.0029559748427672957, 0.2906114659022693, 3159139, 53834.18462252617)
srs: (0.0029375, 0.288797819859526, 3179139, 54230.05407452583)
srs: (0.002919254658385093, 0.28700667052605067, 3199139, 54617.984467983246)
srs: (0.0029012345679012346, 0.2852376019049144, 3219139, 55001.54732847214)
srs: (0.002883435582822086, 0.2834902081928428, 3239139, 55419.02847075462)
srs: (0.002926829268292683, 0.28473710076539815, 3259100, 55839.141207933426)
srs: (0.002909090909090909, 0.283013938802887, 3279100, 56267.95093870163)
srs: (0.002891566265060241, 0.28131150765817803, 3299100, 56699.954875707626)
srs: (0.002874251497005988, 0.2796294354604844, 3319100, 57132.03454017639)
srs: (0.002857142857142857, 0.2779673591803169, 3339100, 57568.76818585396)
srs: (0.0028402366863905324, 0.2763249243682827, 3359100, 57933.73616480827)
srs: (0.002823529411764706, 0.2747017849030902, 3379100, 58288.32529973984)
srs: (0.002865497076023392, 0.275919614417064, 3399096, 58829.77271580696)
srs: (0.0028488372093023254, 0.2743177221985597, 3419096, 59390.65907907486)
srs: (0.002890173410404624, 0.2754952847136883, 3439093, 59938.91525697708)
srs: (0.0028735632183908046, 0.2739142599292914, 3459093, 60509.45894193649)
srs: (0.002857142857142857, 0.2723512780562855, 3479093, 60969.74580717087)
srs: (0.002840909090909091, 0.2708060319850604, 3499093, 61417.93209481239)
srs: (0.002824858757062147, 0.2692782215364417, 3519093, 61871.97905802727)
srs: (0.0028651685393258426, 0.27042435474627163, 3539077, 62326.24207282066)
srs: (0.0028491620111731845, 0.2689157625231188, 3559077, 62781.24109125137)
srs: (0.0028333333333333335, 0.26742390857026976, 3579077, 63236.364250183105)
srs: (0.0028176795580110497, 0.26594851585148366, 3599077, 63692.45336508751)
srs: (0.0028021978021978023, 0.2644893134106179, 3619077, 64148.767637491226)
srs: (0.0027868852459016396, 0.2630460362057394, 3639077, 64605.143582344055)
srs: (0.0027717391304347824, 0.2616184249486377, 3659077, 65059.880768060684)
srs: (0.0027567567567567566, 0.26020622594953585, 3679077, 65516.346883773804)
srs: (0.0027419354838709676, 0.2588091909668034, 3699077, 65974.8585472107)
srs: (0.0027807486631016044, 0.2599316508835686, 3719070, 66431.66659021378)
srs: (0.0028191489361702126, 0.2610182198399816, 3739034, 66887.60548615456)
srs: (0.002857142857142857, 0.2620701394998918, 3759025, 67338.37716007233)
srs: (0.002842105263157895, 0.26069278866645196, 3779025, 67792.12501597404)
srs: (0.0028272251308900523, 0.25932983986493613, 3799025, 68247.12181282043)
srs: (0.0028125, 0.2579810683823074, 3819025, 68704.17324566841)
srs: (0.002797927461139896, 0.2566462541562179, 3839025, 69160.40886068344)
srs: (0.002783505154639175, 0.2553251816553147, 3859025, 69618.42651128769)
srs: (0.002769230769230769, 0.2540176397632229, 3879025, 70076.67766451836)
srs: (0.002857142857142857, 0.2573477682098337, 3898958, 70532.84643054008)
srs: (0.0028426395939086294, 0.25604329639255213, 3918958, 70990.5319340229)
srs: (0.0028787878787878787, 0.25700998012440335, 3938945, 71447.8569560051)
srs: (0.002864321608040201, 0.2557203276663073, 3958945, 71904.1328113079)
srs: (0.00285, 0.2544435532625557, 3978945, 72360.41058778763)
srs: (0.002835820895522388, 0.25317946497788096, 3998945, 72817.49653100967)
srs: (0.0028217821782178217, 0.25192787467230143, 4018945, 73274.51272964478)
srs: (0.002807881773399015, 0.2506885979077741, 4038945, 73731.35977172852)
srs: (0.0028431372549019606, 0.25163401286873793, 4058930, 74188.4863641262)
srs: (0.0028292682926829267, 0.25040827126344234, 4078930, 74646.82582831383)
srs: (0.0028155339805825243, 0.24919441322563282, 4098930, 75102.09025716782)
srs: (0.0028019323671497585, 0.24799226677269215, 4118930, 75560.97054481506)
srs: (0.0027884615384615383, 0.24680166322470712, 4138930, 76016.8216354847)
srs: (0.0027751196172248805, 0.24562243712556775, 4158930, 76468.79964995384)
srs: (0.002761904761904762, 0.24445442616631674, 4178930, 76926.14172291756)
srs: (0.0027962085308056873, 0.2453800687966872, 4198916, 77381.80212378502)
srs: (0.002783018867924528, 0.24422423075985067, 4218916, 77839.22361159325)
srs: (0.0027699530516431927, 0.2430792305576186, 4238916, 78294.66956925392)
srs: (0.0027570093457943926, 0.24194491646863486, 4258916, 78751.08545637131)
srs: (0.002744186046511628, 0.2408211395903577, 4278916, 79206.25228476524)
srs: (0.0027314814814814814, 0.23970775377390005, 4298916, 79662.76245427132)
srs: (0.00271889400921659, 0.23860461556066817, 4318916, 80117.35986375809)
srs: (0.002706422018348624, 0.23751158412074197, 4338916, 80569.20899319649)
srs: (0.0026940639269406393, 0.2364285211929418, 4358916, 81023.3669052124)
srs: (0.002681818181818182, 0.23535529102652666, 4378916, 81478.82901358604)
srs: (0.002669683257918552, 0.23429176032447407, 4398916, 81934.64422607422)
srs: (0.002657657657657658, 0.23323779818828982, 4418916, 82392.69740009308)
srs: (0.0026457399103139013, 0.23219327606430165, 4438916, 82847.76007461548)
srs: (0.0026339285714285714, 0.2311580676913891, 4458916, 83305.82981419563)
srs: (0.0026222222222222224, 0.23013204905010518, 4478916, 83761.71106004715)
srs: (0.0026106194690265487, 0.2291150983131474, 4498916, 84219.885597229)
srs: (0.0025991189427312777, 0.22810709579713623, 4518916, 84676.1853094101)
srs: (0.002587719298245614, 0.22710792391566037, 4538916, 85130.47483706474)
srs: (0.002576419213973799, 0.2261174671335514, 4558916, 85580.91411852837)
srs: (0.0025652173913043477, 0.22513561192234902, 4578916, 86033.34382200241)
srs: (0.0025541125541125543, 0.224162246716922, 4598916, 86487.6898701191)
srs: (0.002543103448275862, 0.2231972618732094, 4618916, 86939.13060283661)
srs: (0.002575107296137339, 0.22411120893562367, 4638915, 87395.43085074425)
srs: (0.002564102564102564, 0.22315469976523009, 4658915, 87847.03635716438)
srs: (0.002553191489361702, 0.22220632065939552, 4678915, 88294.60753774643)
srs: (0.002542372881355932, 0.22126596840206308, 4698915, 88740.87969779968)
srs: (0.002531645569620253, 0.22033354151699544, 4718915, 89174.42973709106)
srs: (0.0025630252100840335, 0.22122513305298705, 4738913, 89604.73536086082)
srs: (0.0025523012552301255, 0.22030068915433643, 4758913, 90028.54290294647)
srs: (0.0025416666666666665, 0.21938393912075838, 4778913, 90471.77805805206)
srs: (0.0025726141078838173, 0.22025370322634966, 4798901, 90917.41031956673)
srs: (0.002603305785123967, 0.22110198612881052, 4818899, 91367.1010594368)
srs: (0.0025925925925925925, 0.2201932839678058, 4838899, 91815.19885706902)
srs: (0.0025819672131147543, 0.21929202052556981, 4858899, 92265.4134516716)
srs: (0.0025714285714285713, 0.21839810483362437, 4878899, 92713.79294896126)
srs: (0.0025609756097560977, 0.2175114474007434, 4898899, 93162.42601537704)
srs: (0.0025506072874493927, 0.21663196018308756, 4918899, 93605.25445437431)
srs: (0.0025806451612903226, 0.21746079665069987, 4938892, 94052.52319669724)
srs: (0.002570281124497992, 0.21658858537915313, 4958892, 94493.37206625938)
srs: (0.0026, 0.21739778977717322, 4978864, 94937.11037969589)
srs: (0.0025896414342629482, 0.21653278752393415, 4998864, 95384.2844889164)
srs: (0.0025793650793650793, 0.21567464147380477, 5018864, 95831.02959609032)
srs: (0.002569169960474308, 0.21482327043304897, 5038864, 96277.02756047249)
srs: (0.002559055118110236, 0.21397859448492215, 5058864, 96688.86215424538)
srs: (0.0025490196078431374, 0.21314053496466462, 5078864, 97118.74973964691)
srs: (0.0025390625, 0.2123090144350799, 5098864, 97568.87727117538)
srs: (0.002529182879377432, 0.21148395666268294, 5118864, 98018.06218624115)
srs: (0.0025193798449612403, 0.21066528659440192, 5138864, 98469.38247179985)
srs: (0.0025096525096525097, 0.20985293033481925, 5158864, 98926.5737259388)
srs: (0.0025384615384615385, 0.2106446687248961, 5178860, 99366.8675737381)
srs: (0.002528735632183908, 0.20983862405347445, 5198860, 99818.06297469139)
srs: (0.002519083969465649, 0.20903872461035675, 5218860, 100259.12961864471)
srs: (0.0025095057034220532, 0.20824490038639584, 5238860, 100704.06115531921)
srs: (0.0025, 0.20745708243185235, 5258860, 101150.35799980164)
srs: (0.002490566037735849, 0.20667520283643093, 5278860, 101597.57814788818)
srs: (0.002481203007518797, 0.20589919470976653, 5298860, 102042.49696207047)
srs: (0.0024719101123595504, 0.20512899216234817, 5318860, 102490.90166664124)
srs: (0.0024626865671641793, 0.20436453028686968, 5338860, 102935.04951810837)
srs: (0.002453531598513011, 0.20360574513999555, 5358860, 103378.41235804558)
srs: (0.0024444444444444444, 0.20285257372453197, 5378860, 103816.86263012886)
srs: (0.0024354243542435423, 0.2021049539719914, 5398860, 104252.90634870529)
srs: (0.0024264705882352943, 0.20136282472554215, 5418860, 104675.62211084366)
srs: (0.0024175824175824176, 0.20062612572333127, 5438860, 105093.00041866302)
srs: (0.0024087591240875912, 0.1998947975821731, 5458860, 105512.02106451988)
srs: (0.0024, 0.19916878178159256, 5478860, 105931.48589396477)
srs: (0.002391304347826087, 0.19844802064821543, 5498860, 106350.24842715263)
srs: (0.0023826714801444045, 0.19773245734049602, 5518860, 106765.77186131477)
srs: (0.0023741007194244606, 0.1970220358337741, 5538860, 107182.36886429787)
srs: (0.0023655913978494624, 0.1963167009056528, 5558860, 107602.84096240997)
srs: (0.002357142857142857, 0.19561639812168996, 5578860, 108014.56038665771)
srs: (0.0023487544483985767, 0.19492107382139354, 5598860, 108433.48341083527)
srs: (0.002375886524822695, 0.19569310982001337, 5618838, 108852.44319796562)
srs: (0.0023674911660777386, 0.19500243523426333, 5638838, 109274.23304462433)
srs: (0.002359154929577465, 0.19431661879280573, 5658838, 109691.5365884304)
srs: (0.002385964912280702, 0.19507186873038992, 5678776, 110109.03643965721)
srs: (0.0023776223776223776, 0.19439061204871522, 5698776, 110527.95455265045)
srs: (0.0023693379790940767, 0.19371409715270868, 5718776, 110947.69786572456)
srs: (0.002361111111111111, 0.1930422747074297, 5738776, 111367.16668152809)
srs: (0.002352941176470588, 0.1923750960599647, 5758776, 111786.81332039833)
srs: (0.002379310344827586, 0.19311368182232572, 5778773, 112201.13730764389)
srs: (0.0023711340206185568, 0.1924508495644504, 5798773, 112619.81923532486)
srs: (0.002363013698630137, 0.19179255186720146, 5818773, 113032.6867673397)
srs: (0.002389078498293515, 0.1925155303129954, 5838753, 113450.39532518387)
srs: (0.002380952380952381, 0.1918614969906379, 5858753, 113866.21279931068)
srs: (0.0023728813559322033, 0.1912118925096466, 5878753, 114277.53514671326)
srs: (0.002364864864864865, 0.19056667203650898, 5898753, 114700.40706586838)
srs: (0.0023905723905723905, 0.19127436559566321, 5918726, 115120.54786038399)
srs: (0.0023825503355704696, 0.19063327177139888, 5938726, 115533.37254142761)
srs: (0.002374581939799331, 0.1899964610874031, 5958726, 115945.81638383865)
srs: (0.0023666666666666667, 0.18936389076326038, 5978726, 116359.18402147293)
srs: (0.0023588039867109634, 0.18873551858638996, 5998726, 116774.11248540878)
srs: (0.002350993377483444, 0.18811130290265587, 6018726, 117186.6748058796)
srs: (0.0023432343234323434, 0.18749120260716243, 6038726, 117599.60803961754)
srs: (0.002368421052631579, 0.18818349553066732, 6058715, 118019.04507946968)
srs: (0.002360655737704918, 0.18756723044731882, 6078715, 118439.34725952148)
srs: (0.002352941176470588, 0.186954988481983, 6098715, 118860.29289579391)
srs: (0.0023452768729641696, 0.1863467303671774, 6118715, 119275.11902141571)
srs: (0.0023376623376623377, 0.1857424173447861, 6138715, 119685.27954626083)
srs: (0.002330097087378641, 0.18514201115782755, 6158715, 120100.64180397987)
srs: (0.00232258064516129, 0.18454547404238078, 6178715, 120509.13928794861)
srs: (0.0023151125401929262, 0.18395276871966806, 6198715, 120924.5368771553)
srs: (0.002307692307692308, 0.18336385838828903, 6218715, 121336.79046273232)
srs: (0.002364217252396166, 0.18529397755580082, 6238686, 121754.97485423088)
srs: (0.002356687898089172, 0.18470456634400179, 6258686, 122171.62716913223)
srs: (0.002349206349206349, 0.18411889301168527, 6278686, 122589.94580602646)
srs: (0.0023417721518987343, 0.18353692211444997, 6298686, 123007.89060020447)
srs: (0.002334384858044164, 0.1829586186546164, 6318686, 123427.39837288857)
srs: (0.0023270440251572325, 0.18238394807421146, 6338686, 123845.24874281883)
srs: (0.0023510971786833857, 0.1830343435994961, 6358682, 124263.73109841347)
srs: (0.00234375, 0.18246303314593135, 6378682, 124676.44359254837)
srs: (0.002336448598130841, 0.18189527808354594, 6398682, 125094.70066189766)
srs: (0.002391304347826087, 0.1837271662761962, 6418652, 125477.66703557968)
srs: (0.0023839009287925698, 0.18315903114286344, 6438652, 125880.53946137428)
srs: (0.0023765432098765433, 0.18259439883178064, 6458652, 126287.1141898632)
srs: (0.0024, 0.18320863264847287, 6478634, 126693.31503605843)
srs: (0.002392638036809816, 0.18264731691290723, 6498634, 127104.08446907997)
srs: (0.002415902140672783, 0.18325014400992387, 6518627, 127510.90321660042)
srs: (0.0024390243902439024, 0.1838419628501478, 6538602, 127923.6991417408)
srs: (0.0024316109422492403, 0.1832838537294544, 6558602, 128337.22785544395)
srs: (0.0024242424242424242, 0.1827291229707731, 6578602, 128745.02006411552)
srs: (0.002416918429003021, 0.1821777399917373, 6598602, 129167.41127562523)
srs: (0.0024096385542168677, 0.1816296745779951, 6618602, 129589.95112609863)
srs: (0.0024024024024024023, 0.18108489687769025, 6638602, 130011.35773611069)
srs: (0.0023952095808383233, 0.1805433773960425, 6658602, 130432.81429576874)
srs: (0.0023880597014925373, 0.18000508699002404, 6678602, 130851.96145606041)
srs: (0.002380952380952381, 0.17946999686313164, 6698602, 131268.75170087814)
srs: (0.002373887240356083, 0.17893807856025148, 6718602, 131689.45096063614)
srs: (0.002366863905325444, 0.1784093039626151, 6738602, 132108.29586434364)
srs: (0.002359882005899705, 0.17788364528284423, 6758602, 132523.37036156654)
srs: (0.002352941176470588, 0.17736107506008345, 6778602, 132942.77569437027)
srs: (0.002346041055718475, 0.17684156615521804, 6798602, 133361.91451191902)
srs: (0.0023391812865497076, 0.1763250917461757, 6818602, 133784.476282835)
srs: (0.0023323615160349854, 0.17581162532331035, 6838602, 134204.6696088314)
srs: (0.002325581395348837, 0.17530114068486652, 6858602, 134627.4550871849)
srs: (0.002318840579710145, 0.1747936119325223, 6878602, 135045.00442290306)
srs: (0.0023121387283236996, 0.17428901346700945, 6898602, 135466.5672671795)
srs: (0.0023054755043227667, 0.17378731998380945, 6918602, 135886.893961668)
srs: (0.0022988505747126436, 0.17328850646892366, 6938602, 136307.56894111633)
srs: (0.002320916905444126, 0.17386665099296897, 6958597, 136732.66704154015)
srs: (0.0023142857142857145, 0.173370465293693, 6978597, 137152.95596027374)
srs: (0.002307692307692308, 0.17287710358785197, 6998597, 137565.69925808907)
srs: (0.0023295454545454544, 0.1734449226640335, 7018595, 137972.20771074295)
srs: (0.0023229461756373937, 0.17295414929009134, 7038595, 138379.13472533226)
srs: (0.0023163841807909607, 0.17246614542260502, 7058595, 138785.25370287895)
srs: (0.0023098591549295775, 0.1719808876844826, 7078595, 139190.19871926308)
srs: (0.002303370786516854, 0.17149835296099145, 7098595, 139624.94490480423)
srs: (0.0022969187675070026, 0.17101851839608762, 7118595, 140063.62723994255)
srs: (0.0022905027932960892, 0.17054136138880752, 7138595, 140514.832552433)
srs: (0.002284122562674095, 0.17006685958971893, 7158595, 140957.7157857418)
srs: (0.002277777777777778, 0.16959499089743185, 7178595, 141406.00106692314)
srs: (0.002271468144044321, 0.1691257334551668, 7198595, 141853.77263450623)
srs: (0.0022651933701657457, 0.16865906564738, 7218595, 142301.0065255165)
srs: (0.002258953168044077, 0.1681949660964445, 7238595, 142746.98932647705)
srs: (0.0022527472527472526, 0.16773341365938585, 7258595, 143193.0273220539)
srs: (0.002273972602739726, 0.1682889518014375, 7278561, 143633.5777235031)
srs: (0.00226775956284153, 0.16782966847424582, 7298561, 144083.57130241394)
srs: (0.0022615803814713896, 0.1673728852119243, 7318561, 144532.8136267662)
srs: (0.002282608695652174, 0.16791881796455232, 7338529, 144981.1705687046)
srs: (0.0022764227642276423, 0.1674642725610697, 7358529, 145430.8219923973)
srs: (0.00227027027027027, 0.16701218135957735, 7378529, 145879.98081064224)
srs: (0.0022641509433962265, 0.16656252453737105, 7398529, 146331.9478597641)
srs: (0.0022580645161290325, 0.1661152824846514, 7418529, 146781.60501742363)
srs: (0.00225201072386059, 0.16567043580167326, 7438529, 147230.00800418854)
srs: (0.002245989304812834, 0.16522796529594064, 7458529, 147685.61586380005)
srs: (0.00224, 0.1647878519794466, 7478529, 148142.34150123596)
srs: (0.0022340425531914895, 0.1643500770659569, 7498529, 148594.61867761612)
srs: (0.0022281167108753317, 0.1639146219683371, 7518529, 149049.51358103752)
srs: (0.0022222222222222222, 0.16348146829592178, 7538529, 149503.27098679543)
srs: (0.0022163588390501318, 0.16305059785192572, 7558529, 149947.41008734703)
srs: (0.0022105263157894735, 0.16262199263089552, 7578529, 150398.82087540627)
srs: (0.002204724409448819, 0.16219563481620147, 7598529, 150852.9212436676)
srs: (0.002198952879581152, 0.16177150677756885, 7618529, 151308.2369301319)
srs: (0.0021932114882506526, 0.1613495910686477, 7638529, 151772.117739439)
srs: (0.0021875, 0.16092987042462087, 7658529, 152231.54443645477)
srs: (0.002181818181818182, 0.16051232775984856, 7678529, 152689.23522400856)
srs: (0.0022020725388601035, 0.1610449940860473, 7698516, 153139.23657345772)
srs: (0.0021963824289405686, 0.16062931515626172, 7718516, 153590.71109080315)
srs: (0.002190721649484536, 0.1602157765453093, 7738516, 154040.56017661095)
srs: (0.0021850899742930593, 0.15980436176500845, 7758516, 154475.62898802757)
srs: (0.0021794871794871794, 0.1593950544961016, 7778516, 154922.59085011482)
srs: (0.002173913043478261, 0.15898783858609739, 7798516, 155372.1419222355)
srs: (0.0021683673469387755, 0.15858269804714564, 7818516, 155822.19566726685)
srs: (0.0021628498727735367, 0.15817961705394534, 7838516, 156271.79708218575)
srs: (0.0021573604060913707, 0.15777857994168384, 7858516, 156722.62014389038)
srs: (0.0021518987341772153, 0.15737957120400753, 7878516, 157170.2202219963)
srs: (0.0021464646464646464, 0.1569825754910235, 7898516, 157621.90757083893)
srs: (0.0021410579345088163, 0.15658757760733089, 7918516, 158073.81292533875)
srs: (0.002135678391959799, 0.15619456251008212, 7938516, 158525.93836855888)
srs: (0.002155388471177945, 0.1567153586703884, 7958494, 158979.10534501076)
srs: (0.00215, 0.1563239923554203, 7978494, 159432.3469581604)
srs: (0.002169576059850374, 0.15683659221175322, 7998472, 159884.49676847458)
srs: (0.0021890547263681594, 0.15734146428854087, 8018455, 160337.32804751396)
srs: (0.002208436724565757, 0.15783875395487235, 8038452, 160794.63939142227)
srs: (0.0022029702970297028, 0.15744849526094143, 8058452, 161252.17262077332)
srs: (0.0022222222222222222, 0.15793810320642845, 8078428, 161708.46851348877)
srs: (0.0022167487684729066, 0.15754952522854018, 8098428, 162165.90229296684)
srs: (0.0022113022113022115, 0.15716285460530674, 8118428, 162625.3792796135)
srs: (0.0022058823529411764, 0.1567780773276161, 8138428, 163084.86836838722)
srs: (0.002200488997555012, 0.15639517952321272, 8158428, 163544.5660085678)
srs: (0.0021951219512195124, 0.15601414745503067, 8178428, 163986.30351114273)
srs: (0.002214111922141119, 0.1564953096561343, 8198419, 164416.52366828918)
srs: (0.002233009708737864, 0.15696941379005677, 8218418, 164845.91764044762)
srs: (0.0022276029055690073, 0.15658976684093004, 8238418, 165278.49348926544)
srs: (0.0022222222222222222, 0.1562119518892312, 8258418, 165711.81733512878)
srs: (0.002216867469879518, 0.15583595570636682, 8278418, 166145.3205859661)
srs: (0.0022115384615384614, 0.1554617651907999, 8298418, 166578.85492753983)
srs: (0.0022062350119904078, 0.15508936736652795, 8318418, 167012.87333798409)
srs: (0.0022248803827751196, 0.1555554746819509, 8338416, 167446.60821270943)
srs: (0.002243436754176611, 0.15601486272121115, 8358405, 167880.73942613602)
srs: (0.002261904761904762, 0.1564676508880251, 8378403, 168314.88608026505)
srs: (0.0022802850356294538, 0.15691395558225457, 8398394, 168749.3946621418)
srs: (0.002274881516587678, 0.15654254546950658, 8418394, 169184.47782826424)
srs: (0.0022695035460992908, 0.15617288943226296, 8438394, 169619.10186076164)
srs: (0.0022641509433962265, 0.15580497507374255, 8458394, 170053.79165792465)
srs: (0.0022588235294117645, 0.1554387901137069, 8478394, 170488.72832274437)
srs: (0.0022535211267605635, 0.1550743223870942, 8498394, 170923.75998806953)
srs: (0.0022482435597189696, 0.15471155984267196, 8518394, 171358.74910211563)
srs: (0.0022429906542056075, 0.15435049054170874, 8538394, 171793.36392879486)
srs: (0.0022377622377622378, 0.15399110265666455, 8558394, 172228.54546022415)
srs: (0.0022325581395348836, 0.15363338446989933, 8578394, 172663.394449234)
srs: (0.0022273781902552203, 0.15327732437239933, 8598394, 173098.38877940178)
srs: (0.0022453703703703702, 0.15371553783147254, 8618371, 173539.67957115173)
srs: (0.0022401847575057735, 0.1533609351178807, 8638371, 173990.3208925724)
srs: (0.0022350230414746545, 0.15300796468484504, 8658371, 174441.55590581894)
srs: (0.0022298850574712643, 0.15265661528787985, 8678371, 174891.97426342964)
srs: (0.0022247706422018347, 0.15230687578554436, 8698371, 175318.14517521858)
srs: (0.002219679633867277, 0.15195873513826488, 8718371, 175750.397043705)
srs: (0.002214611872146119, 0.1516121824071734, 8738371, 176181.31174993515)
srs: (0.002277904328018223, 0.1535833186744598, 8758330, 176617.90084028244)
srs: (0.0022727272727272726, 0.1532346632336858, 8778330, 177068.2030878067)
srs: (0.0022675736961451248, 0.15288758719681508, 8798330, 177524.7085392475)
srs: (0.0022624434389140274, 0.15254207985610757, 8818330, 177964.02996587753)
srs: (0.002257336343115124, 0.15219813060039697, 8838330, 178405.17875170708)
srs: (0.0022522522522522522, 0.1518557289140048, 8858330, 178850.5225162506)
srs: (0.0022471910112359553, 0.15151486437566847, 8878330, 179303.52088856697)
srs: (0.002242152466367713, 0.15117552665748404, 8898330, 179755.30266928673)
srs: (0.0022371364653243847, 0.15083770552386325, 8918330, 180205.11528086662)
srs: (0.002232142857142857, 0.15050139083050418, 8938330, 180655.25904512405)
srs: (0.0022271714922048997, 0.150166572523376, 8958330, 181105.0076828003)
srs: (0.0022222222222222222, 0.149833240637717, 8978330, 181554.94260168076)
srs: (0.0022172949002217295, 0.14950138529704596, 8998330, 182005.4937903881)
srs: (0.0022123893805309734, 0.1491709967121869, 9018330, 182455.10505747795)
srs: (0.002207505518763797, 0.14884206518030627, 9038330, 182905.31382465363)
srs: (0.0022026431718061676, 0.1485145810839633, 9058330, 183335.8944416046)
srs: (0.002197802197802198, 0.14818853489017245, 9078330, 183771.83790063858)
srs: (0.0022149122807017542, 0.14859976462903443, 9098307, 184207.60786247253)
srs: (0.002210065645514223, 0.14827496114391697, 9118307, 184655.72084474564)
srs: (0.002205240174672489, 0.14795157444464763, 9138307, 185123.02696490288)
srs: (0.0022222222222222222, 0.14835701507366827, 9158297, 185589.71935009956)
srs: (0.002217391304347826, 0.14803485819070245, 9178297, 186056.3353383541)
srs: (0.002212581344902386, 0.14771409739925467, 9198297, 186523.41166996956)
srs: (0.002207792207792208, 0.1473947236438587, 9218297, 186991.25030755997)
srs: (0.002224622030237581, 0.14779433423877908, 9238294, 187460.13476490974)
srs: (0.0022198275862068966, 0.14747616628677945, 9258294, 187926.84688687325)
srs: (0.0022150537634408603, 0.1471593652775656, 9278294, 188393.4377322197)
srs: (0.0022103004291845496, 0.14684392242085625, 9298294, 188862.0931854248)
srs: (0.0022055674518201285, 0.14652982900157804, 9318294, 189329.57639670372)
srs: (0.002200854700854701, 0.14621707637906284, 9338294, 189797.24380278587)
srs: (0.0021961620469083155, 0.14590565598625538, 9358294, 190264.17176365852)
srs: (0.0021914893617021275, 0.14559555932893106, 9378294, 190732.4863128662)
srs: (0.002208067940552017, 0.1459887968357356, 9398268, 191199.2810807228)
srs: (0.0022033898305084745, 0.14567984004338652, 9418268, 191666.8943579197)
srs: (0.0021987315010570823, 0.14537218818051137, 9438268, 192133.86234354973)
srs: (0.0021940928270042194, 0.14506583299717354, 9458268, 192543.07749199867)
srs: (0.0021894736842105263, 0.144760766312833, 9478268, 192857.48552775383)
srs: (0.002184873949579832, 0.14445698001561802, 9498268, 193168.1786353588)
srs: (0.002180293501048218, 0.1441544660616064, 9518268, 193479.3867969513)
srs: (0.0021757322175732217, 0.14385321647411525, 9538268, 193790.33809781075)
srs: (0.002171189979123173, 0.143553223343, 9558268, 194101.5126540661)
srs: (0.0021666666666666666, 0.14325447882396208, 9578268, 194412.1735947132)
srs: (0.002162162162162162, 0.1429569751378651, 9598268, 194722.53116106987)
srs: (0.002157676348547718, 0.1426607045700597, 9618268, 195032.2962014675)
srs: (0.0021946169772256727, 0.14372505913157782, 9638247, 195342.56773543358)
srs: (0.002190082644628099, 0.14342843242027045, 9658247, 195653.74368047714)
srs: (0.0021855670103092784, 0.14313302757005572, 9678247, 195964.85735750198)
srs: (0.0021810699588477368, 0.14283883704685157, 9698247, 196276.05625128746)
srs: (0.0021765913757700204, 0.14254585337838982, 9718247, 196587.363175869)
srs: (0.0021721311475409837, 0.14225406915358335, 9738247, 196900.41954374313)
srs: (0.0021676891615541923, 0.14196347702190124, 9758247, 197212.7880499363)
srs: (0.002163265306122449, 0.14167406969275154, 9778247, 197524.8855946064)
srs: (0.0021792260692464357, 0.1420497390521072, 9798210, 197852.4427177906)
srs: (0.0021747967479674797, 0.14176133470816396, 9818210, 198179.95940065384)
srs: (0.0021703853955375254, 0.14147409908703426, 9838210, 198507.51104664803)
srs: (0.002165991902834008, 0.1411880250989397, 9858210, 198835.1612906456)
srs: (0.002181818181818182, 0.1415585672042162, 9878188, 199162.13079810143)
srs: (0.0021774193548387095, 0.14127347826428943, 9898188, 199489.73448228836)
srs: (0.0021730382293762575, 0.1409895353122907, 9918188, 199816.89797592163)
srs: (0.002188755020080321, 0.14135522819418955, 9938186, 200144.3558962345)
srs: (0.00218436873747495, 0.1410722612528283, 9958186, 200472.16462898254)
srs: (0.00218, 0.1407904249407608, 9978186, 200799.72975182533)
srs: (0.0021756487025948105, 0.14050971249515698, 9998186, 201127.3402414322)
srs: (0.0022111553784860557, 0.141507959025989, 10018150, 201454.7650294304)
srs: (0.0022266401590457256, 0.14186025992128287, 10038121, 201781.97624206543)
srs: (0.0022222222222222222, 0.14157910459224857, 10058121, 202109.9039156437)
srs: (0.0022178217821782176, 0.14129906151008645, 10078121, 202437.51432704926)
srs: (0.0022134387351778655, 0.1410201240877863, 10098121, 202765.18480610847)
srs: (0.0022090729783037473, 0.1407422857902486, 10118121, 203092.55623459816)
srs: (0.0022244094488188975, 0.1410898331552448, 10138109, 203419.2427239418)
srs: (0.002220039292730845, 0.14081295128551302, 10158109, 203745.3749358654)
srs: (0.002215686274509804, 0.1405371540194334, 10178109, 204069.91728448868)
srs: (0.0022113502935420743, 0.14026243499654953, 10198109, 204395.27966809273)
srs: (0.0022265625, 0.14060546679734554, 10218097, 204714.26445817947)
srs: (0.0022222222222222222, 0.14033168728459142, 10238097, 205011.21610450745)
srs: (0.002217898832684825, 0.14005897187580393, 10258097, 205308.5286655426)
srs: (0.0022135922330097087, 0.13978731437921824, 10278097, 205605.4748802185)
srs: (0.0022093023255813954, 0.13951670865101412, 10298097, 205902.5052242279)
srs: (0.002205029013539652, 0.13924714859485302, 10318097, 206186.98696184158)
srs: (0.0022007722007722007, 0.1389786281614202, 10338097, 206468.6648645401)
srs: (0.0021965317919075147, 0.1387111413479722, 10358097, 206750.47542190552)
srs: (0.002192307692307692, 0.13844468219788944, 10378097, 207031.83621191978)
srs: (0.0021880998080614205, 0.13817924480023427, 10398097, 207313.00245523453)
srs: (0.0021839080459770113, 0.1379148232893137, 10418097, 207593.6662929058)
srs: (0.002179732313575526, 0.13765141184424748, 10438097, 207874.7403099537)
srs: (0.0021755725190839696, 0.1373890046885407, 10458097, 208156.0346646309)
srs: (0.0021714285714285715, 0.13712759608966188, 10478097, 208437.06649255753)
srs: (0.0021673003802281368, 0.1368671803586253, 10498097, 208717.95669460297)
srs: (0.0021631878557874765, 0.13660775184957832, 10518097, 208998.54197859764)
srs: (0.002178030303030303, 0.1369447228433271, 10538096, 209279.844383955)
srs: (0.0021928166351606803, 0.13727783094272572, 10558087, 209780.51228308678)
srs: (0.002188679245283019, 0.13701910024011926, 10578087, 210303.06274485588)
srs: (0.0022222222222222222, 0.13793267824853386, 10598039, 210816.80543518066)
srs: (0.002218045112781955, 0.13767369447547723, 10618039, 211334.50508832932)
srs: (0.0022138836772983114, 0.13741568141902713, 10638039, 211859.89465212822)
srs: (0.0022097378277153557, 0.1371586336317784, 10658039, 212370.47353506088)
srs: (0.002205607476635514, 0.13690254570700894, 10678039, 212892.83553624153)
srs: (0.0022014925373134327, 0.13664741227830052, 10698039, 213407.8037188053)
srs: (0.002197392923649907, 0.13639322801916406, 10718039, 213940.20204377174)
srs: (0.0021933085501858736, 0.13613998764266885, 10738039, 214484.93450713158)
srs: (0.002189239332096475, 0.13588768590107606, 10758039, 215010.68586707115)
srs: (0.0022407407407407406, 0.13734586268020735, 10778020, 215549.17955613136)
srs: (0.0022365988909426988, 0.13709227317170258, 10798020, 216084.96553254128)
srs: (0.002232472324723247, 0.13683961836921296, 10818020, 216610.29023575783)
srs: (0.0022283609576427255, 0.13658789311440303, 10838020, 217149.9521818161)
srs: (0.002224264705882353, 0.1363370922868236, 10858020, 217678.52849841118)
srs: (0.002220183486238532, 0.13608721080356492, 10878020, 218207.53806567192)
srs: (0.0022161172161172162, 0.13583824361891297, 10898020, 218746.06905055046)
srs: (0.002230347349177331, 0.13614807560854814, 10918019, 219252.31898260117)
srs: (0.0022262773722627736, 0.1358999073871887, 10938019, 219737.69485545158)
srs: (0.0022222222222222222, 0.13565264223103912, 10958019, 220183.78039956093)
srs: (0.0022181818181818184, 0.13540627521978282, 10978019, 220625.29876756668)
srs: (0.0022141560798548095, 0.13516080146878265, 10998019, 221073.22017884254)
srs: (0.002246376811594203, 0.13601512170216698, 11017993, 221539.57041549683)
srs: (0.0022423146473779386, 0.13576943945229922, 11037993, 222006.1299123764)
srs: (0.0022382671480144405, 0.1355246431454464, 11057993, 222471.0113580227)
srs: (0.0022342342342342343, 0.1352807279981072, 11077993, 222930.1752383709)
srs: (0.0022302158273381297, 0.13503768926115542, 11097993, 223386.11575984955)
srs: (0.0022262118491921004, 0.13479552221953153, 11117993, 223844.31243562698)
srs: (0.0022222222222222222, 0.134554222191938, 11137993, 224299.49753594398)
srs: (0.0022182468694096603, 0.13431378453053744, 11157993, 224765.92010688782)
srs: (0.002232142857142857, 0.13461253624210837, 11177971, 225224.93931794167)
srs: (0.0022281639928698753, 0.1343728531200285, 11197971, 225665.9480855465)
srs: (0.002224199288256228, 0.13413402201049968, 11217971, 226111.68111300468)
srs: (0.002238010657193606, 0.1344293590881596, 11237960, 226575.66409897804)
srs: (0.00225177304964539, 0.1347215316474403, 11257944, 227058.26162791252)
srs: (0.002247787610619469, 0.13448335505029405, 11277944, 227564.8506541252)
srs: (0.0022791519434628973, 0.13529654936441018, 11297929, 228069.61622714996)
srs: (0.002275132275132275, 0.1350582031754086, 11317929, 228572.24181580544)
srs: (0.00227112676056338, 0.13482069527672244, 11337929, 229079.7092013359)
srs: (0.0022671353251318103, 0.1345840212535822, 11357929, 229583.36647105217)
srs: (0.0022807017543859647, 0.13486671507602885, 11377924, 230087.41910266876)
srs: (0.002276707530647986, 0.13463079066578434, 11397924, 230595.81080317497)
srs: (0.0022727272727272726, 0.1343956902249161, 11417924, 231097.80863571167)
srs: (0.002268760907504363, 0.13416140944437008, 11437924, 231603.58342123032)
srs: (0.002264808362369338, 0.13392794404508607, 11457924, 232108.45025610924)
srs: (0.0022782608695652174, 0.13420734766523734, 11477869, 232541.95822882652)
srs: (0.0022743055555555555, 0.13397461435782482, 11497869, 232920.27842831612)
srs: (0.002270363951473137, 0.13374268683223825, 11517869, 233298.76673674583)
srs: (0.0022664359861591698, 0.1335115609109855, 11537869, 233677.09934139252)
srs: (0.0022625215889464593, 0.1332812324454016, 11557869, 234055.62253808975)
srs: (0.0022586206896551726, 0.13305169731540054, 11577869, 234434.03126978874)
srs: (0.0022547332185886403, 0.13282295142922948, 11597869, 234813.28917384148)
srs: (0.0022508591065292095, 0.13259499072322586, 11617869, 235180.90090489388)
srs: (0.0022641509433962265, 0.13287092918995977, 11637851, 235634.00301504135)
srs: (0.00226027397260274, 0.1326436681861534, 11657851, 236087.87536096573)
srs: (0.0022564102564102562, 0.13241718326299087, 11677851, 236481.591455698)
srs: (0.002252559726962457, 0.13219147045186333, 11697851, 236870.8669874668)
srs: (0.0022657580919931857, 0.13246432498096247, 11717837, 237236.47994923592)
srs: (0.00227891156462585, 0.13273437885982398, 11737830, 237605.7814450264)
srs: (0.0022750424448217317, 0.13250928030980869, 11757830, 238038.8970937729)
srs: (0.002271186440677966, 0.13228494393575135, 11777830, 238450.0473358631)
srs: (0.002284263959390863, 0.13255209225325978, 11797822, 238836.1905248165)
srs: (0.0022804054054054055, 0.13232844257400236, 11817822, 239211.82863998413)
srs: (0.002276559865092749, 0.13210554633178737, 11837822, 239584.85513210297)
srs: (0.0022727272727272726, 0.131883399725726, 11857822, 239930.39009666443)
srs: (0.00226890756302521, 0.13166199898045267, 11877822, 240280.3547463417)
srs: (0.0022651006711409396, 0.13144134034591073, 11897822, 240629.7202076912)
srs: (0.0022613065326633165, 0.13122142009714102, 11917822, 240978.62736845016)
srs: (0.0022575250836120403, 0.13100223453407217, 11937822, 241326.32125473022)
srs: (0.0022537562604340567, 0.13078377998131296, 11957822, 241675.30879473686)
srs: (0.00225, 0.13056605278794714, 11977822, 241986.40556502342)
srs: (0.0022628951747088186, 0.13082984195497785, 11997800, 242279.2382464409)
srs: (0.0022591362126245847, 0.1306127626763968, 12017800, 242593.3353626728)
srs: (0.002255389718076285, 0.1303964025802619, 12037800, 243019.86660838127)
srs: (0.002251655629139073, 0.13018075809851928, 12057800, 243445.64330744743)
srs: (0.0022479338842975208, 0.12996582568667886, 12077800, 243871.59613919258)
srs: (0.0022442244224422443, 0.12975160182362, 12097800, 244297.39583992958)
srs: (0.002240527182866557, 0.12953808301139938, 12117800, 244724.53974199295)
srs: (0.0022368421052631577, 0.1293252657750605, 12137800, 245152.22641658783)
srs: (0.002233169129720854, 0.12911314666244525, 12157800, 245577.8767800331)
srs: (0.0022295081967213114, 0.1289017222440071, 12177800, 246003.91523718834)
srs: (0.0022422258592471357, 0.12916219186549657, 12197758, 246428.9107131958)
srs: (0.002238562091503268, 0.1289513792865407, 12217758, 246855.42645931244)
srs: (0.002234910277324633, 0.12874125374209927, 12237758, 247284.67063713074)
srs: (0.002231270358306189, 0.1285318118790921, 12257758, 247713.61420321465)
srs: (0.002227642276422764, 0.12832305036622332, 12277758, 248139.87032604218)
srs: (0.0022402597402597403, 0.12858064261358898, 12297751, 248565.92048454285)
srs: (0.00226904376012966, 0.12929726850399031, 12317727, 248992.03228020668)
srs: (0.0022653721682847896, 0.12908828714095183, 12337727, 249419.90325546265)
srs: (0.002261712439418417, 0.12887998023379163, 12357727, 249846.30629825592)
srs: (0.0022580645161290325, 0.12867234452271908, 12377727, 250272.95021271706)
srs: (0.0022544283413848632, 0.12846537676891678, 12397727, 250703.1280412674)
srs: (0.0022508038585209, 0.12825907375437204, 12417727, 251139.78581905365)
srs: (0.0022792937399678972, 0.1289627813721531, 12437710, 251576.10008859634)
srs: (0.0022756410256410254, 0.12875634593979882, 12457710, 252013.00797462463)
srs: (0.002272, 0.12855057034739287, 12477710, 252450.14296627045)
srs: (0.002268370607028754, 0.12834545143637, 12497710, 252887.15382623672)
srs: (0.0022807017543859647, 0.12859036735943802, 12517700, 253323.88472390175)
srs: (0.0022770700636942677, 0.12838583928907754, 12537700, 253760.68686175346)
srs: (0.002273449920508744, 0.1281819608042428, 12557700, 254188.72737145424)
srs: (0.00226984126984127, 0.12797872881520006, 12577700, 254614.97189474106)
srs: (0.002266244057052298, 0.12777614025177952, 12597700, 255041.23300099373)
srs: (0.0022626582278481014, 0.1275741920632207, 12617700, 255470.77930736542)
srs: (0.002259083728278041, 0.1273728812180193, 12637700, 255896.79023075104)
srs: (0.0022712933753943217, 0.12761507937904065, 12657689, 256322.8460431099)
srs: (0.002267716535433071, 0.12741433913857175, 12677689, 256749.2725532055)
srs: (0.0022641509433962265, 0.12721422943924038, 12697689, 257173.2648832798)
srs: (0.002260596546310832, 0.12701474731484064, 12717689, 257594.99144530296)
srs: (0.0022570532915360503, 0.1268158898177425, 12737689, 258016.51143431664)
srs: (0.0022848200312989043, 0.1274919114828031, 12757651, 258437.16271185875)
srs: (0.00228125, 0.12729293311072312, 12777651, 258858.7269384861)
srs: (0.002277691107644306, 0.12709457486612516, 12797651, 259280.70066905022)
srs: (0.002274143302180685, 0.1268968338545311, 12817651, 259702.42067694664)
srs: (0.002270606531881804, 0.1266997071994484, 12837651, 260124.3889374733)
srs: (0.002282608695652174, 0.12693469508060876, 12857650, 260555.64923787117)
srs: (0.0022945736434108526, 0.12716748521452045, 12877635, 260993.70052719116)
srs: (0.0022910216718266254, 0.1269708575386862, 12897635, 261430.76773548126)
srs: (0.002287480680061824, 0.12677483697839867, 12917635, 261869.8375120163)
srs: (0.002283950617283951, 0.12657942072616601, 12937635, 262308.14089488983)
srs: (0.002280431432973806, 0.12638460599177995, 12957635, 262747.1202778816)
srs: (0.002276923076923077, 0.12619039000218302, 12977635, 263185.45704960823)
srs: (0.002273425499231951, 0.12599677000133708, 12997635, 263623.4148161411)
srs: (0.0022699386503067485, 0.12580374325009275, 13017635, 264062.7650363445)
srs: (0.002297090352220521, 0.12645524299965036, 13037574, 264499.9283797741)
srs: (0.0022935779816513763, 0.12626210860857717, 13057574, 264938.4796388149)
srs: (0.0022900763358778627, 0.12606956326285806, 13077574, 265377.0437400341)
srs: (0.0022865853658536584, 0.12587760427178554, 13097574, 265815.2496840954)
srs: (0.00228310502283105, 0.12568622896101517, 13117574, 266256.02287459373)
srs: (0.0022948328267477203, 0.1259120989295948, 13137572, 266694.17126631737)
srs: (0.002291350531107739, 0.12572125293129846, 13157572, 267133.0186753273)
srs: (0.002303030303030303, 0.12594500785563745, 13177562, 267570.12985253334)
srs: (0.0022995461422087747, 0.12575469035860806, 13197562, 268009.33805704117)
srs: (0.00229607250755287, 0.12556494717614866, 13217562, 268448.0414059162)
srs: (0.0022926093514328808, 0.12537577571254693, 13237562, 268887.49569129944)
srs: (0.0022891566265060242, 0.12518717338770932, 13257562, 269326.07436966896)
srs: (0.002285714285714286, 0.12499913763704375, 13277562, 269766.63774991035)
srs: (0.0022822822822822822, 0.12481166591134342, 13297562, 270205.39945816994)
srs: (0.0022788605697151424, 0.12462475567667156, 13317562, 270644.5748717785)
srs: (0.0022754491017964074, 0.12443840441424733, 13337562, 271081.90013074875)
srs: (0.002272047832585949, 0.12425260962033254, 13357562, 271521.07780337334)
srs: (0.0022686567164179106, 0.12406736880611964, 13377562, 271959.0853321552)
srs: (0.0022652757078986587, 0.12388267949762062, 13397562, 272397.52344179153)
srs: (0.002261904761904762, 0.12369853923555674, 13417562, 272835.57594776154)
srs: (0.0022585438335809807, 0.12351494557524946, 13437562, 273273.3793795109)
srs: (0.002255192878338279, 0.12333189608651228, 13457562, 273706.81932997704)
srs: (0.0022518518518518517, 0.1231493883535434, 13477562, 274131.4064233303)
srs: (0.0022485207100591716, 0.1229674199748196, 13497562, 274555.7373301983)
srs: (0.00224519940915805, 0.1227859885629907, 13517562, 274979.9655807018)
srs: (0.00224188790560472, 0.12260509174477541, 13537562, 275403.2610011101)
srs: (0.0022385861561119292, 0.12242472716085763, 13557562, 275824.3631019592)
srs: (0.002235294117647059, 0.12224489246578402, 13577562, 276245.57847356796)
srs: (0.0022320117474302495, 0.1220655853278622, 13597562, 276667.13993144035)
srs: (0.002243401759530792, 0.1222861910364938, 13617550, 277088.28369379044)
srs: (0.002240117130307467, 0.12210734928614335, 13637550, 277510.3201601505)
srs: (0.0022368421052631577, 0.12192902987773042, 13657550, 277931.7966928482)
srs: (0.0022481751824817518, 0.12214756875624405, 13677533, 278352.6466591358)
srs: (0.0022448979591836735, 0.12196971138667276, 13697533, 278773.8978509903)
srs: (0.0022416302765647742, 0.12179237121430081, 13717533, 279196.5773024559)
srs: (0.002238372093023256, 0.12161554598644607, 13737533, 279618.03839945793)
srs: (0.002235123367198839, 0.12143923346348971, 13757533, 280039.4819383621)
srs: (0.0022318840579710147, 0.12126343141878161, 13777533, 280401.7243053913)
srs: (0.0022286541244573082, 0.12108813763854658, 13797533, 280709.0442061424)
srs: (0.002225433526011561, 0.12091334992179151, 13817533, 280989.8005530834)
srs: (0.0022222222222222222, 0.12073906608021315, 13837533, 281270.6731274128)
srs: (0.0022190201729106627, 0.12056528393810696, 13857533, 281551.45548033714)
srs: (0.0022302158273381297, 0.12078138108497474, 13877532, 281831.9297378063)
srs: (0.0022270114942528735, 0.12060803828351303, 13897532, 282112.1579372883)
srs: (0.002223816355810617, 0.12043519232367528, 13917532, 282392.53890252113)
srs: (0.002220630372492837, 0.1202628410724233, 13937532, 282673.1561126709)
srs: (0.002217453505007153, 0.12009098240891146, 13957532, 282953.89687538147)
srs: (0.002214285714285714, 0.11991961422439977, 13977532, 283236.68402838707)
srs: (0.002211126961483595, 0.11974873442216762, 13997532, 283518.03177690506)
srs: (0.002207977207977208, 0.11957834091742818, 14017532, 283799.340079546)
srs: (0.002204836415362731, 0.1194084316372437, 14037532, 284080.1297800541)
srs: (0.0022017045454545453, 0.11923900452044145, 14057532, 284362.50689578056)
srs: (0.0021985815602836877, 0.11907005751753029, 14077532, 284643.54432058334)
srs: (0.002195467422096317, 0.11890158859061818, 14097532, 284924.37587594986)
srs: (0.0021923620933521925, 0.11873359571333007, 14117532, 285205.1769924164)
srs: (0.002189265536723164, 0.11856607687072679, 14137532, 285485.5616326332)
srs: (0.0021861777150916782, 0.11839903005922435, 14157532, 285766.13052868843)
srs: (0.002211267605633803, 0.1189911188092483, 14177500, 286046.28455257416)
srs: (0.002208157524613221, 0.11882394658393983, 14197500, 286326.9908864498)
srs: (0.0022191011235955056, 0.11903369514131974, 14217467, 286607.5491950512)
srs: (0.0022159887798036465, 0.11886693285064266, 14237467, 286888.2319300175)
srs: (0.0022128851540616245, 0.11870063716237268, 14257467, 287168.48833346367)
srs: (0.0022097902097902096, 0.11853480612091263, 14277467, 287449.0082221031)
srs: (0.002206703910614525, 0.11836943778157837, 14297467, 287729.67907214165)
srs: (0.002203626220362622, 0.11820453021052263, 14317467, 288010.1041958332)
srs: (0.0022284122562674096, 0.11878316320301614, 14337443, 288290.1412887573)
srs: (0.0022253129346314327, 0.11861814136257724, 14357443, 288570.2323856354)
srs: (0.0022222222222222222, 0.11845357740482133, 14377443, 288848.75552749634)
srs: (0.002219140083217753, 0.1182894694266758, 14397443, 289127.31018829346)
srs: (0.00221606648199446, 0.11812581553559959, 14417443, 289405.98595929146)
srs: (0.0022130013831258644, 0.11796261384951044, 14437443, 289684.8591885567)
srs: (0.0022099447513812156, 0.11779986249671277, 14457443, 289963.32852101326)
srs: (0.002220689655172414, 0.11800378874782834, 14477433, 290241.6298544407)
srs: (0.0022176308539944905, 0.11784142972136089, 14497433, 290520.28371334076)
srs: (0.0022145804676753783, 0.11767951685320809, 14517433, 290798.98988604546)
srs: (0.0022115384615384614, 0.11751804830684982, 14537433, 291077.99518179893)
srs: (0.0022222222222222222, 0.11772011166898384, 14557417, 291356.5087220669)
srs: (0.0022191780821917808, 0.11755903057321979, 14577417, 291634.6628334522)
srs: (0.002216142270861833, 0.11739838970156097, 14597417, 291913.4188416004)
srs: (0.0022131147540983605, 0.11723818725181782, 14617417, 292192.0562570095)
srs: (0.0022237380627557982, 0.11743841579173026, 14637404, 292471.05121159554)
srs: (0.002220708446866485, 0.11727859600013328, 14657404, 292749.24051737785)
srs: (0.002217687074829932, 0.11711921060822326, 14677404, 293027.49953222275)
srs: (0.0022146739130434784, 0.11696025784732099, 14697404, 293305.7792570591)
srs: (0.0022116689280868387, 0.11680173595833582, 14717404, 293584.29383063316)
srs: (0.002208672086720867, 0.11664364319170092, 14737404, 293863.4461555481)
srs: (0.002205683355886333, 0.11648597780730886, 14757404, 294141.9596683979)
srs: (0.002202702702702703, 0.11632873807444775, 14777404, 294421.4304282665)
srs: (0.0021997300944669364, 0.11617192227173789, 14797404, 294700.32406806946)
srs: (0.002196765498652291, 0.11601552868706906, 14817404, 294979.2183775902)
srs: (0.002193808882907133, 0.11585955561753808, 14837404, 295257.7693641186)
srs: (0.0021908602150537636, 0.11570400136938712, 14857404, 295536.8305594921)
srs: (0.002187919463087248, 0.11554886425794224, 14877404, 295816.7954246998)
srs: (0.0021849865951742626, 0.11539414260755276, 14897404, 296097.72860717773)
srs: (0.002182061579651941, 0.11523983475153077, 14917404, 296383.1392147541)slurmstepd-linux59: error: *** JOB 566140 ON linux59 CANCELLED AT 2020-06-02T23:16:42 DUE TO TIME LIMIT ***
