[220, 260, 300, 340, 380, 420, 450] 0.003 0.1
00->220 0.4616541353383459 1995
380->420 0.2991658646134103 4156 3730
340->380 0.37411108110541 3703 4156
300->340 0.44835936554062233 2753 3703
420->450 0.34924039320822164 3730 3908
260->300 0.5289145052833814 1735 2753
220->260 0.6279406442272891 921 1735
102030405060708090mlss: 0.0018971389464727774/0.0011344263869748948, 2008761.3/1452176.7518689968, 4.465051302909851/3.227211413811177
