[340, 450] 0.003 0.1
00->340 0.0682615629984051 12540
340->450 0.03582554517133956 856 92
102030405060708090mlss: 0.0026303813771762045/0.0003256448018795699, 6960043.13/1147497.978992422, 15.567316806316375/2.5740445009389914
