%!PS-Adobe-3.0 EPSF-3.0
%%Creator: (MATLAB, The Mathworks, Inc. Version 9.1.0.441655 \(R2016b\). Operating System: Mac OS X)
%%Title: /Users/junyang/workspace/DurPrediction/figs/cp-optimal-levels.eps
%%CreationDate: 2020-06-08T10:49:22
%%Pages: (atend)
%%BoundingBox: 0 0 560 420
%%LanguageLevel: 3
%%EndComments
%%BeginProlog
%%BeginResource: procset (Apache XML Graphics Std ProcSet) 1.2 0
%%Version: 1.2 0
%%Copyright: (Copyright 2001-2003,2010 The Apache Software Foundation. License terms: http://www.apache.org/licenses/LICENSE-2.0)
/bd{bind def}bind def
/ld{load def}bd
/GR/grestore ld
/M/moveto ld
/LJ/setlinejoin ld
/C/curveto ld
/f/fill ld
/LW/setlinewidth ld
/GC/setgray ld
/t/show ld
/N/newpath ld
/CT/concat ld
/cp/closepath ld
/S/stroke ld
/L/lineto ld
/CC/setcmykcolor ld
/A/ashow ld
/GS/gsave ld
/RC/setrgbcolor ld
/RM/rmoveto ld
/ML/setmiterlimit ld
/re {4 2 roll M
1 index 0 rlineto
0 exch rlineto
neg 0 rlineto
cp } bd
/_ctm matrix def
/_tm matrix def
/BT { _ctm currentmatrix pop matrix _tm copy pop 0 0 moveto } bd
/ET { _ctm setmatrix } bd
/iTm { _ctm setmatrix _tm concat } bd
/Tm { _tm astore pop iTm 0 0 moveto } bd
/ux 0.0 def
/uy 0.0 def
/F {
  /Tp exch def
  /Tf exch def
  Tf findfont Tp scalefont setfont
  /cf Tf def  /cs Tp def
} bd
/ULS {currentpoint /uy exch def /ux exch def} bd
/ULE {
  /Tcx currentpoint pop def
  gsave
  newpath
  cf findfont cs scalefont dup
  /FontMatrix get 0 get /Ts exch def /FontInfo get dup
  /UnderlinePosition get Ts mul /To exch def
  /UnderlineThickness get Ts mul /Tt exch def
  ux uy To add moveto  Tcx uy To add lineto
  Tt setlinewidth stroke
  grestore
} bd
/OLE {
  /Tcx currentpoint pop def
  gsave
  newpath
  cf findfont cs scalefont dup
  /FontMatrix get 0 get /Ts exch def /FontInfo get dup
  /UnderlinePosition get Ts mul /To exch def
  /UnderlineThickness get Ts mul /Tt exch def
  ux uy To add cs add moveto Tcx uy To add cs add lineto
  Tt setlinewidth stroke
  grestore
} bd
/SOE {
  /Tcx currentpoint pop def
  gsave
  newpath
  cf findfont cs scalefont dup
  /FontMatrix get 0 get /Ts exch def /FontInfo get dup
  /UnderlinePosition get Ts mul /To exch def
  /UnderlineThickness get Ts mul /Tt exch def
  ux uy To add cs 10 mul 26 idiv add moveto Tcx uy To add cs 10 mul 26 idiv add lineto
  Tt setlinewidth stroke
  grestore
} bd
/QT {
/Y22 exch store
/X22 exch store
/Y21 exch store
/X21 exch store
currentpoint
/Y21 load 2 mul add 3 div exch
/X21 load 2 mul add 3 div exch
/X21 load 2 mul /X22 load add 3 div
/Y21 load 2 mul /Y22 load add 3 div
/X22 load /Y22 load curveto
} bd
/SSPD {
dup length /d exch dict def
{
/v exch def
/k exch def
currentpagedevice k known {
/cpdv currentpagedevice k get def
v cpdv ne {
/upd false def
/nullv v type /nulltype eq def
/nullcpdv cpdv type /nulltype eq def
nullv nullcpdv or
{
/upd true def
} {
/sametype v type cpdv type eq def
sametype {
v type /arraytype eq {
/vlen v length def
/cpdvlen cpdv length def
vlen cpdvlen eq {
0 1 vlen 1 sub {
/i exch def
/obj v i get def
/cpdobj cpdv i get def
obj cpdobj ne {
/upd true def
exit
} if
} for
} {
/upd true def
} ifelse
} {
v type /dicttype eq {
v {
/dv exch def
/dk exch def
/cpddv cpdv dk get def
dv cpddv ne {
/upd true def
exit
} if
} forall
} {
/upd true def
} ifelse
} ifelse
} if
} ifelse
upd true eq {
d k v put
} if
} if
} if
} forall
d length 0 gt {
d setpagedevice
} if
} bd
/RE { % /NewFontName [NewEncodingArray] /FontName RE -
  findfont dup length dict begin
  {
    1 index /FID ne
    {def} {pop pop} ifelse
  } forall
  /Encoding exch def
  /FontName 1 index def
  currentdict definefont pop
  end
} bind def
%%EndResource
%%BeginResource: procset (Apache XML Graphics EPS ProcSet) 1.0 0
%%Version: 1.0 0
%%Copyright: (Copyright 2002-2003 The Apache Software Foundation. License terms: http://www.apache.org/licenses/LICENSE-2.0)
/BeginEPSF { %def
/b4_Inc_state save def         % Save state for cleanup
/dict_count countdictstack def % Count objects on dict stack
/op_count count 1 sub def      % Count objects on operand stack
userdict begin                 % Push userdict on dict stack
/showpage { } def              % Redefine showpage, { } = null proc
0 setgray 0 setlinecap         % Prepare graphics state
1 setlinewidth 0 setlinejoin
10 setmiterlimit [ ] 0 setdash newpath
/languagelevel where           % If level not equal to 1 then
{pop languagelevel             % set strokeadjust and
1 ne                           % overprint to their defaults.
{false setstrokeadjust false setoverprint
} if
} if
} bd
/EndEPSF { %def
count op_count sub {pop} repeat            % Clean up stacks
countdictstack dict_count sub {end} repeat
b4_Inc_state restore
} bd
%%EndResource
%FOPBeginFontDict
%%IncludeResource: font Courier-Bold
%%IncludeResource: font Helvetica
%%IncludeResource: font Courier-BoldOblique
%%IncludeResource: font Courier-Oblique
%%IncludeResource: font Times-Roman
%%IncludeResource: font Helvetica-BoldOblique
%%IncludeResource: font Helvetica-Bold
%%IncludeResource: font Helvetica-Oblique
%%IncludeResource: font Times-BoldItalic
%%IncludeResource: font Courier
%%IncludeResource: font Times-Italic
%%IncludeResource: font Times-Bold
%%IncludeResource: font Symbol
%%IncludeResource: font ZapfDingbats
%FOPEndFontDict
%%BeginResource: encoding WinAnsiEncoding
/WinAnsiEncoding [
/.notdef /.notdef /.notdef /.notdef /.notdef
/.notdef /.notdef /.notdef /.notdef /.notdef
/.notdef /.notdef /.notdef /.notdef /.notdef
/.notdef /.notdef /.notdef /.notdef /.notdef
/.notdef /.notdef /.notdef /.notdef /.notdef
/.notdef /.notdef /.notdef /.notdef /.notdef
/.notdef /.notdef /space /exclam /quotedbl
/numbersign /dollar /percent /ampersand /quotesingle
/parenleft /parenright /asterisk /plus /comma
/hyphen /period /slash /zero /one
/two /three /four /five /six
/seven /eight /nine /colon /semicolon
/less /equal /greater /question /at
/A /B /C /D /E
/F /G /H /I /J
/K /L /M /N /O
/P /Q /R /S /T
/U /V /W /X /Y
/Z /bracketleft /backslash /bracketright /asciicircum
/underscore /quoteleft /a /b /c
/d /e /f /g /h
/i /j /k /l /m
/n /o /p /q /r
/s /t /u /v /w
/x /y /z /braceleft /bar
/braceright /asciitilde /bullet /Euro /bullet
/quotesinglbase /florin /quotedblbase /ellipsis /dagger
/daggerdbl /circumflex /perthousand /Scaron /guilsinglleft
/OE /bullet /Zcaron /bullet /bullet
/quoteleft /quoteright /quotedblleft /quotedblright /bullet
/endash /emdash /asciitilde /trademark /scaron
/guilsinglright /oe /bullet /zcaron /Ydieresis
/space /exclamdown /cent /sterling /currency
/yen /brokenbar /section /dieresis /copyright
/ordfeminine /guillemotleft /logicalnot /sfthyphen /registered
/macron /degree /plusminus /twosuperior /threesuperior
/acute /mu /paragraph /middot /cedilla
/onesuperior /ordmasculine /guillemotright /onequarter /onehalf
/threequarters /questiondown /Agrave /Aacute /Acircumflex
/Atilde /Adieresis /Aring /AE /Ccedilla
/Egrave /Eacute /Ecircumflex /Edieresis /Igrave
/Iacute /Icircumflex /Idieresis /Eth /Ntilde
/Ograve /Oacute /Ocircumflex /Otilde /Odieresis
/multiply /Oslash /Ugrave /Uacute /Ucircumflex
/Udieresis /Yacute /Thorn /germandbls /agrave
/aacute /acircumflex /atilde /adieresis /aring
/ae /ccedilla /egrave /eacute /ecircumflex
/edieresis /igrave /iacute /icircumflex /idieresis
/eth /ntilde /ograve /oacute /ocircumflex
/otilde /odieresis /divide /oslash /ugrave
/uacute /ucircumflex /udieresis /yacute /thorn
/ydieresis
] def
%%EndResource
%FOPBeginFontReencode
/Courier-Bold findfont
dup length dict begin
  {1 index /FID ne {def} {pop pop} ifelse} forall
  /Encoding WinAnsiEncoding def
  currentdict
end
/Courier-Bold exch definefont pop
/Helvetica findfont
dup length dict begin
  {1 index /FID ne {def} {pop pop} ifelse} forall
  /Encoding WinAnsiEncoding def
  currentdict
end
/Helvetica exch definefont pop
/Courier-BoldOblique findfont
dup length dict begin
  {1 index /FID ne {def} {pop pop} ifelse} forall
  /Encoding WinAnsiEncoding def
  currentdict
end
/Courier-BoldOblique exch definefont pop
/Courier-Oblique findfont
dup length dict begin
  {1 index /FID ne {def} {pop pop} ifelse} forall
  /Encoding WinAnsiEncoding def
  currentdict
end
/Courier-Oblique exch definefont pop
/Times-Roman findfont
dup length dict begin
  {1 index /FID ne {def} {pop pop} ifelse} forall
  /Encoding WinAnsiEncoding def
  currentdict
end
/Times-Roman exch definefont pop
/Helvetica-BoldOblique findfont
dup length dict begin
  {1 index /FID ne {def} {pop pop} ifelse} forall
  /Encoding WinAnsiEncoding def
  currentdict
end
/Helvetica-BoldOblique exch definefont pop
/Helvetica-Bold findfont
dup length dict begin
  {1 index /FID ne {def} {pop pop} ifelse} forall
  /Encoding WinAnsiEncoding def
  currentdict
end
/Helvetica-Bold exch definefont pop
/Helvetica-Oblique findfont
dup length dict begin
  {1 index /FID ne {def} {pop pop} ifelse} forall
  /Encoding WinAnsiEncoding def
  currentdict
end
/Helvetica-Oblique exch definefont pop
/Times-BoldItalic findfont
dup length dict begin
  {1 index /FID ne {def} {pop pop} ifelse} forall
  /Encoding WinAnsiEncoding def
  currentdict
end
/Times-BoldItalic exch definefont pop
/Courier findfont
dup length dict begin
  {1 index /FID ne {def} {pop pop} ifelse} forall
  /Encoding WinAnsiEncoding def
  currentdict
end
/Courier exch definefont pop
/Times-Italic findfont
dup length dict begin
  {1 index /FID ne {def} {pop pop} ifelse} forall
  /Encoding WinAnsiEncoding def
  currentdict
end
/Times-Italic exch definefont pop
/Times-Bold findfont
dup length dict begin
  {1 index /FID ne {def} {pop pop} ifelse} forall
  /Encoding WinAnsiEncoding def
  currentdict
end
/Times-Bold exch definefont pop
%FOPEndFontReencode
%%EndProlog
%%Page: 1 1
%%PageBoundingBox: 0 0 560 420
%%BeginPageSetup
[1 0 0 -1 0 420] CT
%%EndPageSetup
GS
1 GC
N
0 0 560 420 re
f
GR
GS
1 GC
N
0 0 560 420 re
f
GR
GS
1 GC
N
73 363 M
507 363 L
507 31.5 L
73 31.5 L
cp
f
GR
GS
0.149 GC
2 setlinecap
1 LJ
0.5 LW
N
73 363 M
507 363 L
S
GR
GS
0.149 GC
2 setlinecap
1 LJ
0.5 LW
N
159.8 363 M
159.8 358.66 L
S
GR
GS
0.149 GC
2 setlinecap
1 LJ
0.5 LW
N
246.6 363 M
246.6 358.66 L
S
GR
GS
0.149 GC
2 setlinecap
1 LJ
0.5 LW
N
333.4 363 M
333.4 358.66 L
S
GR
GS
0.149 GC
2 setlinecap
1 LJ
0.5 LW
N
420.2 363 M
420.2 358.66 L
S
GR
GS
[1 0 0 1 159.8 369] CT
0.149 GC
/Helvetica 20 F
GS
[1 0 0 1 0 0] CT
-6 20 moveto 
1 -1 scale
(2) t 
GR
GR
GS
[1 0 0 1 246.60001 369] CT
0.149 GC
/Helvetica 20 F
GS
[1 0 0 1 0 0] CT
-6 20 moveto 
1 -1 scale
(3) t 
GR
GR
GS
[1 0 0 1 333.39999 369] CT
0.149 GC
/Helvetica 20 F
GS
[1 0 0 1 0 0] CT
-6 20 moveto 
1 -1 scale
(4) t 
GR
GR
GS
[1 0 0 1 420.20001 369] CT
0.149 GC
/Helvetica 20 F
GS
[1 0 0 1 0 0] CT
-6 20 moveto 
1 -1 scale
(5) t 
GR
GR
GS
[1 0 0 1 290.00021 394] CT
0.149 GC
/Helvetica 22 F
GS
[1 0 0 1 0 0] CT
-81.5 21 moveto 
1 -1 scale
(number of levels) t 
GR
GR
GS
0.149 GC
2 setlinecap
1 LJ
0.5 LW
N
73 363 M
73 31.5 L
S
GR
GS
0.149 GC
2 setlinecap
1 LJ
0.5 LW
N
73 363 M
77.34 363 L
S
GR
GS
0.149 GC
2 setlinecap
1 LJ
0.5 LW
N
73 296.7 M
77.34 296.7 L
S
GR
GS
0.149 GC
2 setlinecap
1 LJ
0.5 LW
N
73 230.4 M
77.34 230.4 L
S
GR
GS
0.149 GC
2 setlinecap
1 LJ
0.5 LW
N
73 164.1 M
77.34 164.1 L
S
GR
GS
0.149 GC
2 setlinecap
1 LJ
0.5 LW
N
73 97.8 M
77.34 97.8 L
S
GR
GS
0.149 GC
2 setlinecap
1 LJ
0.5 LW
N
73 31.5 M
77.34 31.5 L
S
GR
GS
[1 0 0 1 67 363] CT
0.149 GC
/Helvetica 20 F
GS
[1 0 0 1 0 0] CT
-12 7.5 moveto 
1 -1 scale
(0) t 
GR
GR
GS
[1 0 0 1 67 296.70001] CT
0.149 GC
/Helvetica 20 F
GS
[1 0 0 1 0 0] CT
-12 7.5 moveto 
1 -1 scale
(2) t 
GR
GR
GS
[1 0 0 1 67 230.39999] CT
0.149 GC
/Helvetica 20 F
GS
[1 0 0 1 0 0] CT
-12 7.5 moveto 
1 -1 scale
(4) t 
GR
GR
GS
[1 0 0 1 67 164.10001] CT
0.149 GC
/Helvetica 20 F
GS
[1 0 0 1 0 0] CT
-12 7.5 moveto 
1 -1 scale
(6) t 
GR
GR
GS
[1 0 0 1 67 97.8] CT
0.149 GC
/Helvetica 20 F
GS
[1 0 0 1 0 0] CT
-12 7.5 moveto 
1 -1 scale
(8) t 
GR
GR
GS
[1 0 0 1 67 31.5] CT
0.149 GC
/Helvetica 20 F
GS
[1 0 0 1 0 0] CT
-23 7.5 moveto 
1 -1 scale
(10) t 
GR
GR
GS
[0 -1 1 0 41.5 197.24985] CT
0.149 GC
/Helvetica 22 F
GS
[1 0 0 1 0 0] CT
-158.5 -5 moveto 
1 -1 scale
(total number of simulation steps) t 
GR
GR
GS
[1 0 0 1 73 27] CT
0.149 GC
N
2.938 -0.578 M
2.938 -0.734 3.031 -0.859 QT
7.203 -5 L
3.031 -9.156 L
2.938 -9.266 2.938 -9.422 QT
2.938 -9.578 3.055 -9.703 QT
3.172 -9.828 3.344 -9.828 QT
3.484 -9.828 3.641 -9.703 QT
7.781 -5.563 L
11.906 -9.703 L
12.078 -9.828 12.203 -9.828 QT
12.359 -9.828 12.477 -9.711 QT
12.594 -9.594 12.594 -9.422 QT
12.594 -9.266 12.5 -9.156 QT
8.344 -5 L
12.5 -0.859 L
12.594 -0.734 12.594 -0.578 QT
12.594 -0.406 12.477 -0.289 QT
12.359 -0.172 12.203 -0.172 QT
12.047 -0.172 11.906 -0.328 QT
7.781 -4.438 L
3.641 -0.328 L
3.5 -0.172 3.344 -0.172 QT
3.172 -0.172 3.055 -0.305 QT
2.938 -0.438 2.938 -0.578 QT
cp
f
GR
GS
[1 0 0 1 89 27] CT
0.149 GC
/Helvetica 20 F
GS
[1 0 0 1 0 0] CT
0 0 moveto 
1 -1 scale
(10) t 
GR
GR
GS
[1 0 0 1 112 17] CT
0.149 GC
/Helvetica 16 F
GS
[1 0 0 1 0 0] CT
0 0 moveto 
1 -1 scale
(5) t 
GR
GR
GS
0.149 GC
1 LJ
0.5 LW
N
73 363 M
507 363 L
S
GR
GS
[8 8] 0 setdash
2 LJ
2 LW
N
72.566 46.337 M
507 46.337 L
S
GR
GS
0.941 GC
N
125.08 363 M
194.52 363 L
194.52 149.873 L
125.08 149.873 L
cp
f
GR
GS
0.941 GC
N
211.88 363 M
281.32 363 L
281.32 191.589 L
211.88 191.589 L
cp
f
GR
GS
0.941 GC
N
298.68 363 M
368.12 363 L
368.12 180.007 L
298.68 180.007 L
cp
f
GR
GS
0.941 GC
N
385.48 363 M
454.92 363 L
454.92 127.821 L
385.48 127.821 L
cp
f
GR
GS
10.0 ML
0.5 LW
N
125.08 363 M
125.08 149.873 L
194.52 149.873 L
194.52 363 L
cp
S
GR
GS
10.0 ML
0.5 LW
N
211.88 363 M
211.88 191.589 L
281.32 191.589 L
281.32 363 L
cp
S
GR
GS
10.0 ML
0.5 LW
N
298.68 363 M
298.68 180.007 L
368.12 180.007 L
368.12 363 L
cp
S
GR
GS
10.0 ML
0.5 LW
N
385.48 363 M
385.48 127.821 L
454.92 127.821 L
454.92 363 L
cp
S
GR
GS
1 LJ
2 LW
N
159.8 149.873 M
159.8 174.018 L
S
GR
GS
1 LJ
2 LW
N
246.6 191.589 M
246.6 239.158 L
S
GR
GS
1 LJ
2 LW
N
333.4 180.007 M
333.4 226.811 L
S
GR
GS
1 LJ
2 LW
N
420.2 127.821 M
420.2 213.905 L
S
GR
GS
1 LJ
2 LW
N
159.8 149.873 M
159.8 125.727 L
S
GR
GS
1 LJ
2 LW
N
246.6 191.589 M
246.6 144.019 L
S
GR
GS
1 LJ
2 LW
N
333.4 180.007 M
333.4 133.202 L
S
GR
GS
1 LJ
2 LW
N
420.2 127.821 M
420.2 41.737 L
S
GR
GS
[1 0 0 1 159.8 174.01848] CT
N
-3 0 M
3 0 L
f
GR
GS
[1 0 0 1 159.8 174.01848] CT
10.0 ML
2 LW
N
-3 0 M
3 0 L
S
GR
GS
[1 0 0 1 246.60001 239.15823] CT
N
/f1394637256{-3 0 M
3 0 L}def
f1394637256
f
GR
GS
[1 0 0 1 246.60001 239.15823] CT
10.0 ML
2 LW
N
-3 0 M
3 0 L
S
GR
GS
[1 0 0 1 333.39999 226.81119] CT
N
f1394637256
f
GR
GS
[1 0 0 1 333.39999 226.81119] CT
10.0 ML
2 LW
N
-3 0 M
3 0 L
S
GR
GS
[1 0 0 1 420.20001 213.90456] CT
N
f1394637256
f
GR
GS
[1 0 0 1 420.20001 213.90456] CT
10.0 ML
2 LW
N
-3 0 M
3 0 L
S
GR
GS
[1 0 0 1 159.8 125.72688] CT
N
f1394637256
f
GR
GS
[1 0 0 1 159.8 125.72688] CT
10.0 ML
2 LW
N
-3 0 M
3 0 L
S
GR
GS
[1 0 0 1 246.60001 144.01906] CT
N
f1394637256
f
GR
GS
[1 0 0 1 246.60001 144.01906] CT
10.0 ML
2 LW
N
-3 0 M
3 0 L
S
GR
GS
[1 0 0 1 333.39999 133.20221] CT
N
f1394637256
f
GR
GS
[1 0 0 1 333.39999 133.20221] CT
10.0 ML
2 LW
N
-3 0 M
3 0 L
S
GR
GS
[1 0 0 1 420.20001 41.73738] CT
N
f1394637256
f
GR
GS
[1 0 0 1 420.20001 41.73738] CT
10.0 ML
2 LW
N
-3 0 M
3 0 L
S
GR
GS
1 GC
N
/f186426598{119.5 111 M
119.5 58.5 L
215 58.5 L
215 111 L
cp}def
f186426598
f
GR
GS
[1 0 0 1 156.5 72.5] CT
/Helvetica 20 F
GS
[1 0 0 1 0 0] CT
0 7.5 moveto 
1 -1 scale
(SRS) t 
GR
GR
GS
[8 8] 0 setdash
2 LJ
2 LW
N
123.5 72.5 M
153.5 72.5 L
S
GR
GS
[1 0 0 1 156.5 97] CT
/Helvetica 20 F
GS
[1 0 0 1 0 0] CT
0 7.5 moveto 
1 -1 scale
(MLSS) t 
GR
GR
GS
0.941 GC
N
/f-313538630{123.5 106.35 M
123.5 87.65 L
153.5 87.65 L
153.5 106.35 L
cp}def
f-313538630
f
GR
GS
10.0 ML
0.5 LW
N
123.5 106.35 M
123.5 87.65 L
153.5 87.65 L
153.5 106.35 L
cp
S
GR
GS
1 GC
10.0 ML
0.5 LW
N
119.5 111 M
119.5 58.5 L
215 58.5 L
215 111 L
cp
S
GR
%%Trailer
%%Pages: 1
%%EOF
