%!PS-Adobe-3.0 EPSF-3.0
%%Creator: (MATLAB, The Mathworks, Inc. Version 9.8.0.1380330 \(R2020a\) Update 2. Operating System: Mac OS X)
%%Title: /Users/junyang/workspace/DurPrediction/figs/nn-greedy-v4.eps
%%CreationDate: 2020-06-12T21:59:42
%%Pages: (atend)
%%BoundingBox:     0     0   560   420
%%LanguageLevel: 3
%%EndComments
%%BeginProlog
%%BeginResource: procset (Apache XML Graphics Std ProcSet) 1.2 0
%%Version: 1.2 0
%%Copyright: (Copyright 2001-2003,2010 The Apache Software Foundation. License terms: http://www.apache.org/licenses/LICENSE-2.0)
/bd{bind def}bind def
/ld{load def}bd
/GR/grestore ld
/GS/gsave ld
/RM/rmoveto ld
/C/curveto ld
/t/show ld
/L/lineto ld
/ML/setmiterlimit ld
/CT/concat ld
/f/fill ld
/N/newpath ld
/S/stroke ld
/CC/setcmykcolor ld
/A/ashow ld
/cp/closepath ld
/RC/setrgbcolor ld
/LJ/setlinejoin ld
/GC/setgray ld
/LW/setlinewidth ld
/M/moveto ld
/re {4 2 roll M
1 index 0 rlineto
0 exch rlineto
neg 0 rlineto
cp } bd
/_ctm matrix def
/_tm matrix def
/BT { _ctm currentmatrix pop matrix _tm copy pop 0 0 moveto } bd
/ET { _ctm setmatrix } bd
/iTm { _ctm setmatrix _tm concat } bd
/Tm { _tm astore pop iTm 0 0 moveto } bd
/ux 0.0 def
/uy 0.0 def
/F {
  /Tp exch def
  /Tf exch def
  Tf findfont Tp scalefont setfont
  /cf Tf def  /cs Tp def
} bd
/ULS {currentpoint /uy exch def /ux exch def} bd
/ULE {
  /Tcx currentpoint pop def
  gsave
  newpath
  cf findfont cs scalefont dup
  /FontMatrix get 0 get /Ts exch def /FontInfo get dup
  /UnderlinePosition get Ts mul /To exch def
  /UnderlineThickness get Ts mul /Tt exch def
  ux uy To add moveto  Tcx uy To add lineto
  Tt setlinewidth stroke
  grestore
} bd
/OLE {
  /Tcx currentpoint pop def
  gsave
  newpath
  cf findfont cs scalefont dup
  /FontMatrix get 0 get /Ts exch def /FontInfo get dup
  /UnderlinePosition get Ts mul /To exch def
  /UnderlineThickness get Ts mul /Tt exch def
  ux uy To add cs add moveto Tcx uy To add cs add lineto
  Tt setlinewidth stroke
  grestore
} bd
/SOE {
  /Tcx currentpoint pop def
  gsave
  newpath
  cf findfont cs scalefont dup
  /FontMatrix get 0 get /Ts exch def /FontInfo get dup
  /UnderlinePosition get Ts mul /To exch def
  /UnderlineThickness get Ts mul /Tt exch def
  ux uy To add cs 10 mul 26 idiv add moveto Tcx uy To add cs 10 mul 26 idiv add lineto
  Tt setlinewidth stroke
  grestore
} bd
/QT {
/Y22 exch store
/X22 exch store
/Y21 exch store
/X21 exch store
currentpoint
/Y21 load 2 mul add 3 div exch
/X21 load 2 mul add 3 div exch
/X21 load 2 mul /X22 load add 3 div
/Y21 load 2 mul /Y22 load add 3 div
/X22 load /Y22 load curveto
} bd
/SSPD {
dup length /d exch dict def
{
/v exch def
/k exch def
currentpagedevice k known {
/cpdv currentpagedevice k get def
v cpdv ne {
/upd false def
/nullv v type /nulltype eq def
/nullcpdv cpdv type /nulltype eq def
nullv nullcpdv or
{
/upd true def
} {
/sametype v type cpdv type eq def
sametype {
v type /arraytype eq {
/vlen v length def
/cpdvlen cpdv length def
vlen cpdvlen eq {
0 1 vlen 1 sub {
/i exch def
/obj v i get def
/cpdobj cpdv i get def
obj cpdobj ne {
/upd true def
exit
} if
} for
} {
/upd true def
} ifelse
} {
v type /dicttype eq {
v {
/dv exch def
/dk exch def
/cpddv cpdv dk get def
dv cpddv ne {
/upd true def
exit
} if
} forall
} {
/upd true def
} ifelse
} ifelse
} if
} ifelse
upd true eq {
d k v put
} if
} if
} if
} forall
d length 0 gt {
d setpagedevice
} if
} bd
/RE { % /NewFontName [NewEncodingArray] /FontName RE -
  findfont dup length dict begin
  {
    1 index /FID ne
    {def} {pop pop} ifelse
  } forall
  /Encoding exch def
  /FontName 1 index def
  currentdict definefont pop
  end
} bind def
%%EndResource
%%BeginResource: procset (Apache XML Graphics EPS ProcSet) 1.0 0
%%Version: 1.0 0
%%Copyright: (Copyright 2002-2003 The Apache Software Foundation. License terms: http://www.apache.org/licenses/LICENSE-2.0)
/BeginEPSF { %def
/b4_Inc_state save def         % Save state for cleanup
/dict_count countdictstack def % Count objects on dict stack
/op_count count 1 sub def      % Count objects on operand stack
userdict begin                 % Push userdict on dict stack
/showpage { } def              % Redefine showpage, { } = null proc
0 setgray 0 setlinecap         % Prepare graphics state
1 setlinewidth 0 setlinejoin
10 setmiterlimit [ ] 0 setdash newpath
/languagelevel where           % If level not equal to 1 then
{pop languagelevel             % set strokeadjust and
1 ne                           % overprint to their defaults.
{false setstrokeadjust false setoverprint
} if
} if
} bd
/EndEPSF { %def
count op_count sub {pop} repeat            % Clean up stacks
countdictstack dict_count sub {end} repeat
b4_Inc_state restore
} bd
%%EndResource
%FOPBeginFontDict
%%IncludeResource: font Courier-Oblique
%%IncludeResource: font Courier-BoldOblique
%%IncludeResource: font Courier-Bold
%%IncludeResource: font ZapfDingbats
%%IncludeResource: font Symbol
%%IncludeResource: font Helvetica
%%IncludeResource: font Helvetica-Oblique
%%IncludeResource: font Helvetica-Bold
%%IncludeResource: font Helvetica-BoldOblique
%%IncludeResource: font Times-Roman
%%IncludeResource: font Times-Italic
%%IncludeResource: font Times-Bold
%%IncludeResource: font Times-BoldItalic
%%IncludeResource: font Courier
%FOPEndFontDict
%%BeginResource: encoding WinAnsiEncoding
/WinAnsiEncoding [
/.notdef /.notdef /.notdef /.notdef /.notdef
/.notdef /.notdef /.notdef /.notdef /.notdef
/.notdef /.notdef /.notdef /.notdef /.notdef
/.notdef /.notdef /.notdef /.notdef /.notdef
/.notdef /.notdef /.notdef /.notdef /.notdef
/.notdef /.notdef /.notdef /.notdef /.notdef
/.notdef /.notdef /space /exclam /quotedbl
/numbersign /dollar /percent /ampersand /quotesingle
/parenleft /parenright /asterisk /plus /comma
/hyphen /period /slash /zero /one
/two /three /four /five /six
/seven /eight /nine /colon /semicolon
/less /equal /greater /question /at
/A /B /C /D /E
/F /G /H /I /J
/K /L /M /N /O
/P /Q /R /S /T
/U /V /W /X /Y
/Z /bracketleft /backslash /bracketright /asciicircum
/underscore /quoteleft /a /b /c
/d /e /f /g /h
/i /j /k /l /m
/n /o /p /q /r
/s /t /u /v /w
/x /y /z /braceleft /bar
/braceright /asciitilde /bullet /Euro /bullet
/quotesinglbase /florin /quotedblbase /ellipsis /dagger
/daggerdbl /circumflex /perthousand /Scaron /guilsinglleft
/OE /bullet /Zcaron /bullet /bullet
/quoteleft /quoteright /quotedblleft /quotedblright /bullet
/endash /emdash /asciitilde /trademark /scaron
/guilsinglright /oe /bullet /zcaron /Ydieresis
/space /exclamdown /cent /sterling /currency
/yen /brokenbar /section /dieresis /copyright
/ordfeminine /guillemotleft /logicalnot /sfthyphen /registered
/macron /degree /plusminus /twosuperior /threesuperior
/acute /mu /paragraph /middot /cedilla
/onesuperior /ordmasculine /guillemotright /onequarter /onehalf
/threequarters /questiondown /Agrave /Aacute /Acircumflex
/Atilde /Adieresis /Aring /AE /Ccedilla
/Egrave /Eacute /Ecircumflex /Edieresis /Igrave
/Iacute /Icircumflex /Idieresis /Eth /Ntilde
/Ograve /Oacute /Ocircumflex /Otilde /Odieresis
/multiply /Oslash /Ugrave /Uacute /Ucircumflex
/Udieresis /Yacute /Thorn /germandbls /agrave
/aacute /acircumflex /atilde /adieresis /aring
/ae /ccedilla /egrave /eacute /ecircumflex
/edieresis /igrave /iacute /icircumflex /idieresis
/eth /ntilde /ograve /oacute /ocircumflex
/otilde /odieresis /divide /oslash /ugrave
/uacute /ucircumflex /udieresis /yacute /thorn
/ydieresis
] def
%%EndResource
%FOPBeginFontReencode
/Courier-Oblique findfont
dup length dict begin
  {1 index /FID ne {def} {pop pop} ifelse} forall
  /Encoding WinAnsiEncoding def
  currentdict
end
/Courier-Oblique exch definefont pop
/Courier-BoldOblique findfont
dup length dict begin
  {1 index /FID ne {def} {pop pop} ifelse} forall
  /Encoding WinAnsiEncoding def
  currentdict
end
/Courier-BoldOblique exch definefont pop
/Courier-Bold findfont
dup length dict begin
  {1 index /FID ne {def} {pop pop} ifelse} forall
  /Encoding WinAnsiEncoding def
  currentdict
end
/Courier-Bold exch definefont pop
/Helvetica findfont
dup length dict begin
  {1 index /FID ne {def} {pop pop} ifelse} forall
  /Encoding WinAnsiEncoding def
  currentdict
end
/Helvetica exch definefont pop
/Helvetica-Oblique findfont
dup length dict begin
  {1 index /FID ne {def} {pop pop} ifelse} forall
  /Encoding WinAnsiEncoding def
  currentdict
end
/Helvetica-Oblique exch definefont pop
/Helvetica-Bold findfont
dup length dict begin
  {1 index /FID ne {def} {pop pop} ifelse} forall
  /Encoding WinAnsiEncoding def
  currentdict
end
/Helvetica-Bold exch definefont pop
/Helvetica-BoldOblique findfont
dup length dict begin
  {1 index /FID ne {def} {pop pop} ifelse} forall
  /Encoding WinAnsiEncoding def
  currentdict
end
/Helvetica-BoldOblique exch definefont pop
/Times-Roman findfont
dup length dict begin
  {1 index /FID ne {def} {pop pop} ifelse} forall
  /Encoding WinAnsiEncoding def
  currentdict
end
/Times-Roman exch definefont pop
/Times-Italic findfont
dup length dict begin
  {1 index /FID ne {def} {pop pop} ifelse} forall
  /Encoding WinAnsiEncoding def
  currentdict
end
/Times-Italic exch definefont pop
/Times-Bold findfont
dup length dict begin
  {1 index /FID ne {def} {pop pop} ifelse} forall
  /Encoding WinAnsiEncoding def
  currentdict
end
/Times-Bold exch definefont pop
/Times-BoldItalic findfont
dup length dict begin
  {1 index /FID ne {def} {pop pop} ifelse} forall
  /Encoding WinAnsiEncoding def
  currentdict
end
/Times-BoldItalic exch definefont pop
/Courier findfont
dup length dict begin
  {1 index /FID ne {def} {pop pop} ifelse} forall
  /Encoding WinAnsiEncoding def
  currentdict
end
/Courier exch definefont pop
%FOPEndFontReencode
%%EndProlog
%%Page: 1 1
%%PageBoundingBox: 0 0 560 420
%%BeginPageSetup
[1 0 0 -1 0 420] CT
%%EndPageSetup
GS
1 GC
N
0 0 560 420 re
f
GR
GS
1 GC
N
0 0 560 420 re
f
GR
GS
1 GC
N
73 363 M
507 363 L
507 31.5 L
73 31.5 L
cp
f
GR
GS
0.149 GC
2 setlinecap
1 LJ
0.5 LW
N
73 363 M
507 363 L
S
GR
GS
0.149 GC
2 setlinecap
1 LJ
0.5 LW
N
180.505 363 M
180.505 358.66 L
S
GR
GS
0.149 GC
2 setlinecap
1 LJ
0.5 LW
N
399.495 363 M
399.495 358.66 L
S
GR
GS
[1 0 0 1 180.50459 369] CT
0.149 GC
/Helvetica 20 F
GS
[1 0 0 1 0 0] CT
-25 20 moveto 
1 -1 scale
(Small) t 
GR
GR
GS
[1 0 0 1 399.49542 369] CT
0.149 GC
/Helvetica 20 F
GS
[1 0 0 1 0 0] CT
-19 20 moveto 
1 -1 scale
(Tiny) t 
GR
GR
GS
[1 0 0 1 290.00021 394] CT
0.149 GC
/Helvetica 22 F
GS
[1 0 0 1 0 0] CT
-52.5 21 moveto 
1 -1 scale
(query type) t 
GR
GR
GS
0.149 GC
2 setlinecap
1 LJ
0.5 LW
N
73 363 M
73 31.5 L
S
GR
GS
0.149 GC
2 setlinecap
1 LJ
0.5 LW
N
73 363 M
77.34 363 L
S
GR
GS
0.149 GC
2 setlinecap
1 LJ
0.5 LW
N
73 307.75 M
77.34 307.75 L
S
GR
GS
0.149 GC
2 setlinecap
1 LJ
0.5 LW
N
73 252.5 M
77.34 252.5 L
S
GR
GS
0.149 GC
2 setlinecap
1 LJ
0.5 LW
N
73 197.25 M
77.34 197.25 L
S
GR
GS
0.149 GC
2 setlinecap
1 LJ
0.5 LW
N
73 142 M
77.34 142 L
S
GR
GS
0.149 GC
2 setlinecap
1 LJ
0.5 LW
N
73 86.75 M
77.34 86.75 L
S
GR
GS
[1 0 0 1 67 363] CT
0.149 GC
/Helvetica 20 F
GS
[1 0 0 1 0 0] CT
-12 7.5 moveto 
1 -1 scale
(0) t 
GR
GR
GS
[1 0 0 1 67 307.75] CT
0.149 GC
/Helvetica 20 F
GS
[1 0 0 1 0 0] CT
-28 7.5 moveto 
1 -1 scale
(0.2) t 
GR
GR
GS
[1 0 0 1 67 252.5] CT
0.149 GC
/Helvetica 20 F
GS
[1 0 0 1 0 0] CT
-28 7.5 moveto 
1 -1 scale
(0.4) t 
GR
GR
GS
[1 0 0 1 67 197.25] CT
0.149 GC
/Helvetica 20 F
GS
[1 0 0 1 0 0] CT
-28 7.5 moveto 
1 -1 scale
(0.6) t 
GR
GR
GS
[1 0 0 1 67 142] CT
0.149 GC
/Helvetica 20 F
GS
[1 0 0 1 0 0] CT
-28 7.5 moveto 
1 -1 scale
(0.8) t 
GR
GR
GS
[1 0 0 1 67 86.75] CT
0.149 GC
/Helvetica 20 F
GS
[1 0 0 1 0 0] CT
-12 7.5 moveto 
1 -1 scale
(1) t 
GR
GR
GS
[0 -1 1 0 36 197.24983] CT
0.149 GC
/Helvetica 22 F
GS
[1 0 0 1 0 0] CT
-123.5 -5 moveto 
1 -1 scale
(ratio to SRS baseline \(%\)) t 
GR
GR
GS
0.149 GC
1 LJ
0.5 LW
N
73 363 M
507 363 L
S
GR
GS
0 0.447 0.741 RC
N
136.706 363 M
136.706 86.75 L
104.853 86.75 L
104.853 363 L
cp
355.697 363 M
355.697 86.75 L
323.844 86.75 L
323.844 363 L
cp
f
GR
GS
10.0 ML
0.5 LW
N
104.853 363 M
104.853 86.75 L
136.706 86.75 L
136.706 363 L
cp
S
GR
GS
10.0 ML
0.5 LW
N
323.844 363 M
323.844 86.75 L
355.697 86.75 L
355.697 363 L
cp
S
GR
GS
1 0 0 RC
N
176.523 363 M
176.523 309.111 L
144.67 309.111 L
144.67 363 L
cp
395.514 363 M
395.514 332.417 L
363.661 332.417 L
363.661 363 L
cp
f
GR
GS
10.0 ML
0.5 LW
N
144.67 363 M
144.67 309.111 L
176.523 309.111 L
176.523 363 L
cp
S
GR
GS
10.0 ML
0.5 LW
N
363.661 363 M
363.661 332.417 L
395.514 332.417 L
395.514 363 L
cp
S
GR
GS
1 1 0 RC
N
216.339 363 M
216.339 261.11 L
184.486 261.11 L
184.486 363 L
cp
435.33 363 M
435.33 332.037 L
403.477 332.037 L
403.477 363 L
cp
f
GR
GS
10.0 ML
0.5 LW
N
184.486 363 M
184.486 261.11 L
216.339 261.11 L
216.339 363 L
cp
S
GR
GS
10.0 ML
0.5 LW
N
403.477 363 M
403.477 332.037 L
435.33 332.037 L
435.33 363 L
cp
S
GR
GS
0.58 0.239 0.11 RC
N
256.156 363 M
256.156 342.711 L
224.303 342.711 L
224.303 363 L
cp
475.147 363 M
475.147 355.902 L
443.294 355.902 L
443.294 363 L
cp
f
GR
GS
10.0 ML
0.5 LW
N
224.303 363 M
224.303 342.711 L
256.156 342.711 L
256.156 363 L
cp
S
GR
GS
10.0 ML
0.5 LW
N
443.294 363 M
443.294 355.902 L
475.147 355.902 L
475.147 363 L
cp
S
GR
GS
[1 0 0 1 88.83996 77.22501] CT
/Helvetica 20 F
GS
[1 0 0 1 0 0] CT
0 7.5 moveto 
1 -1 scale
(1009431) t 
GR
GR
GS
[1 0 0 1 307.83078 77.22501] CT
/Helvetica 20 F
GS
[1 0 0 1 0 0] CT
0 7.5 moveto 
1 -1 scale
(7262735) t 
GR
GR
GS
1 GC
N
555 53.5 M
555 25.5 L
11.5 25.5 L
11.5 53.5 L
cp
f
GR
GS
[1 0 0 1 48.5 39.5] CT
/Helvetica 20 F
GS
[1 0 0 1 0 0] CT
0 7.5 moveto 
1 -1 scale
(SRS) t 
GR
GR
GS
0 0.447 0.741 RC
N
45.5 48.5 M
45.5 30.5 L
15.5 30.5 L
15.5 48.5 L
cp
f
GR
GS
10.0 ML
0.5 LW
N
15.5 48.5 M
15.5 30.5 L
45.5 30.5 L
45.5 48.5 L
cp
S
GR
GS
[1 0 0 1 129.5 39.5] CT
/Helvetica 20 F
GS
[1 0 0 1 0 0] CT
0 7.5 moveto 
1 -1 scale
(MLSS-OPT) t 
GR
GR
GS
1 0 0 RC
N
126.5 48.5 M
126.5 30.5 L
96.5 30.5 L
96.5 48.5 L
cp
f
GR
GS
10.0 ML
0.5 LW
N
96.5 48.5 M
96.5 30.5 L
126.5 30.5 L
126.5 48.5 L
cp
S
GR
GS
[1 0 0 1 272.5 39.5] CT
/Helvetica 20 F
GS
[1 0 0 1 0 0] CT
0 7.5 moveto 
1 -1 scale
(MLSS-G) t 
GR
GR
GS
1 1 0 RC
N
269.5 48.5 M
269.5 30.5 L
239.5 30.5 L
239.5 48.5 L
cp
f
GR
GS
10.0 ML
0.5 LW
N
239.5 48.5 M
239.5 30.5 L
269.5 30.5 L
269.5 48.5 L
cp
S
GR
GS
[1 0 0 1 391 39.5] CT
/Helvetica 20 F
GS
[1 0 0 1 0 0] CT
0 7.5 moveto 
1 -1 scale
(MLSS-G-Partition) t 
GR
GR
GS
0.58 0.239 0.11 RC
N
388 48.5 M
388 30.5 L
358 30.5 L
358 48.5 L
cp
f
GR
GS
10.0 ML
0.5 LW
N
358 48.5 M
358 30.5 L
388 30.5 L
388 48.5 L
cp
S
GR
GS
1 GC
10.0 ML
0.5 LW
N
11.5 53.5 M
11.5 25.5 L
555 25.5 L
555 53.5 L
cp
S
GR
%%Trailer
%%Pages: 1
%%EOF
