%!PS-Adobe-3.0 EPSF-3.0
%%Creator: (MATLAB, The Mathworks, Inc. Version 9.1.0.441655 \(R2016b\). Operating System: Mac OS X)
%%Title: /Users/junyang/workspace/DurPrediction/figs/nn-greedy.eps
%%CreationDate: 2020-06-09T00:57:55
%%Pages: (atend)
%%BoundingBox: 0 0 560 420
%%LanguageLevel: 3
%%EndComments
%%BeginProlog
%%BeginResource: procset (Apache XML Graphics Std ProcSet) 1.2 0
%%Version: 1.2 0
%%Copyright: (Copyright 2001-2003,2010 The Apache Software Foundation. License terms: http://www.apache.org/licenses/LICENSE-2.0)
/bd{bind def}bind def
/ld{load def}bd
/GR/grestore ld
/M/moveto ld
/LJ/setlinejoin ld
/C/curveto ld
/f/fill ld
/LW/setlinewidth ld
/GC/setgray ld
/t/show ld
/N/newpath ld
/CT/concat ld
/cp/closepath ld
/S/stroke ld
/L/lineto ld
/CC/setcmykcolor ld
/A/ashow ld
/GS/gsave ld
/RC/setrgbcolor ld
/RM/rmoveto ld
/ML/setmiterlimit ld
/re {4 2 roll M
1 index 0 rlineto
0 exch rlineto
neg 0 rlineto
cp } bd
/_ctm matrix def
/_tm matrix def
/BT { _ctm currentmatrix pop matrix _tm copy pop 0 0 moveto } bd
/ET { _ctm setmatrix } bd
/iTm { _ctm setmatrix _tm concat } bd
/Tm { _tm astore pop iTm 0 0 moveto } bd
/ux 0.0 def
/uy 0.0 def
/F {
  /Tp exch def
  /Tf exch def
  Tf findfont Tp scalefont setfont
  /cf Tf def  /cs Tp def
} bd
/ULS {currentpoint /uy exch def /ux exch def} bd
/ULE {
  /Tcx currentpoint pop def
  gsave
  newpath
  cf findfont cs scalefont dup
  /FontMatrix get 0 get /Ts exch def /FontInfo get dup
  /UnderlinePosition get Ts mul /To exch def
  /UnderlineThickness get Ts mul /Tt exch def
  ux uy To add moveto  Tcx uy To add lineto
  Tt setlinewidth stroke
  grestore
} bd
/OLE {
  /Tcx currentpoint pop def
  gsave
  newpath
  cf findfont cs scalefont dup
  /FontMatrix get 0 get /Ts exch def /FontInfo get dup
  /UnderlinePosition get Ts mul /To exch def
  /UnderlineThickness get Ts mul /Tt exch def
  ux uy To add cs add moveto Tcx uy To add cs add lineto
  Tt setlinewidth stroke
  grestore
} bd
/SOE {
  /Tcx currentpoint pop def
  gsave
  newpath
  cf findfont cs scalefont dup
  /FontMatrix get 0 get /Ts exch def /FontInfo get dup
  /UnderlinePosition get Ts mul /To exch def
  /UnderlineThickness get Ts mul /Tt exch def
  ux uy To add cs 10 mul 26 idiv add moveto Tcx uy To add cs 10 mul 26 idiv add lineto
  Tt setlinewidth stroke
  grestore
} bd
/QT {
/Y22 exch store
/X22 exch store
/Y21 exch store
/X21 exch store
currentpoint
/Y21 load 2 mul add 3 div exch
/X21 load 2 mul add 3 div exch
/X21 load 2 mul /X22 load add 3 div
/Y21 load 2 mul /Y22 load add 3 div
/X22 load /Y22 load curveto
} bd
/SSPD {
dup length /d exch dict def
{
/v exch def
/k exch def
currentpagedevice k known {
/cpdv currentpagedevice k get def
v cpdv ne {
/upd false def
/nullv v type /nulltype eq def
/nullcpdv cpdv type /nulltype eq def
nullv nullcpdv or
{
/upd true def
} {
/sametype v type cpdv type eq def
sametype {
v type /arraytype eq {
/vlen v length def
/cpdvlen cpdv length def
vlen cpdvlen eq {
0 1 vlen 1 sub {
/i exch def
/obj v i get def
/cpdobj cpdv i get def
obj cpdobj ne {
/upd true def
exit
} if
} for
} {
/upd true def
} ifelse
} {
v type /dicttype eq {
v {
/dv exch def
/dk exch def
/cpddv cpdv dk get def
dv cpddv ne {
/upd true def
exit
} if
} forall
} {
/upd true def
} ifelse
} ifelse
} if
} ifelse
upd true eq {
d k v put
} if
} if
} if
} forall
d length 0 gt {
d setpagedevice
} if
} bd
/RE { % /NewFontName [NewEncodingArray] /FontName RE -
  findfont dup length dict begin
  {
    1 index /FID ne
    {def} {pop pop} ifelse
  } forall
  /Encoding exch def
  /FontName 1 index def
  currentdict definefont pop
  end
} bind def
%%EndResource
%%BeginResource: procset (Apache XML Graphics EPS ProcSet) 1.0 0
%%Version: 1.0 0
%%Copyright: (Copyright 2002-2003 The Apache Software Foundation. License terms: http://www.apache.org/licenses/LICENSE-2.0)
/BeginEPSF { %def
/b4_Inc_state save def         % Save state for cleanup
/dict_count countdictstack def % Count objects on dict stack
/op_count count 1 sub def      % Count objects on operand stack
userdict begin                 % Push userdict on dict stack
/showpage { } def              % Redefine showpage, { } = null proc
0 setgray 0 setlinecap         % Prepare graphics state
1 setlinewidth 0 setlinejoin
10 setmiterlimit [ ] 0 setdash newpath
/languagelevel where           % If level not equal to 1 then
{pop languagelevel             % set strokeadjust and
1 ne                           % overprint to their defaults.
{false setstrokeadjust false setoverprint
} if
} if
} bd
/EndEPSF { %def
count op_count sub {pop} repeat            % Clean up stacks
countdictstack dict_count sub {end} repeat
b4_Inc_state restore
} bd
%%EndResource
%FOPBeginFontDict
%%IncludeResource: font Courier-Bold
%%IncludeResource: font Helvetica
%%IncludeResource: font Courier-BoldOblique
%%IncludeResource: font Courier-Oblique
%%IncludeResource: font Times-Roman
%%IncludeResource: font Helvetica-BoldOblique
%%IncludeResource: font Helvetica-Bold
%%IncludeResource: font Helvetica-Oblique
%%IncludeResource: font Times-BoldItalic
%%IncludeResource: font Courier
%%IncludeResource: font Times-Italic
%%IncludeResource: font Times-Bold
%%IncludeResource: font Symbol
%%IncludeResource: font ZapfDingbats
%FOPEndFontDict
%%BeginResource: encoding WinAnsiEncoding
/WinAnsiEncoding [
/.notdef /.notdef /.notdef /.notdef /.notdef
/.notdef /.notdef /.notdef /.notdef /.notdef
/.notdef /.notdef /.notdef /.notdef /.notdef
/.notdef /.notdef /.notdef /.notdef /.notdef
/.notdef /.notdef /.notdef /.notdef /.notdef
/.notdef /.notdef /.notdef /.notdef /.notdef
/.notdef /.notdef /space /exclam /quotedbl
/numbersign /dollar /percent /ampersand /quotesingle
/parenleft /parenright /asterisk /plus /comma
/hyphen /period /slash /zero /one
/two /three /four /five /six
/seven /eight /nine /colon /semicolon
/less /equal /greater /question /at
/A /B /C /D /E
/F /G /H /I /J
/K /L /M /N /O
/P /Q /R /S /T
/U /V /W /X /Y
/Z /bracketleft /backslash /bracketright /asciicircum
/underscore /quoteleft /a /b /c
/d /e /f /g /h
/i /j /k /l /m
/n /o /p /q /r
/s /t /u /v /w
/x /y /z /braceleft /bar
/braceright /asciitilde /bullet /Euro /bullet
/quotesinglbase /florin /quotedblbase /ellipsis /dagger
/daggerdbl /circumflex /perthousand /Scaron /guilsinglleft
/OE /bullet /Zcaron /bullet /bullet
/quoteleft /quoteright /quotedblleft /quotedblright /bullet
/endash /emdash /asciitilde /trademark /scaron
/guilsinglright /oe /bullet /zcaron /Ydieresis
/space /exclamdown /cent /sterling /currency
/yen /brokenbar /section /dieresis /copyright
/ordfeminine /guillemotleft /logicalnot /sfthyphen /registered
/macron /degree /plusminus /twosuperior /threesuperior
/acute /mu /paragraph /middot /cedilla
/onesuperior /ordmasculine /guillemotright /onequarter /onehalf
/threequarters /questiondown /Agrave /Aacute /Acircumflex
/Atilde /Adieresis /Aring /AE /Ccedilla
/Egrave /Eacute /Ecircumflex /Edieresis /Igrave
/Iacute /Icircumflex /Idieresis /Eth /Ntilde
/Ograve /Oacute /Ocircumflex /Otilde /Odieresis
/multiply /Oslash /Ugrave /Uacute /Ucircumflex
/Udieresis /Yacute /Thorn /germandbls /agrave
/aacute /acircumflex /atilde /adieresis /aring
/ae /ccedilla /egrave /eacute /ecircumflex
/edieresis /igrave /iacute /icircumflex /idieresis
/eth /ntilde /ograve /oacute /ocircumflex
/otilde /odieresis /divide /oslash /ugrave
/uacute /ucircumflex /udieresis /yacute /thorn
/ydieresis
] def
%%EndResource
%FOPBeginFontReencode
/Courier-Bold findfont
dup length dict begin
  {1 index /FID ne {def} {pop pop} ifelse} forall
  /Encoding WinAnsiEncoding def
  currentdict
end
/Courier-Bold exch definefont pop
/Helvetica findfont
dup length dict begin
  {1 index /FID ne {def} {pop pop} ifelse} forall
  /Encoding WinAnsiEncoding def
  currentdict
end
/Helvetica exch definefont pop
/Courier-BoldOblique findfont
dup length dict begin
  {1 index /FID ne {def} {pop pop} ifelse} forall
  /Encoding WinAnsiEncoding def
  currentdict
end
/Courier-BoldOblique exch definefont pop
/Courier-Oblique findfont
dup length dict begin
  {1 index /FID ne {def} {pop pop} ifelse} forall
  /Encoding WinAnsiEncoding def
  currentdict
end
/Courier-Oblique exch definefont pop
/Times-Roman findfont
dup length dict begin
  {1 index /FID ne {def} {pop pop} ifelse} forall
  /Encoding WinAnsiEncoding def
  currentdict
end
/Times-Roman exch definefont pop
/Helvetica-BoldOblique findfont
dup length dict begin
  {1 index /FID ne {def} {pop pop} ifelse} forall
  /Encoding WinAnsiEncoding def
  currentdict
end
/Helvetica-BoldOblique exch definefont pop
/Helvetica-Bold findfont
dup length dict begin
  {1 index /FID ne {def} {pop pop} ifelse} forall
  /Encoding WinAnsiEncoding def
  currentdict
end
/Helvetica-Bold exch definefont pop
/Helvetica-Oblique findfont
dup length dict begin
  {1 index /FID ne {def} {pop pop} ifelse} forall
  /Encoding WinAnsiEncoding def
  currentdict
end
/Helvetica-Oblique exch definefont pop
/Times-BoldItalic findfont
dup length dict begin
  {1 index /FID ne {def} {pop pop} ifelse} forall
  /Encoding WinAnsiEncoding def
  currentdict
end
/Times-BoldItalic exch definefont pop
/Courier findfont
dup length dict begin
  {1 index /FID ne {def} {pop pop} ifelse} forall
  /Encoding WinAnsiEncoding def
  currentdict
end
/Courier exch definefont pop
/Times-Italic findfont
dup length dict begin
  {1 index /FID ne {def} {pop pop} ifelse} forall
  /Encoding WinAnsiEncoding def
  currentdict
end
/Times-Italic exch definefont pop
/Times-Bold findfont
dup length dict begin
  {1 index /FID ne {def} {pop pop} ifelse} forall
  /Encoding WinAnsiEncoding def
  currentdict
end
/Times-Bold exch definefont pop
%FOPEndFontReencode
%%EndProlog
%%Page: 1 1
%%PageBoundingBox: 0 0 560 420
%%BeginPageSetup
[1 0 0 -1 0 420] CT
%%EndPageSetup
GS
1 GC
N
0 0 560 420 re
f
GR
GS
1 GC
N
0 0 560 420 re
f
GR
GS
1 GC
N
73 363 M
507 363 L
507 31.5 L
73 31.5 L
cp
f
GR
GS
0.149 GC
2 setlinecap
1 LJ
0.5 LW
N
73 363 M
507 363 L
S
GR
GS
0.149 GC
2 setlinecap
1 LJ
0.5 LW
N
181.5 363 M
181.5 358.66 L
S
GR
GS
0.149 GC
2 setlinecap
1 LJ
0.5 LW
N
398.5 363 M
398.5 358.66 L
S
GR
GS
[1 0 0 1 181.5 369] CT
0.149 GC
/Helvetica 20 F
GS
[1 0 0 1 0 0] CT
-25 20 moveto 
1 -1 scale
(Small) t 
GR
GR
GS
[1 0 0 1 398.5 369] CT
0.149 GC
/Helvetica 20 F
GS
[1 0 0 1 0 0] CT
-19 20 moveto 
1 -1 scale
(Tiny) t 
GR
GR
GS
[1 0 0 1 290.00021 394] CT
0.149 GC
/Helvetica 22 F
GS
[1 0 0 1 0 0] CT
-52.5 21 moveto 
1 -1 scale
(query type) t 
GR
GR
GS
0.149 GC
2 setlinecap
1 LJ
0.5 LW
N
73 363 M
73 31.5 L
S
GR
GS
0.149 GC
2 setlinecap
1 LJ
0.5 LW
N
73 363 M
77.34 363 L
S
GR
GS
0.149 GC
2 setlinecap
1 LJ
0.5 LW
N
73 252.5 M
77.34 252.5 L
S
GR
GS
0.149 GC
2 setlinecap
1 LJ
0.5 LW
N
73 142 M
77.34 142 L
S
GR
GS
0.149 GC
2 setlinecap
1 LJ
0.5 LW
N
73 31.5 M
77.34 31.5 L
S
GR
GS
0.149 GC
2 setlinecap
1 LJ
0.5 LW
N
73 363 M
75.17 363 L
S
GR
GS
0.149 GC
2 setlinecap
1 LJ
0.5 LW
N
73 329.736 M
75.17 329.736 L
S
GR
GS
0.149 GC
2 setlinecap
1 LJ
0.5 LW
N
73 310.278 M
75.17 310.278 L
S
GR
GS
0.149 GC
2 setlinecap
1 LJ
0.5 LW
N
73 296.472 M
75.17 296.472 L
S
GR
GS
0.149 GC
2 setlinecap
1 LJ
0.5 LW
N
73 285.764 M
75.17 285.764 L
S
GR
GS
0.149 GC
2 setlinecap
1 LJ
0.5 LW
N
73 277.014 M
75.17 277.014 L
S
GR
GS
0.149 GC
2 setlinecap
1 LJ
0.5 LW
N
73 269.617 M
75.17 269.617 L
S
GR
GS
0.149 GC
2 setlinecap
1 LJ
0.5 LW
N
73 263.209 M
75.17 263.209 L
S
GR
GS
0.149 GC
2 setlinecap
1 LJ
0.5 LW
N
73 257.556 M
75.17 257.556 L
S
GR
GS
0.149 GC
2 setlinecap
1 LJ
0.5 LW
N
73 252.5 M
75.17 252.5 L
S
GR
GS
0.149 GC
2 setlinecap
1 LJ
0.5 LW
N
73 219.236 M
75.17 219.236 L
S
GR
GS
0.149 GC
2 setlinecap
1 LJ
0.5 LW
N
73 199.778 M
75.17 199.778 L
S
GR
GS
0.149 GC
2 setlinecap
1 LJ
0.5 LW
N
73 185.972 M
75.17 185.972 L
S
GR
GS
0.149 GC
2 setlinecap
1 LJ
0.5 LW
N
73 175.264 M
75.17 175.264 L
S
GR
GS
0.149 GC
2 setlinecap
1 LJ
0.5 LW
N
73 166.514 M
75.17 166.514 L
S
GR
GS
0.149 GC
2 setlinecap
1 LJ
0.5 LW
N
73 159.117 M
75.17 159.117 L
S
GR
GS
0.149 GC
2 setlinecap
1 LJ
0.5 LW
N
73 152.709 M
75.17 152.709 L
S
GR
GS
0.149 GC
2 setlinecap
1 LJ
0.5 LW
N
73 147.056 M
75.17 147.056 L
S
GR
GS
0.149 GC
2 setlinecap
1 LJ
0.5 LW
N
73 142 M
75.17 142 L
S
GR
GS
0.149 GC
2 setlinecap
1 LJ
0.5 LW
N
73 108.736 M
75.17 108.736 L
S
GR
GS
0.149 GC
2 setlinecap
1 LJ
0.5 LW
N
73 89.278 M
75.17 89.278 L
S
GR
GS
0.149 GC
2 setlinecap
1 LJ
0.5 LW
N
73 75.472 M
75.17 75.472 L
S
GR
GS
0.149 GC
2 setlinecap
1 LJ
0.5 LW
N
73 64.764 M
75.17 64.764 L
S
GR
GS
0.149 GC
2 setlinecap
1 LJ
0.5 LW
N
73 56.014 M
75.17 56.014 L
S
GR
GS
0.149 GC
2 setlinecap
1 LJ
0.5 LW
N
73 48.617 M
75.17 48.617 L
S
GR
GS
0.149 GC
2 setlinecap
1 LJ
0.5 LW
N
73 42.209 M
75.17 42.209 L
S
GR
GS
0.149 GC
2 setlinecap
1 LJ
0.5 LW
N
73 36.556 M
75.17 36.556 L
S
GR
GS
0.149 GC
2 setlinecap
1 LJ
0.5 LW
N
73 31.5 M
75.17 31.5 L
S
GR
GS
[1 0 0 1 35 374] CT
0.149 GC
/Helvetica 20 F
GS
[1 0 0 1 0 0] CT
0 0 moveto 
1 -1 scale
(10) t 
GR
GR
GS
[1 0 0 1 58 364] CT
0.149 GC
/Helvetica 16 F
GS
[1 0 0 1 0 0] CT
0 0 moveto 
1 -1 scale
(4) t 
GR
GR
GS
[1 0 0 1 35 264] CT
0.149 GC
/Helvetica 20 F
GS
[1 0 0 1 0 0] CT
0 0 moveto 
1 -1 scale
(10) t 
GR
GR
GS
[1 0 0 1 58 254] CT
0.149 GC
/Helvetica 16 F
GS
[1 0 0 1 0 0] CT
0 0 moveto 
1 -1 scale
(5) t 
GR
GR
GS
[1 0 0 1 35 153] CT
0.149 GC
/Helvetica 20 F
GS
[1 0 0 1 0 0] CT
0 0 moveto 
1 -1 scale
(10) t 
GR
GR
GS
[1 0 0 1 58 143] CT
0.149 GC
/Helvetica 16 F
GS
[1 0 0 1 0 0] CT
0 0 moveto 
1 -1 scale
(6) t 
GR
GR
GS
[1 0 0 1 35 43] CT
0.149 GC
/Helvetica 20 F
GS
[1 0 0 1 0 0] CT
0 0 moveto 
1 -1 scale
(10) t 
GR
GR
GS
[1 0 0 1 58 33] CT
0.149 GC
/Helvetica 16 F
GS
[1 0 0 1 0 0] CT
0 0 moveto 
1 -1 scale
(7) t 
GR
GR
GS
[0 -1 1 0 32.5 197.24985] CT
0.149 GC
/Helvetica 22 F
GS
[1 0 0 1 0 0] CT
-158.5 -5 moveto 
1 -1 scale
(total number of simulation steps) t 
GR
GR
GS
0.149 GC
1 LJ
0.5 LW
N
73 363 M
507 363 L
S
GR
GS
1 1 0 RC
N
209.63 363 M
249.815 363 L
249.815 180.7 L
209.63 180.7 L
cp
f
GR
GS
1 1 0 RC
N
426.63 363 M
466.815 363 L
466.815 142.452 L
426.63 142.452 L
cp
f
GR
GS
10.0 ML
0.5 LW
N
209.63 363 M
209.63 180.7 L
249.815 180.7 L
249.815 363 L
cp
S
GR
GS
10.0 ML
0.5 LW
N
426.63 363 M
426.63 142.452 L
466.815 142.452 L
466.815 363 L
cp
S
GR
GS
0.208 0.165 0.525 RC
N
113.989 363 M
152.567 363 L
152.567 141.55 L
113.989 141.55 L
cp
f
GR
GS
0.208 0.165 0.525 RC
N
330.989 363 M
369.567 363 L
369.567 46.848 L
330.989 46.848 L
cp
f
GR
GS
10.0 ML
0.5 LW
N
113.989 363 M
113.989 141.55 L
152.567 141.55 L
152.567 363 L
cp
S
GR
GS
10.0 ML
0.5 LW
N
330.989 363 M
330.989 46.848 L
369.567 46.848 L
369.567 363 L
cp
S
GR
GS
1 0 0 RC
N
162.211 363 M
200.789 363 L
200.789 219.983 L
162.211 219.983 L
cp
f
GR
GS
1 0 0 RC
N
379.211 363 M
417.789 363 L
417.789 152.467 L
379.211 152.467 L
cp
f
GR
GS
10.0 ML
0.5 LW
N
162.211 363 M
162.211 219.983 L
200.789 219.983 L
200.789 363 L
cp
S
GR
GS
10.0 ML
0.5 LW
N
379.211 363 M
379.211 152.467 L
417.789 152.467 L
417.789 363 L
cp
S
GR
GS
0.6 0.2 0 RC
N
210.433 363 M
249.011 363 L
249.011 266.861 L
210.433 266.861 L
cp
f
GR
GS
0.6 0.2 0 RC
N
427.433 363 M
466.011 363 L
466.011 222.564 L
427.433 222.564 L
cp
f
GR
GS
10.0 ML
0.5 LW
N
210.433 363 M
210.433 266.861 L
249.011 266.861 L
249.011 363 L
cp
S
GR
GS
10.0 ML
0.5 LW
N
427.433 363 M
427.433 222.564 L
466.011 222.564 L
466.011 363 L
cp
S
GR
GS
1 GC
N
74.5 131.5 M
74.5 30 L
325.5 30 L
325.5 131.5 L
cp
f
GR
GS
[1 0 0 1 111.5 44] CT
/Helvetica 20 F
GS
[1 0 0 1 0 0] CT
0 7.5 moveto 
1 -1 scale
(MLSS-Greedy) t 
GR
GR
GS
1 1 0 RC
N
78.5 53.35 M
78.5 34.65 L
108.5 34.65 L
108.5 53.35 L
cp
f
GR
GS
10.0 ML
0.5 LW
N
78.5 53.35 M
78.5 34.65 L
108.5 34.65 L
108.5 53.35 L
cp
S
GR
GS
[1 0 0 1 111.5 68.5] CT
/Helvetica 20 F
GS
[1 0 0 1 0 0] CT
0 7.5 moveto 
1 -1 scale
(SRS) t 
GR
GR
GS
0.208 0.165 0.525 RC
N
78.5 77.85 M
78.5 59.15 L
108.5 59.15 L
108.5 77.85 L
cp
f
GR
GS
10.0 ML
0.5 LW
N
78.5 77.85 M
78.5 59.15 L
108.5 59.15 L
108.5 77.85 L
cp
S
GR
GS
[1 0 0 1 111.5 93] CT
/Helvetica 20 F
GS
[1 0 0 1 0 0] CT
0 7.5 moveto 
1 -1 scale
(MLSS-Optimal) t 
GR
GR
GS
1 0 0 RC
N
78.5 102.35 M
78.5 83.65 L
108.5 83.65 L
108.5 102.35 L
cp
f
GR
GS
10.0 ML
0.5 LW
N
78.5 102.35 M
78.5 83.65 L
108.5 83.65 L
108.5 102.35 L
cp
S
GR
GS
[1 0 0 1 111.5 117.5] CT
/Helvetica 20 F
GS
[1 0 0 1 0 0] CT
0 7.5 moveto 
1 -1 scale
(MLSS-Greedy-Partition) t 
GR
GR
GS
0.6 0.2 0 RC
N
78.5 126.85 M
78.5 108.15 L
108.5 108.15 L
108.5 126.85 L
cp
f
GR
GS
10.0 ML
0.5 LW
N
78.5 126.85 M
78.5 108.15 L
108.5 108.15 L
108.5 126.85 L
cp
S
GR
GS
1 GC
10.0 ML
0.5 LW
N
74.5 131.5 M
74.5 30 L
325.5 30 L
325.5 131.5 L
cp
S
GR
%%Trailer
%%Pages: 1
%%EOF
