%!PS-Adobe-3.0 EPSF-3.0
%%Creator: (MATLAB, The Mathworks, Inc. Version 9.1.0.441655 \(R2016b\). Operating System: Mac OS X)
%%Title: /Users/junyang/workspace/DurPrediction/figs/queue-srs-mlss-efficiency.eps
%%CreationDate: 2020-06-07T18:39:23
%%Pages: (atend)
%%BoundingBox: 0 0 560 420
%%LanguageLevel: 3
%%EndComments
%%BeginProlog
%%BeginResource: procset (Apache XML Graphics Std ProcSet) 1.2 0
%%Version: 1.2 0
%%Copyright: (Copyright 2001-2003,2010 The Apache Software Foundation. License terms: http://www.apache.org/licenses/LICENSE-2.0)
/bd{bind def}bind def
/ld{load def}bd
/GR/grestore ld
/M/moveto ld
/LJ/setlinejoin ld
/C/curveto ld
/f/fill ld
/LW/setlinewidth ld
/GC/setgray ld
/t/show ld
/N/newpath ld
/CT/concat ld
/cp/closepath ld
/S/stroke ld
/L/lineto ld
/CC/setcmykcolor ld
/A/ashow ld
/GS/gsave ld
/RC/setrgbcolor ld
/RM/rmoveto ld
/ML/setmiterlimit ld
/re {4 2 roll M
1 index 0 rlineto
0 exch rlineto
neg 0 rlineto
cp } bd
/_ctm matrix def
/_tm matrix def
/BT { _ctm currentmatrix pop matrix _tm copy pop 0 0 moveto } bd
/ET { _ctm setmatrix } bd
/iTm { _ctm setmatrix _tm concat } bd
/Tm { _tm astore pop iTm 0 0 moveto } bd
/ux 0.0 def
/uy 0.0 def
/F {
  /Tp exch def
  /Tf exch def
  Tf findfont Tp scalefont setfont
  /cf Tf def  /cs Tp def
} bd
/ULS {currentpoint /uy exch def /ux exch def} bd
/ULE {
  /Tcx currentpoint pop def
  gsave
  newpath
  cf findfont cs scalefont dup
  /FontMatrix get 0 get /Ts exch def /FontInfo get dup
  /UnderlinePosition get Ts mul /To exch def
  /UnderlineThickness get Ts mul /Tt exch def
  ux uy To add moveto  Tcx uy To add lineto
  Tt setlinewidth stroke
  grestore
} bd
/OLE {
  /Tcx currentpoint pop def
  gsave
  newpath
  cf findfont cs scalefont dup
  /FontMatrix get 0 get /Ts exch def /FontInfo get dup
  /UnderlinePosition get Ts mul /To exch def
  /UnderlineThickness get Ts mul /Tt exch def
  ux uy To add cs add moveto Tcx uy To add cs add lineto
  Tt setlinewidth stroke
  grestore
} bd
/SOE {
  /Tcx currentpoint pop def
  gsave
  newpath
  cf findfont cs scalefont dup
  /FontMatrix get 0 get /Ts exch def /FontInfo get dup
  /UnderlinePosition get Ts mul /To exch def
  /UnderlineThickness get Ts mul /Tt exch def
  ux uy To add cs 10 mul 26 idiv add moveto Tcx uy To add cs 10 mul 26 idiv add lineto
  Tt setlinewidth stroke
  grestore
} bd
/QT {
/Y22 exch store
/X22 exch store
/Y21 exch store
/X21 exch store
currentpoint
/Y21 load 2 mul add 3 div exch
/X21 load 2 mul add 3 div exch
/X21 load 2 mul /X22 load add 3 div
/Y21 load 2 mul /Y22 load add 3 div
/X22 load /Y22 load curveto
} bd
/SSPD {
dup length /d exch dict def
{
/v exch def
/k exch def
currentpagedevice k known {
/cpdv currentpagedevice k get def
v cpdv ne {
/upd false def
/nullv v type /nulltype eq def
/nullcpdv cpdv type /nulltype eq def
nullv nullcpdv or
{
/upd true def
} {
/sametype v type cpdv type eq def
sametype {
v type /arraytype eq {
/vlen v length def
/cpdvlen cpdv length def
vlen cpdvlen eq {
0 1 vlen 1 sub {
/i exch def
/obj v i get def
/cpdobj cpdv i get def
obj cpdobj ne {
/upd true def
exit
} if
} for
} {
/upd true def
} ifelse
} {
v type /dicttype eq {
v {
/dv exch def
/dk exch def
/cpddv cpdv dk get def
dv cpddv ne {
/upd true def
exit
} if
} forall
} {
/upd true def
} ifelse
} ifelse
} if
} ifelse
upd true eq {
d k v put
} if
} if
} if
} forall
d length 0 gt {
d setpagedevice
} if
} bd
/RE { % /NewFontName [NewEncodingArray] /FontName RE -
  findfont dup length dict begin
  {
    1 index /FID ne
    {def} {pop pop} ifelse
  } forall
  /Encoding exch def
  /FontName 1 index def
  currentdict definefont pop
  end
} bind def
%%EndResource
%%BeginResource: procset (Apache XML Graphics EPS ProcSet) 1.0 0
%%Version: 1.0 0
%%Copyright: (Copyright 2002-2003 The Apache Software Foundation. License terms: http://www.apache.org/licenses/LICENSE-2.0)
/BeginEPSF { %def
/b4_Inc_state save def         % Save state for cleanup
/dict_count countdictstack def % Count objects on dict stack
/op_count count 1 sub def      % Count objects on operand stack
userdict begin                 % Push userdict on dict stack
/showpage { } def              % Redefine showpage, { } = null proc
0 setgray 0 setlinecap         % Prepare graphics state
1 setlinewidth 0 setlinejoin
10 setmiterlimit [ ] 0 setdash newpath
/languagelevel where           % If level not equal to 1 then
{pop languagelevel             % set strokeadjust and
1 ne                           % overprint to their defaults.
{false setstrokeadjust false setoverprint
} if
} if
} bd
/EndEPSF { %def
count op_count sub {pop} repeat            % Clean up stacks
countdictstack dict_count sub {end} repeat
b4_Inc_state restore
} bd
%%EndResource
%FOPBeginFontDict
%%IncludeResource: font Courier-Bold
%%IncludeResource: font Helvetica
%%IncludeResource: font Courier-BoldOblique
%%IncludeResource: font Courier-Oblique
%%IncludeResource: font Times-Roman
%%IncludeResource: font Helvetica-BoldOblique
%%IncludeResource: font Helvetica-Bold
%%IncludeResource: font Helvetica-Oblique
%%IncludeResource: font Times-BoldItalic
%%IncludeResource: font Courier
%%IncludeResource: font Times-Italic
%%IncludeResource: font Times-Bold
%%IncludeResource: font Symbol
%%IncludeResource: font ZapfDingbats
%FOPEndFontDict
%%BeginResource: encoding WinAnsiEncoding
/WinAnsiEncoding [
/.notdef /.notdef /.notdef /.notdef /.notdef
/.notdef /.notdef /.notdef /.notdef /.notdef
/.notdef /.notdef /.notdef /.notdef /.notdef
/.notdef /.notdef /.notdef /.notdef /.notdef
/.notdef /.notdef /.notdef /.notdef /.notdef
/.notdef /.notdef /.notdef /.notdef /.notdef
/.notdef /.notdef /space /exclam /quotedbl
/numbersign /dollar /percent /ampersand /quotesingle
/parenleft /parenright /asterisk /plus /comma
/hyphen /period /slash /zero /one
/two /three /four /five /six
/seven /eight /nine /colon /semicolon
/less /equal /greater /question /at
/A /B /C /D /E
/F /G /H /I /J
/K /L /M /N /O
/P /Q /R /S /T
/U /V /W /X /Y
/Z /bracketleft /backslash /bracketright /asciicircum
/underscore /quoteleft /a /b /c
/d /e /f /g /h
/i /j /k /l /m
/n /o /p /q /r
/s /t /u /v /w
/x /y /z /braceleft /bar
/braceright /asciitilde /bullet /Euro /bullet
/quotesinglbase /florin /quotedblbase /ellipsis /dagger
/daggerdbl /circumflex /perthousand /Scaron /guilsinglleft
/OE /bullet /Zcaron /bullet /bullet
/quoteleft /quoteright /quotedblleft /quotedblright /bullet
/endash /emdash /asciitilde /trademark /scaron
/guilsinglright /oe /bullet /zcaron /Ydieresis
/space /exclamdown /cent /sterling /currency
/yen /brokenbar /section /dieresis /copyright
/ordfeminine /guillemotleft /logicalnot /sfthyphen /registered
/macron /degree /plusminus /twosuperior /threesuperior
/acute /mu /paragraph /middot /cedilla
/onesuperior /ordmasculine /guillemotright /onequarter /onehalf
/threequarters /questiondown /Agrave /Aacute /Acircumflex
/Atilde /Adieresis /Aring /AE /Ccedilla
/Egrave /Eacute /Ecircumflex /Edieresis /Igrave
/Iacute /Icircumflex /Idieresis /Eth /Ntilde
/Ograve /Oacute /Ocircumflex /Otilde /Odieresis
/multiply /Oslash /Ugrave /Uacute /Ucircumflex
/Udieresis /Yacute /Thorn /germandbls /agrave
/aacute /acircumflex /atilde /adieresis /aring
/ae /ccedilla /egrave /eacute /ecircumflex
/edieresis /igrave /iacute /icircumflex /idieresis
/eth /ntilde /ograve /oacute /ocircumflex
/otilde /odieresis /divide /oslash /ugrave
/uacute /ucircumflex /udieresis /yacute /thorn
/ydieresis
] def
%%EndResource
%FOPBeginFontReencode
/Courier-Bold findfont
dup length dict begin
  {1 index /FID ne {def} {pop pop} ifelse} forall
  /Encoding WinAnsiEncoding def
  currentdict
end
/Courier-Bold exch definefont pop
/Helvetica findfont
dup length dict begin
  {1 index /FID ne {def} {pop pop} ifelse} forall
  /Encoding WinAnsiEncoding def
  currentdict
end
/Helvetica exch definefont pop
/Courier-BoldOblique findfont
dup length dict begin
  {1 index /FID ne {def} {pop pop} ifelse} forall
  /Encoding WinAnsiEncoding def
  currentdict
end
/Courier-BoldOblique exch definefont pop
/Courier-Oblique findfont
dup length dict begin
  {1 index /FID ne {def} {pop pop} ifelse} forall
  /Encoding WinAnsiEncoding def
  currentdict
end
/Courier-Oblique exch definefont pop
/Times-Roman findfont
dup length dict begin
  {1 index /FID ne {def} {pop pop} ifelse} forall
  /Encoding WinAnsiEncoding def
  currentdict
end
/Times-Roman exch definefont pop
/Helvetica-BoldOblique findfont
dup length dict begin
  {1 index /FID ne {def} {pop pop} ifelse} forall
  /Encoding WinAnsiEncoding def
  currentdict
end
/Helvetica-BoldOblique exch definefont pop
/Helvetica-Bold findfont
dup length dict begin
  {1 index /FID ne {def} {pop pop} ifelse} forall
  /Encoding WinAnsiEncoding def
  currentdict
end
/Helvetica-Bold exch definefont pop
/Helvetica-Oblique findfont
dup length dict begin
  {1 index /FID ne {def} {pop pop} ifelse} forall
  /Encoding WinAnsiEncoding def
  currentdict
end
/Helvetica-Oblique exch definefont pop
/Times-BoldItalic findfont
dup length dict begin
  {1 index /FID ne {def} {pop pop} ifelse} forall
  /Encoding WinAnsiEncoding def
  currentdict
end
/Times-BoldItalic exch definefont pop
/Courier findfont
dup length dict begin
  {1 index /FID ne {def} {pop pop} ifelse} forall
  /Encoding WinAnsiEncoding def
  currentdict
end
/Courier exch definefont pop
/Times-Italic findfont
dup length dict begin
  {1 index /FID ne {def} {pop pop} ifelse} forall
  /Encoding WinAnsiEncoding def
  currentdict
end
/Times-Italic exch definefont pop
/Times-Bold findfont
dup length dict begin
  {1 index /FID ne {def} {pop pop} ifelse} forall
  /Encoding WinAnsiEncoding def
  currentdict
end
/Times-Bold exch definefont pop
%FOPEndFontReencode
%%EndProlog
%%Page: 1 1
%%PageBoundingBox: 0 0 560 420
%%BeginPageSetup
[1 0 0 -1 0 420] CT
%%EndPageSetup
GS
1 GC
N
0 0 560 420 re
f
GR
GS
1 GC
N
0 0 560 420 re
f
GR
GS
1 GC
N
73 373.5 M
507 373.5 L
507 31.5 L
73 31.5 L
cp
f
GR
GS
0.149 GC
1 LJ
0.5 LW
N
73 373.5 M
507 373.5 L
S
GR
GS
0.208 0.165 0.525 RC
N
99.35 373.5 M
124.15 373.5 L
124.15 252.498 L
99.35 252.498 L
cp
f
GR
GS
0.208 0.165 0.525 RC
N
207.85 373.5 M
232.65 373.5 L
232.65 291.261 L
207.85 291.261 L
cp
f
GR
GS
0.208 0.165 0.525 RC
N
316.35 373.5 M
341.15 373.5 L
341.15 161.528 L
316.35 161.528 L
cp
f
GR
GS
0.208 0.165 0.525 RC
N
424.85 373.5 M
449.65 373.5 L
449.65 91.48 L
424.85 91.48 L
cp
f
GR
GS
10.0 ML
0.5 LW
N
99.35 373.5 M
99.35 252.498 L
124.15 252.498 L
124.15 373.5 L
cp
S
GR
GS
10.0 ML
0.5 LW
N
207.85 373.5 M
207.85 291.261 L
232.65 291.261 L
232.65 373.5 L
cp
S
GR
GS
10.0 ML
0.5 LW
N
316.35 373.5 M
316.35 161.528 L
341.15 161.528 L
341.15 373.5 L
cp
S
GR
GS
10.0 ML
0.5 LW
N
424.85 373.5 M
424.85 91.48 L
449.65 91.48 L
449.65 373.5 L
cp
S
GR
GS
1 0 0 RC
N
130.35 373.5 M
155.15 373.5 L
155.15 265.289 L
130.35 265.289 L
cp
f
GR
GS
1 0 0 RC
N
238.85 373.5 M
263.65 373.5 L
263.65 317.975 L
238.85 317.975 L
cp
f
GR
GS
1 0 0 RC
N
347.35 373.5 M
372.15 373.5 L
372.15 237.927 L
347.35 237.927 L
cp
f
GR
GS
1 0 0 RC
N
455.85 373.5 M
480.65 373.5 L
480.65 174.307 L
455.85 174.307 L
cp
f
GR
GS
10.0 ML
0.5 LW
N
130.35 373.5 M
130.35 265.289 L
155.15 265.289 L
155.15 373.5 L
cp
S
GR
GS
10.0 ML
0.5 LW
N
238.85 373.5 M
238.85 317.975 L
263.65 317.975 L
263.65 373.5 L
cp
S
GR
GS
10.0 ML
0.5 LW
N
347.35 373.5 M
347.35 237.927 L
372.15 237.927 L
372.15 373.5 L
cp
S
GR
GS
10.0 ML
0.5 LW
N
455.85 373.5 M
455.85 174.307 L
480.65 174.307 L
480.65 373.5 L
cp
S
GR
GS
1 LJ
2 LW
N
111.75 252.498 M
111.75 253.364 L
S
GR
GS
1 LJ
2 LW
N
220.25 291.261 M
220.25 295.259 L
S
GR
GS
1 LJ
2 LW
N
328.75 161.528 M
328.75 169.095 L
S
GR
GS
1 LJ
2 LW
N
437.25 91.48 M
437.25 94.025 L
S
GR
GS
1 LJ
2 LW
N
111.75 252.498 M
111.75 251.653 L
S
GR
GS
1 LJ
2 LW
N
220.25 291.261 M
220.25 287.651 L
S
GR
GS
1 LJ
2 LW
N
328.75 161.528 M
328.75 155.245 L
S
GR
GS
1 LJ
2 LW
N
437.25 91.48 M
437.25 89.099 L
S
GR
GS
[1 0 0 1 111.75 253.36362] CT
N
-3 0 M
3 0 L
f
GR
GS
[1 0 0 1 111.75 253.36362] CT
10.0 ML
2 LW
N
-3 0 M
3 0 L
S
GR
GS
[1 0 0 1 220.25 295.25867] CT
N
/f1394637256{-3 0 M
3 0 L}def
f1394637256
f
GR
GS
[1 0 0 1 220.25 295.25867] CT
10.0 ML
2 LW
N
-3 0 M
3 0 L
S
GR
GS
[1 0 0 1 328.75 169.09503] CT
N
f1394637256
f
GR
GS
[1 0 0 1 328.75 169.09503] CT
10.0 ML
2 LW
N
-3 0 M
3 0 L
S
GR
GS
[1 0 0 1 437.25 94.02496] CT
N
f1394637256
f
GR
GS
[1 0 0 1 437.25 94.02496] CT
10.0 ML
2 LW
N
-3 0 M
3 0 L
S
GR
GS
[1 0 0 1 111.75 251.65265] CT
N
f1394637256
f
GR
GS
[1 0 0 1 111.75 251.65265] CT
10.0 ML
2 LW
N
-3 0 M
3 0 L
S
GR
GS
[1 0 0 1 220.25 287.65134] CT
N
f1394637256
f
GR
GS
[1 0 0 1 220.25 287.65134] CT
10.0 ML
2 LW
N
-3 0 M
3 0 L
S
GR
GS
[1 0 0 1 328.75 155.24522] CT
N
f1394637256
f
GR
GS
[1 0 0 1 328.75 155.24522] CT
10.0 ML
2 LW
N
-3 0 M
3 0 L
S
GR
GS
[1 0 0 1 437.25 89.09899] CT
N
f1394637256
f
GR
GS
[1 0 0 1 437.25 89.09899] CT
10.0 ML
2 LW
N
-3 0 M
3 0 L
S
GR
GS
1 LJ
2 LW
N
142.75 265.289 M
142.75 266.525 L
S
GR
GS
1 LJ
2 LW
N
251.25 317.975 M
251.25 324.086 L
S
GR
GS
1 LJ
2 LW
N
359.75 237.927 M
359.75 244.555 L
S
GR
GS
1 LJ
2 LW
N
468.25 174.307 M
468.25 179.287 L
S
GR
GS
1 LJ
2 LW
N
142.75 265.289 M
142.75 264.092 L
S
GR
GS
1 LJ
2 LW
N
251.25 317.975 M
251.25 312.729 L
S
GR
GS
1 LJ
2 LW
N
359.75 237.927 M
359.75 232.305 L
S
GR
GS
1 LJ
2 LW
N
468.25 174.307 M
468.25 169.916 L
S
GR
GS
[1 0 0 1 142.75 266.52478] CT
N
f1394637256
f
GR
GS
[1 0 0 1 142.75 266.52478] CT
10.0 ML
2 LW
N
-3 0 M
3 0 L
S
GR
GS
[1 0 0 1 251.25 324.08606] CT
N
f1394637256
f
GR
GS
[1 0 0 1 251.25 324.08606] CT
10.0 ML
2 LW
N
-3 0 M
3 0 L
S
GR
GS
[1 0 0 1 359.75 244.55544] CT
N
f1394637256
f
GR
GS
[1 0 0 1 359.75 244.55544] CT
10.0 ML
2 LW
N
-3 0 M
3 0 L
S
GR
GS
[1 0 0 1 468.25 179.28743] CT
N
f1394637256
f
GR
GS
[1 0 0 1 468.25 179.28743] CT
10.0 ML
2 LW
N
-3 0 M
3 0 L
S
GR
GS
[1 0 0 1 142.75 264.09213] CT
N
f1394637256
f
GR
GS
[1 0 0 1 142.75 264.09213] CT
10.0 ML
2 LW
N
-3 0 M
3 0 L
S
GR
GS
[1 0 0 1 251.25 312.72876] CT
N
f1394637256
f
GR
GS
[1 0 0 1 251.25 312.72876] CT
10.0 ML
2 LW
N
-3 0 M
3 0 L
S
GR
GS
[1 0 0 1 359.75 232.30472] CT
N
f1394637256
f
GR
GS
[1 0 0 1 359.75 232.30472] CT
10.0 ML
2 LW
N
-3 0 M
3 0 L
S
GR
GS
[1 0 0 1 468.25 169.91573] CT
N
f1394637256
f
GR
GS
[1 0 0 1 468.25 169.91573] CT
10.0 ML
2 LW
N
-3 0 M
3 0 L
S
GR
GS
0.149 GC
2 setlinecap
1 LJ
0.5 LW
N
73 373.5 M
507 373.5 L
S
GR
GS
0.149 GC
2 setlinecap
1 LJ
0.5 LW
N
73 31.5 M
507 31.5 L
S
GR
GS
0.149 GC
2 setlinecap
1 LJ
0.5 LW
N
127.25 373.5 M
127.25 369.16 L
S
GR
GS
0.149 GC
2 setlinecap
1 LJ
0.5 LW
N
235.75 373.5 M
235.75 369.16 L
S
GR
GS
0.149 GC
2 setlinecap
1 LJ
0.5 LW
N
344.25 373.5 M
344.25 369.16 L
S
GR
GS
0.149 GC
2 setlinecap
1 LJ
0.5 LW
N
452.75 373.5 M
452.75 369.16 L
S
GR
GS
0.149 GC
2 setlinecap
1 LJ
0.5 LW
N
127.25 31.5 M
127.25 35.84 L
S
GR
GS
0.149 GC
2 setlinecap
1 LJ
0.5 LW
N
235.75 31.5 M
235.75 35.84 L
S
GR
GS
0.149 GC
2 setlinecap
1 LJ
0.5 LW
N
344.25 31.5 M
344.25 35.84 L
S
GR
GS
0.149 GC
2 setlinecap
1 LJ
0.5 LW
N
452.75 31.5 M
452.75 35.84 L
S
GR
GS
[1 0 0 1 127.25 378.70001] CT
0.149 GC
/Helvetica 16 F
GS
[1 0 0 1 0 0] CT
-29.5 16 moveto 
1 -1 scale
(Medium) t 
GR
GR
GS
[1 0 0 1 235.75 378.70001] CT
0.149 GC
/Helvetica 16 F
GS
[1 0 0 1 0 0] CT
-20 16 moveto 
1 -1 scale
(Small) t 
GR
GR
GS
[1 0 0 1 344.25 378.70001] CT
0.149 GC
/Helvetica 16 F
GS
[1 0 0 1 0 0] CT
-15 16 moveto 
1 -1 scale
(Tiny) t 
GR
GR
GS
[1 0 0 1 452.75 378.70001] CT
0.149 GC
/Helvetica 16 F
GS
[1 0 0 1 0 0] CT
-17 16 moveto 
1 -1 scale
(Rare) t 
GR
GR
GS
[1 0 0 1 290.00021 399.20001] CT
0.149 GC
/Helvetica 17.6 F
GS
[1 0 0 1 0 0] CT
-43 18 moveto 
1 -1 scale
(query type) t 
GR
GR
GS
0.149 GC
2 setlinecap
1 LJ
0.5 LW
N
73 373.5 M
73 31.5 L
S
GR
GS
0.149 GC
2 setlinecap
1 LJ
0.5 LW
N
507 373.5 M
507 31.5 L
S
GR
GS
0.149 GC
2 setlinecap
1 LJ
0.5 LW
N
73 373.5 M
77.34 373.5 L
S
GR
GS
0.149 GC
2 setlinecap
1 LJ
0.5 LW
N
73 288 M
77.34 288 L
S
GR
GS
0.149 GC
2 setlinecap
1 LJ
0.5 LW
N
73 202.5 M
77.34 202.5 L
S
GR
GS
0.149 GC
2 setlinecap
1 LJ
0.5 LW
N
73 117 M
77.34 117 L
S
GR
GS
0.149 GC
2 setlinecap
1 LJ
0.5 LW
N
73 31.5 M
77.34 31.5 L
S
GR
GS
0.149 GC
2 setlinecap
1 LJ
0.5 LW
N
507 373.5 M
502.66 373.5 L
S
GR
GS
0.149 GC
2 setlinecap
1 LJ
0.5 LW
N
507 288 M
502.66 288 L
S
GR
GS
0.149 GC
2 setlinecap
1 LJ
0.5 LW
N
507 202.5 M
502.66 202.5 L
S
GR
GS
0.149 GC
2 setlinecap
1 LJ
0.5 LW
N
507 117 M
502.66 117 L
S
GR
GS
0.149 GC
2 setlinecap
1 LJ
0.5 LW
N
507 31.5 M
502.66 31.5 L
S
GR
GS
0.149 GC
2 setlinecap
1 LJ
0.5 LW
N
73 373.5 M
75.17 373.5 L
S
GR
GS
0.149 GC
2 setlinecap
1 LJ
0.5 LW
N
73 347.762 M
75.17 347.762 L
S
GR
GS
0.149 GC
2 setlinecap
1 LJ
0.5 LW
N
73 332.706 M
75.17 332.706 L
S
GR
GS
0.149 GC
2 setlinecap
1 LJ
0.5 LW
N
73 322.024 M
75.17 322.024 L
S
GR
GS
0.149 GC
2 setlinecap
1 LJ
0.5 LW
N
73 313.738 M
75.17 313.738 L
S
GR
GS
0.149 GC
2 setlinecap
1 LJ
0.5 LW
N
73 306.968 M
75.17 306.968 L
S
GR
GS
0.149 GC
2 setlinecap
1 LJ
0.5 LW
N
73 301.244 M
75.17 301.244 L
S
GR
GS
0.149 GC
2 setlinecap
1 LJ
0.5 LW
N
73 296.286 M
75.17 296.286 L
S
GR
GS
0.149 GC
2 setlinecap
1 LJ
0.5 LW
N
73 291.912 M
75.17 291.912 L
S
GR
GS
0.149 GC
2 setlinecap
1 LJ
0.5 LW
N
73 288 M
75.17 288 L
S
GR
GS
0.149 GC
2 setlinecap
1 LJ
0.5 LW
N
73 262.262 M
75.17 262.262 L
S
GR
GS
0.149 GC
2 setlinecap
1 LJ
0.5 LW
N
73 247.206 M
75.17 247.206 L
S
GR
GS
0.149 GC
2 setlinecap
1 LJ
0.5 LW
N
73 236.524 M
75.17 236.524 L
S
GR
GS
0.149 GC
2 setlinecap
1 LJ
0.5 LW
N
73 228.238 M
75.17 228.238 L
S
GR
GS
0.149 GC
2 setlinecap
1 LJ
0.5 LW
N
73 221.468 M
75.17 221.468 L
S
GR
GS
0.149 GC
2 setlinecap
1 LJ
0.5 LW
N
73 215.744 M
75.17 215.744 L
S
GR
GS
0.149 GC
2 setlinecap
1 LJ
0.5 LW
N
73 210.786 M
75.17 210.786 L
S
GR
GS
0.149 GC
2 setlinecap
1 LJ
0.5 LW
N
73 206.412 M
75.17 206.412 L
S
GR
GS
0.149 GC
2 setlinecap
1 LJ
0.5 LW
N
73 202.5 M
75.17 202.5 L
S
GR
GS
0.149 GC
2 setlinecap
1 LJ
0.5 LW
N
73 176.762 M
75.17 176.762 L
S
GR
GS
0.149 GC
2 setlinecap
1 LJ
0.5 LW
N
73 161.706 M
75.17 161.706 L
S
GR
GS
0.149 GC
2 setlinecap
1 LJ
0.5 LW
N
73 151.024 M
75.17 151.024 L
S
GR
GS
0.149 GC
2 setlinecap
1 LJ
0.5 LW
N
73 142.738 M
75.17 142.738 L
S
GR
GS
0.149 GC
2 setlinecap
1 LJ
0.5 LW
N
73 135.968 M
75.17 135.968 L
S
GR
GS
0.149 GC
2 setlinecap
1 LJ
0.5 LW
N
73 130.244 M
75.17 130.244 L
S
GR
GS
0.149 GC
2 setlinecap
1 LJ
0.5 LW
N
73 125.286 M
75.17 125.286 L
S
GR
GS
0.149 GC
2 setlinecap
1 LJ
0.5 LW
N
73 120.912 M
75.17 120.912 L
S
GR
GS
0.149 GC
2 setlinecap
1 LJ
0.5 LW
N
73 117 M
75.17 117 L
S
GR
GS
0.149 GC
2 setlinecap
1 LJ
0.5 LW
N
73 91.262 M
75.17 91.262 L
S
GR
GS
0.149 GC
2 setlinecap
1 LJ
0.5 LW
N
73 76.206 M
75.17 76.206 L
S
GR
GS
0.149 GC
2 setlinecap
1 LJ
0.5 LW
N
73 65.524 M
75.17 65.524 L
S
GR
GS
0.149 GC
2 setlinecap
1 LJ
0.5 LW
N
73 57.238 M
75.17 57.238 L
S
GR
GS
0.149 GC
2 setlinecap
1 LJ
0.5 LW
N
73 50.468 M
75.17 50.468 L
S
GR
GS
0.149 GC
2 setlinecap
1 LJ
0.5 LW
N
73 44.744 M
75.17 44.744 L
S
GR
GS
0.149 GC
2 setlinecap
1 LJ
0.5 LW
N
73 39.786 M
75.17 39.786 L
S
GR
GS
0.149 GC
2 setlinecap
1 LJ
0.5 LW
N
73 35.412 M
75.17 35.412 L
S
GR
GS
0.149 GC
2 setlinecap
1 LJ
0.5 LW
N
73 31.5 M
75.17 31.5 L
S
GR
GS
0.149 GC
2 setlinecap
1 LJ
0.5 LW
N
507 373.5 M
504.83 373.5 L
S
GR
GS
0.149 GC
2 setlinecap
1 LJ
0.5 LW
N
507 347.762 M
504.83 347.762 L
S
GR
GS
0.149 GC
2 setlinecap
1 LJ
0.5 LW
N
507 332.706 M
504.83 332.706 L
S
GR
GS
0.149 GC
2 setlinecap
1 LJ
0.5 LW
N
507 322.024 M
504.83 322.024 L
S
GR
GS
0.149 GC
2 setlinecap
1 LJ
0.5 LW
N
507 313.738 M
504.83 313.738 L
S
GR
GS
0.149 GC
2 setlinecap
1 LJ
0.5 LW
N
507 306.968 M
504.83 306.968 L
S
GR
GS
0.149 GC
2 setlinecap
1 LJ
0.5 LW
N
507 301.244 M
504.83 301.244 L
S
GR
GS
0.149 GC
2 setlinecap
1 LJ
0.5 LW
N
507 296.286 M
504.83 296.286 L
S
GR
GS
0.149 GC
2 setlinecap
1 LJ
0.5 LW
N
507 291.912 M
504.83 291.912 L
S
GR
GS
0.149 GC
2 setlinecap
1 LJ
0.5 LW
N
507 288 M
504.83 288 L
S
GR
GS
0.149 GC
2 setlinecap
1 LJ
0.5 LW
N
507 262.262 M
504.83 262.262 L
S
GR
GS
0.149 GC
2 setlinecap
1 LJ
0.5 LW
N
507 247.206 M
504.83 247.206 L
S
GR
GS
0.149 GC
2 setlinecap
1 LJ
0.5 LW
N
507 236.524 M
504.83 236.524 L
S
GR
GS
0.149 GC
2 setlinecap
1 LJ
0.5 LW
N
507 228.238 M
504.83 228.238 L
S
GR
GS
0.149 GC
2 setlinecap
1 LJ
0.5 LW
N
507 221.468 M
504.83 221.468 L
S
GR
GS
0.149 GC
2 setlinecap
1 LJ
0.5 LW
N
507 215.744 M
504.83 215.744 L
S
GR
GS
0.149 GC
2 setlinecap
1 LJ
0.5 LW
N
507 210.786 M
504.83 210.786 L
S
GR
GS
0.149 GC
2 setlinecap
1 LJ
0.5 LW
N
507 206.412 M
504.83 206.412 L
S
GR
GS
0.149 GC
2 setlinecap
1 LJ
0.5 LW
N
507 202.5 M
504.83 202.5 L
S
GR
GS
0.149 GC
2 setlinecap
1 LJ
0.5 LW
N
507 176.762 M
504.83 176.762 L
S
GR
GS
0.149 GC
2 setlinecap
1 LJ
0.5 LW
N
507 161.706 M
504.83 161.706 L
S
GR
GS
0.149 GC
2 setlinecap
1 LJ
0.5 LW
N
507 151.024 M
504.83 151.024 L
S
GR
GS
0.149 GC
2 setlinecap
1 LJ
0.5 LW
N
507 142.738 M
504.83 142.738 L
S
GR
GS
0.149 GC
2 setlinecap
1 LJ
0.5 LW
N
507 135.968 M
504.83 135.968 L
S
GR
GS
0.149 GC
2 setlinecap
1 LJ
0.5 LW
N
507 130.244 M
504.83 130.244 L
S
GR
GS
0.149 GC
2 setlinecap
1 LJ
0.5 LW
N
507 125.286 M
504.83 125.286 L
S
GR
GS
0.149 GC
2 setlinecap
1 LJ
0.5 LW
N
507 120.912 M
504.83 120.912 L
S
GR
GS
0.149 GC
2 setlinecap
1 LJ
0.5 LW
N
507 117 M
504.83 117 L
S
GR
GS
0.149 GC
2 setlinecap
1 LJ
0.5 LW
N
507 91.262 M
504.83 91.262 L
S
GR
GS
0.149 GC
2 setlinecap
1 LJ
0.5 LW
N
507 76.206 M
504.83 76.206 L
S
GR
GS
0.149 GC
2 setlinecap
1 LJ
0.5 LW
N
507 65.524 M
504.83 65.524 L
S
GR
GS
0.149 GC
2 setlinecap
1 LJ
0.5 LW
N
507 57.238 M
504.83 57.238 L
S
GR
GS
0.149 GC
2 setlinecap
1 LJ
0.5 LW
N
507 50.468 M
504.83 50.468 L
S
GR
GS
0.149 GC
2 setlinecap
1 LJ
0.5 LW
N
507 44.744 M
504.83 44.744 L
S
GR
GS
0.149 GC
2 setlinecap
1 LJ
0.5 LW
N
507 39.786 M
504.83 39.786 L
S
GR
GS
0.149 GC
2 setlinecap
1 LJ
0.5 LW
N
507 35.412 M
504.83 35.412 L
S
GR
GS
0.149 GC
2 setlinecap
1 LJ
0.5 LW
N
507 31.5 M
504.83 31.5 L
S
GR
GS
[1 0 0 1 42 383] CT
0.149 GC
/Helvetica 16 F
GS
[1 0 0 1 0 0] CT
0 0 moveto 
1 -1 scale
(10) t 
GR
GR
GS
[1 0 0 1 60 375] CT
0.149 GC
/Helvetica 12.8 F
GS
[1 0 0 1 0 0] CT
0 0 moveto 
1 -1 scale
(5) t 
GR
GR
GS
[1 0 0 1 42 297] CT
0.149 GC
/Helvetica 16 F
GS
[1 0 0 1 0 0] CT
0 0 moveto 
1 -1 scale
(10) t 
GR
GR
GS
[1 0 0 1 60 289] CT
0.149 GC
/Helvetica 12.8 F
GS
[1 0 0 1 0 0] CT
0 0 moveto 
1 -1 scale
(6) t 
GR
GR
GS
[1 0 0 1 42 212] CT
0.149 GC
/Helvetica 16 F
GS
[1 0 0 1 0 0] CT
0 0 moveto 
1 -1 scale
(10) t 
GR
GR
GS
[1 0 0 1 60 204] CT
0.149 GC
/Helvetica 12.8 F
GS
[1 0 0 1 0 0] CT
0 0 moveto 
1 -1 scale
(7) t 
GR
GR
GS
[1 0 0 1 42 126] CT
0.149 GC
/Helvetica 16 F
GS
[1 0 0 1 0 0] CT
0 0 moveto 
1 -1 scale
(10) t 
GR
GR
GS
[1 0 0 1 60 118] CT
0.149 GC
/Helvetica 12.8 F
GS
[1 0 0 1 0 0] CT
0 0 moveto 
1 -1 scale
(8) t 
GR
GR
GS
[1 0 0 1 42 41] CT
0.149 GC
/Helvetica 16 F
GS
[1 0 0 1 0 0] CT
0 0 moveto 
1 -1 scale
(10) t 
GR
GR
GS
[1 0 0 1 60 33] CT
0.149 GC
/Helvetica 12.8 F
GS
[1 0 0 1 0 0] CT
0 0 moveto 
1 -1 scale
(9) t 
GR
GR
GS
[0 -1 1 0 39.3 202.49983] CT
0.149 GC
/Helvetica 17.6 F
GS
[1 0 0 1 0 0] CT
-129.5 -4 moveto 
1 -1 scale
(total number of simulation steps) t 
GR
GR
GS
1 GC
N
/f-627537966{78.5 95.5 M
78.5 43 L
221 43 L
221 95.5 L
cp}def
f-627537966
f
GR
GS
[1 0 0 1 138.99234 57] CT
/Helvetica 20 F
GS
[1 0 0 1 0 0] CT
0 7.5 moveto 
1 -1 scale
(SRS) t 
GR
GR
GS
0.208 0.165 0.525 RC
N
/f-333622080{105.969 66.35 M
105.969 47.65 L
135.99 47.65 L
135.99 66.35 L
cp}def
f-333622080
f
GR
GS
10.0 ML
0.5 LW
N
105.969 66.35 M
105.969 47.65 L
135.99 47.65 L
135.99 66.35 L
cp
S
GR
GS
[1 0 0 1 138.99234 81.5] CT
/Helvetica 20 F
GS
[1 0 0 1 0 0] CT
0 7.5 moveto 
1 -1 scale
(MLSS) t 
GR
GR
GS
1 0 0 RC
N
/f-609813672{105.969 90.85 M
105.969 72.15 L
135.99 72.15 L
135.99 90.85 L
cp}def
f-609813672
f
GR
GS
10.0 ML
0.5 LW
N
105.969 90.85 M
105.969 72.15 L
135.99 72.15 L
135.99 90.85 L
cp
S
GR
GS
1 GC
10.0 ML
0.5 LW
N
78.5 95.5 M
78.5 43 L
221 43 L
221 95.5 L
cp
S
GR
%%Trailer
%%Pages: 1
%%EOF
