%!PS-Adobe-3.0 EPSF-3.0
%%Creator: (MATLAB, The Mathworks, Inc. Version 9.8.0.1380330 \(R2020a\) Update 2. Operating System: Mac OS X)
%%Title: /Users/junyang/workspace/DurPrediction/figs/queue-greedy-v2.eps
%%CreationDate: 2020-06-11T23:27:32
%%Pages: (atend)
%%BoundingBox:     0     0   560   420
%%LanguageLevel: 3
%%EndComments
%%BeginProlog
%%BeginResource: procset (Apache XML Graphics Std ProcSet) 1.2 0
%%Version: 1.2 0
%%Copyright: (Copyright 2001-2003,2010 The Apache Software Foundation. License terms: http://www.apache.org/licenses/LICENSE-2.0)
/bd{bind def}bind def
/ld{load def}bd
/GR/grestore ld
/GS/gsave ld
/RM/rmoveto ld
/C/curveto ld
/t/show ld
/L/lineto ld
/ML/setmiterlimit ld
/CT/concat ld
/f/fill ld
/N/newpath ld
/S/stroke ld
/CC/setcmykcolor ld
/A/ashow ld
/cp/closepath ld
/RC/setrgbcolor ld
/LJ/setlinejoin ld
/GC/setgray ld
/LW/setlinewidth ld
/M/moveto ld
/re {4 2 roll M
1 index 0 rlineto
0 exch rlineto
neg 0 rlineto
cp } bd
/_ctm matrix def
/_tm matrix def
/BT { _ctm currentmatrix pop matrix _tm copy pop 0 0 moveto } bd
/ET { _ctm setmatrix } bd
/iTm { _ctm setmatrix _tm concat } bd
/Tm { _tm astore pop iTm 0 0 moveto } bd
/ux 0.0 def
/uy 0.0 def
/F {
  /Tp exch def
  /Tf exch def
  Tf findfont Tp scalefont setfont
  /cf Tf def  /cs Tp def
} bd
/ULS {currentpoint /uy exch def /ux exch def} bd
/ULE {
  /Tcx currentpoint pop def
  gsave
  newpath
  cf findfont cs scalefont dup
  /FontMatrix get 0 get /Ts exch def /FontInfo get dup
  /UnderlinePosition get Ts mul /To exch def
  /UnderlineThickness get Ts mul /Tt exch def
  ux uy To add moveto  Tcx uy To add lineto
  Tt setlinewidth stroke
  grestore
} bd
/OLE {
  /Tcx currentpoint pop def
  gsave
  newpath
  cf findfont cs scalefont dup
  /FontMatrix get 0 get /Ts exch def /FontInfo get dup
  /UnderlinePosition get Ts mul /To exch def
  /UnderlineThickness get Ts mul /Tt exch def
  ux uy To add cs add moveto Tcx uy To add cs add lineto
  Tt setlinewidth stroke
  grestore
} bd
/SOE {
  /Tcx currentpoint pop def
  gsave
  newpath
  cf findfont cs scalefont dup
  /FontMatrix get 0 get /Ts exch def /FontInfo get dup
  /UnderlinePosition get Ts mul /To exch def
  /UnderlineThickness get Ts mul /Tt exch def
  ux uy To add cs 10 mul 26 idiv add moveto Tcx uy To add cs 10 mul 26 idiv add lineto
  Tt setlinewidth stroke
  grestore
} bd
/QT {
/Y22 exch store
/X22 exch store
/Y21 exch store
/X21 exch store
currentpoint
/Y21 load 2 mul add 3 div exch
/X21 load 2 mul add 3 div exch
/X21 load 2 mul /X22 load add 3 div
/Y21 load 2 mul /Y22 load add 3 div
/X22 load /Y22 load curveto
} bd
/SSPD {
dup length /d exch dict def
{
/v exch def
/k exch def
currentpagedevice k known {
/cpdv currentpagedevice k get def
v cpdv ne {
/upd false def
/nullv v type /nulltype eq def
/nullcpdv cpdv type /nulltype eq def
nullv nullcpdv or
{
/upd true def
} {
/sametype v type cpdv type eq def
sametype {
v type /arraytype eq {
/vlen v length def
/cpdvlen cpdv length def
vlen cpdvlen eq {
0 1 vlen 1 sub {
/i exch def
/obj v i get def
/cpdobj cpdv i get def
obj cpdobj ne {
/upd true def
exit
} if
} for
} {
/upd true def
} ifelse
} {
v type /dicttype eq {
v {
/dv exch def
/dk exch def
/cpddv cpdv dk get def
dv cpddv ne {
/upd true def
exit
} if
} forall
} {
/upd true def
} ifelse
} ifelse
} if
} ifelse
upd true eq {
d k v put
} if
} if
} if
} forall
d length 0 gt {
d setpagedevice
} if
} bd
/RE { % /NewFontName [NewEncodingArray] /FontName RE -
  findfont dup length dict begin
  {
    1 index /FID ne
    {def} {pop pop} ifelse
  } forall
  /Encoding exch def
  /FontName 1 index def
  currentdict definefont pop
  end
} bind def
%%EndResource
%%BeginResource: procset (Apache XML Graphics EPS ProcSet) 1.0 0
%%Version: 1.0 0
%%Copyright: (Copyright 2002-2003 The Apache Software Foundation. License terms: http://www.apache.org/licenses/LICENSE-2.0)
/BeginEPSF { %def
/b4_Inc_state save def         % Save state for cleanup
/dict_count countdictstack def % Count objects on dict stack
/op_count count 1 sub def      % Count objects on operand stack
userdict begin                 % Push userdict on dict stack
/showpage { } def              % Redefine showpage, { } = null proc
0 setgray 0 setlinecap         % Prepare graphics state
1 setlinewidth 0 setlinejoin
10 setmiterlimit [ ] 0 setdash newpath
/languagelevel where           % If level not equal to 1 then
{pop languagelevel             % set strokeadjust and
1 ne                           % overprint to their defaults.
{false setstrokeadjust false setoverprint
} if
} if
} bd
/EndEPSF { %def
count op_count sub {pop} repeat            % Clean up stacks
countdictstack dict_count sub {end} repeat
b4_Inc_state restore
} bd
%%EndResource
%FOPBeginFontDict
%%IncludeResource: font Courier-Oblique
%%IncludeResource: font Courier-BoldOblique
%%IncludeResource: font Courier-Bold
%%IncludeResource: font ZapfDingbats
%%IncludeResource: font Symbol
%%IncludeResource: font Helvetica
%%IncludeResource: font Helvetica-Oblique
%%IncludeResource: font Helvetica-Bold
%%IncludeResource: font Helvetica-BoldOblique
%%IncludeResource: font Times-Roman
%%IncludeResource: font Times-Italic
%%IncludeResource: font Times-Bold
%%IncludeResource: font Times-BoldItalic
%%IncludeResource: font Courier
%FOPEndFontDict
%%BeginResource: encoding WinAnsiEncoding
/WinAnsiEncoding [
/.notdef /.notdef /.notdef /.notdef /.notdef
/.notdef /.notdef /.notdef /.notdef /.notdef
/.notdef /.notdef /.notdef /.notdef /.notdef
/.notdef /.notdef /.notdef /.notdef /.notdef
/.notdef /.notdef /.notdef /.notdef /.notdef
/.notdef /.notdef /.notdef /.notdef /.notdef
/.notdef /.notdef /space /exclam /quotedbl
/numbersign /dollar /percent /ampersand /quotesingle
/parenleft /parenright /asterisk /plus /comma
/hyphen /period /slash /zero /one
/two /three /four /five /six
/seven /eight /nine /colon /semicolon
/less /equal /greater /question /at
/A /B /C /D /E
/F /G /H /I /J
/K /L /M /N /O
/P /Q /R /S /T
/U /V /W /X /Y
/Z /bracketleft /backslash /bracketright /asciicircum
/underscore /quoteleft /a /b /c
/d /e /f /g /h
/i /j /k /l /m
/n /o /p /q /r
/s /t /u /v /w
/x /y /z /braceleft /bar
/braceright /asciitilde /bullet /Euro /bullet
/quotesinglbase /florin /quotedblbase /ellipsis /dagger
/daggerdbl /circumflex /perthousand /Scaron /guilsinglleft
/OE /bullet /Zcaron /bullet /bullet
/quoteleft /quoteright /quotedblleft /quotedblright /bullet
/endash /emdash /asciitilde /trademark /scaron
/guilsinglright /oe /bullet /zcaron /Ydieresis
/space /exclamdown /cent /sterling /currency
/yen /brokenbar /section /dieresis /copyright
/ordfeminine /guillemotleft /logicalnot /sfthyphen /registered
/macron /degree /plusminus /twosuperior /threesuperior
/acute /mu /paragraph /middot /cedilla
/onesuperior /ordmasculine /guillemotright /onequarter /onehalf
/threequarters /questiondown /Agrave /Aacute /Acircumflex
/Atilde /Adieresis /Aring /AE /Ccedilla
/Egrave /Eacute /Ecircumflex /Edieresis /Igrave
/Iacute /Icircumflex /Idieresis /Eth /Ntilde
/Ograve /Oacute /Ocircumflex /Otilde /Odieresis
/multiply /Oslash /Ugrave /Uacute /Ucircumflex
/Udieresis /Yacute /Thorn /germandbls /agrave
/aacute /acircumflex /atilde /adieresis /aring
/ae /ccedilla /egrave /eacute /ecircumflex
/edieresis /igrave /iacute /icircumflex /idieresis
/eth /ntilde /ograve /oacute /ocircumflex
/otilde /odieresis /divide /oslash /ugrave
/uacute /ucircumflex /udieresis /yacute /thorn
/ydieresis
] def
%%EndResource
%FOPBeginFontReencode
/Courier-Oblique findfont
dup length dict begin
  {1 index /FID ne {def} {pop pop} ifelse} forall
  /Encoding WinAnsiEncoding def
  currentdict
end
/Courier-Oblique exch definefont pop
/Courier-BoldOblique findfont
dup length dict begin
  {1 index /FID ne {def} {pop pop} ifelse} forall
  /Encoding WinAnsiEncoding def
  currentdict
end
/Courier-BoldOblique exch definefont pop
/Courier-Bold findfont
dup length dict begin
  {1 index /FID ne {def} {pop pop} ifelse} forall
  /Encoding WinAnsiEncoding def
  currentdict
end
/Courier-Bold exch definefont pop
/Helvetica findfont
dup length dict begin
  {1 index /FID ne {def} {pop pop} ifelse} forall
  /Encoding WinAnsiEncoding def
  currentdict
end
/Helvetica exch definefont pop
/Helvetica-Oblique findfont
dup length dict begin
  {1 index /FID ne {def} {pop pop} ifelse} forall
  /Encoding WinAnsiEncoding def
  currentdict
end
/Helvetica-Oblique exch definefont pop
/Helvetica-Bold findfont
dup length dict begin
  {1 index /FID ne {def} {pop pop} ifelse} forall
  /Encoding WinAnsiEncoding def
  currentdict
end
/Helvetica-Bold exch definefont pop
/Helvetica-BoldOblique findfont
dup length dict begin
  {1 index /FID ne {def} {pop pop} ifelse} forall
  /Encoding WinAnsiEncoding def
  currentdict
end
/Helvetica-BoldOblique exch definefont pop
/Times-Roman findfont
dup length dict begin
  {1 index /FID ne {def} {pop pop} ifelse} forall
  /Encoding WinAnsiEncoding def
  currentdict
end
/Times-Roman exch definefont pop
/Times-Italic findfont
dup length dict begin
  {1 index /FID ne {def} {pop pop} ifelse} forall
  /Encoding WinAnsiEncoding def
  currentdict
end
/Times-Italic exch definefont pop
/Times-Bold findfont
dup length dict begin
  {1 index /FID ne {def} {pop pop} ifelse} forall
  /Encoding WinAnsiEncoding def
  currentdict
end
/Times-Bold exch definefont pop
/Times-BoldItalic findfont
dup length dict begin
  {1 index /FID ne {def} {pop pop} ifelse} forall
  /Encoding WinAnsiEncoding def
  currentdict
end
/Times-BoldItalic exch definefont pop
/Courier findfont
dup length dict begin
  {1 index /FID ne {def} {pop pop} ifelse} forall
  /Encoding WinAnsiEncoding def
  currentdict
end
/Courier exch definefont pop
%FOPEndFontReencode
%%EndProlog
%%Page: 1 1
%%PageBoundingBox: 0 0 560 420
%%BeginPageSetup
[1 0 0 -1 0 420] CT
%%EndPageSetup
GS
1 GC
N
0 0 560 420 re
f
GR
GS
1 GC
N
0 0 560 420 re
f
GR
GS
1 GC
N
73 363 M
507 363 L
507 31.5 L
73 31.5 L
cp
f
GR
GS
0.149 GC
2 setlinecap
1 LJ
0.5 LW
N
73 363 M
507 363 L
S
GR
GS
0.149 GC
2 setlinecap
1 LJ
0.5 LW
N
144.451 363 M
144.451 358.66 L
S
GR
GS
0.149 GC
2 setlinecap
1 LJ
0.5 LW
N
290 363 M
290 358.66 L
S
GR
GS
0.149 GC
2 setlinecap
1 LJ
0.5 LW
N
435.549 363 M
435.549 358.66 L
S
GR
GS
[1 0 0 1 144.45122 369] CT
0.149 GC
/Helvetica 20 F
GS
[1 0 0 1 0 0] CT
-25 20 moveto 
1 -1 scale
(Small) t 
GR
GR
GS
[1 0 0 1 290 369] CT
0.149 GC
/Helvetica 20 F
GS
[1 0 0 1 0 0] CT
-19 20 moveto 
1 -1 scale
(Tiny) t 
GR
GR
GS
[1 0 0 1 435.54877 369] CT
0.149 GC
/Helvetica 20 F
GS
[1 0 0 1 0 0] CT
-21 20 moveto 
1 -1 scale
(Rare) t 
GR
GR
GS
[1 0 0 1 290.00021 394] CT
0.149 GC
/Helvetica 22 F
GS
[1 0 0 1 0 0] CT
-52.5 21 moveto 
1 -1 scale
(query type) t 
GR
GR
GS
0.149 GC
2 setlinecap
1 LJ
0.5 LW
N
73 363 M
73 31.5 L
S
GR
GS
0.149 GC
2 setlinecap
1 LJ
0.5 LW
N
73 363 M
77.34 363 L
S
GR
GS
0.149 GC
2 setlinecap
1 LJ
0.5 LW
N
73 280.125 M
77.34 280.125 L
S
GR
GS
0.149 GC
2 setlinecap
1 LJ
0.5 LW
N
73 197.25 M
77.34 197.25 L
S
GR
GS
0.149 GC
2 setlinecap
1 LJ
0.5 LW
N
73 114.375 M
77.34 114.375 L
S
GR
GS
0.149 GC
2 setlinecap
1 LJ
0.5 LW
N
73 31.5 M
77.34 31.5 L
S
GR
GS
0.149 GC
2 setlinecap
1 LJ
0.5 LW
N
73 363 M
75.17 363 L
S
GR
GS
0.149 GC
2 setlinecap
1 LJ
0.5 LW
N
73 338.052 M
75.17 338.052 L
S
GR
GS
0.149 GC
2 setlinecap
1 LJ
0.5 LW
N
73 323.459 M
75.17 323.459 L
S
GR
GS
0.149 GC
2 setlinecap
1 LJ
0.5 LW
N
73 313.104 M
75.17 313.104 L
S
GR
GS
0.149 GC
2 setlinecap
1 LJ
0.5 LW
N
73 305.073 M
75.17 305.073 L
S
GR
GS
0.149 GC
2 setlinecap
1 LJ
0.5 LW
N
73 298.511 M
75.17 298.511 L
S
GR
GS
0.149 GC
2 setlinecap
1 LJ
0.5 LW
N
73 292.962 M
75.17 292.962 L
S
GR
GS
0.149 GC
2 setlinecap
1 LJ
0.5 LW
N
73 288.156 M
75.17 288.156 L
S
GR
GS
0.149 GC
2 setlinecap
1 LJ
0.5 LW
N
73 283.917 M
75.17 283.917 L
S
GR
GS
0.149 GC
2 setlinecap
1 LJ
0.5 LW
N
73 280.125 M
75.17 280.125 L
S
GR
GS
0.149 GC
2 setlinecap
1 LJ
0.5 LW
N
73 255.177 M
75.17 255.177 L
S
GR
GS
0.149 GC
2 setlinecap
1 LJ
0.5 LW
N
73 240.584 M
75.17 240.584 L
S
GR
GS
0.149 GC
2 setlinecap
1 LJ
0.5 LW
N
73 230.229 M
75.17 230.229 L
S
GR
GS
0.149 GC
2 setlinecap
1 LJ
0.5 LW
N
73 222.198 M
75.17 222.198 L
S
GR
GS
0.149 GC
2 setlinecap
1 LJ
0.5 LW
N
73 215.636 M
75.17 215.636 L
S
GR
GS
0.149 GC
2 setlinecap
1 LJ
0.5 LW
N
73 210.088 M
75.17 210.088 L
S
GR
GS
0.149 GC
2 setlinecap
1 LJ
0.5 LW
N
73 205.281 M
75.17 205.281 L
S
GR
GS
0.149 GC
2 setlinecap
1 LJ
0.5 LW
N
73 201.042 M
75.17 201.042 L
S
GR
GS
0.149 GC
2 setlinecap
1 LJ
0.5 LW
N
73 197.25 M
75.17 197.25 L
S
GR
GS
0.149 GC
2 setlinecap
1 LJ
0.5 LW
N
73 172.302 M
75.17 172.302 L
S
GR
GS
0.149 GC
2 setlinecap
1 LJ
0.5 LW
N
73 157.709 M
75.17 157.709 L
S
GR
GS
0.149 GC
2 setlinecap
1 LJ
0.5 LW
N
73 147.354 M
75.17 147.354 L
S
GR
GS
0.149 GC
2 setlinecap
1 LJ
0.5 LW
N
73 139.323 M
75.17 139.323 L
S
GR
GS
0.149 GC
2 setlinecap
1 LJ
0.5 LW
N
73 132.761 M
75.17 132.761 L
S
GR
GS
0.149 GC
2 setlinecap
1 LJ
0.5 LW
N
73 127.213 M
75.17 127.213 L
S
GR
GS
0.149 GC
2 setlinecap
1 LJ
0.5 LW
N
73 122.406 M
75.17 122.406 L
S
GR
GS
0.149 GC
2 setlinecap
1 LJ
0.5 LW
N
73 118.167 M
75.17 118.167 L
S
GR
GS
0.149 GC
2 setlinecap
1 LJ
0.5 LW
N
73 114.375 M
75.17 114.375 L
S
GR
GS
0.149 GC
2 setlinecap
1 LJ
0.5 LW
N
73 89.427 M
75.17 89.427 L
S
GR
GS
0.149 GC
2 setlinecap
1 LJ
0.5 LW
N
73 74.834 M
75.17 74.834 L
S
GR
GS
0.149 GC
2 setlinecap
1 LJ
0.5 LW
N
73 64.479 M
75.17 64.479 L
S
GR
GS
0.149 GC
2 setlinecap
1 LJ
0.5 LW
N
73 56.448 M
75.17 56.448 L
S
GR
GS
0.149 GC
2 setlinecap
1 LJ
0.5 LW
N
73 49.886 M
75.17 49.886 L
S
GR
GS
0.149 GC
2 setlinecap
1 LJ
0.5 LW
N
73 44.338 M
75.17 44.338 L
S
GR
GS
0.149 GC
2 setlinecap
1 LJ
0.5 LW
N
73 39.531 M
75.17 39.531 L
S
GR
GS
0.149 GC
2 setlinecap
1 LJ
0.5 LW
N
73 35.292 M
75.17 35.292 L
S
GR
GS
0.149 GC
2 setlinecap
1 LJ
0.5 LW
N
73 31.5 M
75.17 31.5 L
S
GR
GS
[1 0 0 1 35 374] CT
0.149 GC
/Helvetica 20 F
GS
[1 0 0 1 0 0] CT
0 0 moveto 
1 -1 scale
(10) t 
GR
GR
GS
[1 0 0 1 58 364] CT
0.149 GC
/Helvetica 16 F
GS
[1 0 0 1 0 0] CT
0 0 moveto 
1 -1 scale
(5) t 
GR
GR
GS
[1 0 0 1 35 291] CT
0.149 GC
/Helvetica 20 F
GS
[1 0 0 1 0 0] CT
0 0 moveto 
1 -1 scale
(10) t 
GR
GR
GS
[1 0 0 1 58 281] CT
0.149 GC
/Helvetica 16 F
GS
[1 0 0 1 0 0] CT
0 0 moveto 
1 -1 scale
(6) t 
GR
GR
GS
[1 0 0 1 35 208] CT
0.149 GC
/Helvetica 20 F
GS
[1 0 0 1 0 0] CT
0 0 moveto 
1 -1 scale
(10) t 
GR
GR
GS
[1 0 0 1 58 198] CT
0.149 GC
/Helvetica 16 F
GS
[1 0 0 1 0 0] CT
0 0 moveto 
1 -1 scale
(7) t 
GR
GR
GS
[1 0 0 1 35 125] CT
0.149 GC
/Helvetica 20 F
GS
[1 0 0 1 0 0] CT
0 0 moveto 
1 -1 scale
(10) t 
GR
GR
GS
[1 0 0 1 58 115] CT
0.149 GC
/Helvetica 16 F
GS
[1 0 0 1 0 0] CT
0 0 moveto 
1 -1 scale
(8) t 
GR
GR
GS
[1 0 0 1 35 43] CT
0.149 GC
/Helvetica 20 F
GS
[1 0 0 1 0 0] CT
0 0 moveto 
1 -1 scale
(10) t 
GR
GR
GS
[1 0 0 1 58 33] CT
0.149 GC
/Helvetica 16 F
GS
[1 0 0 1 0 0] CT
0 0 moveto 
1 -1 scale
(9) t 
GR
GR
GS
[0 -1 1 0 32.5 197.24985] CT
0.149 GC
/Helvetica 22 F
GS
[1 0 0 1 0 0] CT
-158.5 -5 moveto 
1 -1 scale
(total number of simulation steps) t 
GR
GR
GS
0.149 GC
1 LJ
0.5 LW
N
73 363 M
507 363 L
S
GR
GS
0 0.447 0.741 RC
N
115.341 363 M
115.341 283.285 L
94.171 283.285 L
94.171 363 L
cp
260.89 363 M
260.89 157.536 L
239.72 157.536 L
239.72 363 L
cp
406.439 363 M
406.439 89.639 L
385.268 89.639 L
385.268 363 L
cp
f
GR
GS
10.0 ML
0.5 LW
N
94.171 363 M
94.171 283.285 L
115.341 283.285 L
115.341 363 L
cp
S
GR
GS
10.0 ML
0.5 LW
N
239.72 363 M
239.72 157.536 L
260.89 157.536 L
260.89 363 L
cp
S
GR
GS
10.0 ML
0.5 LW
N
385.268 363 M
385.268 89.639 L
406.439 89.639 L
406.439 363 L
cp
S
GR
GS
1 0 0 RC
N
141.805 363 M
141.805 311.644 L
120.634 311.644 L
120.634 363 L
cp
287.354 363 M
287.354 231.589 L
266.183 231.589 L
266.183 363 L
cp
432.902 363 M
432.902 169.922 L
411.732 169.922 L
411.732 363 L
cp
f
GR
GS
10.0 ML
0.5 LW
N
120.634 363 M
120.634 311.644 L
141.805 311.644 L
141.805 363 L
cp
S
GR
GS
10.0 ML
0.5 LW
N
266.183 363 M
266.183 231.589 L
287.354 231.589 L
287.354 363 L
cp
S
GR
GS
10.0 ML
0.5 LW
N
411.732 363 M
411.732 169.922 L
432.902 169.922 L
432.902 363 L
cp
S
GR
GS
1 1 0 RC
N
168.268 363 M
168.268 307.627 L
147.098 307.627 L
147.098 363 L
cp
313.817 363 M
313.817 203.925 L
292.646 203.925 L
292.646 363 L
cp
459.366 363 M
459.366 159.921 L
438.195 159.921 L
438.195 363 L
cp
f
GR
GS
10.0 ML
0.5 LW
N
147.098 363 M
147.098 307.627 L
168.268 307.627 L
168.268 363 L
cp
S
GR
GS
10.0 ML
0.5 LW
N
292.646 363 M
292.646 203.925 L
313.817 203.925 L
313.817 363 L
cp
S
GR
GS
10.0 ML
0.5 LW
N
438.195 363 M
438.195 159.921 L
459.366 159.921 L
459.366 363 L
cp
S
GR
GS
0.58 0.251 0.11 RC
N
194.732 363 M
194.732 332.001 L
173.561 332.001 L
173.561 363 L
cp
340.28 363 M
340.28 270.849 L
319.11 270.849 L
319.11 363 L
cp
485.829 363 M
485.829 265.257 L
464.659 265.257 L
464.659 363 L
cp
f
GR
GS
10.0 ML
0.5 LW
N
173.561 363 M
173.561 332.001 L
194.732 332.001 L
194.732 363 L
cp
S
GR
GS
10.0 ML
0.5 LW
N
319.11 363 M
319.11 270.849 L
340.28 270.849 L
340.28 363 L
cp
S
GR
GS
10.0 ML
0.5 LW
N
464.659 363 M
464.659 265.257 L
485.829 265.257 L
485.829 363 L
cp
S
GR
GS
1 LJ
2 LW
N
104.756 283.285 M
104.756 287.161 L
S
GR
GS
1 LJ
2 LW
N
250.305 157.536 M
250.305 164.871 L
S
GR
GS
1 LJ
2 LW
N
395.854 89.639 M
395.854 92.105 L
S
GR
GS
1 LJ
2 LW
N
104.756 283.285 M
104.756 279.787 L
S
GR
GS
1 LJ
2 LW
N
250.305 157.536 M
250.305 151.446 L
S
GR
GS
1 LJ
2 LW
N
395.854 89.639 M
395.854 87.331 L
S
GR
GS
[1 0 0 1 104.7561 287.16083] CT
N
-3 0 M
3 0 L
f
GR
GS
[1 0 0 1 104.7561 287.16083] CT
10.0 ML
2 LW
N
-3 0 M
3 0 L
S
GR
GS
[1 0 0 1 250.30487 164.87064] CT
N
/f1394637256{-3 0 M
3 0 L}def
f1394637256
f
GR
GS
[1 0 0 1 250.30487 164.87064] CT
10.0 ML
2 LW
N
-3 0 M
3 0 L
S
GR
GS
[1 0 0 1 395.85367 92.10533] CT
N
f1394637256
f
GR
GS
[1 0 0 1 395.85367 92.10533] CT
10.0 ML
2 LW
N
-3 0 M
3 0 L
S
GR
GS
[1 0 0 1 104.7561 279.78705] CT
N
f1394637256
f
GR
GS
[1 0 0 1 104.7561 279.78705] CT
10.0 ML
2 LW
N
-3 0 M
3 0 L
S
GR
GS
[1 0 0 1 250.30487 151.44603] CT
N
f1394637256
f
GR
GS
[1 0 0 1 250.30487 151.44603] CT
10.0 ML
2 LW
N
-3 0 M
3 0 L
S
GR
GS
[1 0 0 1 395.85367 87.3306] CT
N
f1394637256
f
GR
GS
[1 0 0 1 395.85367 87.3306] CT
10.0 ML
2 LW
N
-3 0 M
3 0 L
S
GR
GS
1 LJ
2 LW
N
131.22 311.644 M
131.22 323.639 L
S
GR
GS
1 LJ
2 LW
N
276.768 231.589 M
276.768 238.014 L
S
GR
GS
1 LJ
2 LW
N
422.317 169.922 M
422.317 174.75 L
S
GR
GS
1 LJ
2 LW
N
131.22 311.644 M
131.22 302.663 L
S
GR
GS
1 LJ
2 LW
N
276.768 231.589 M
276.768 226.14 L
S
GR
GS
1 LJ
2 LW
N
422.317 169.922 M
422.317 165.666 L
S
GR
GS
[1 0 0 1 131.21951 323.63947] CT
N
f1394637256
f
GR
GS
[1 0 0 1 131.21951 323.63947] CT
10.0 ML
2 LW
N
-3 0 M
3 0 L
S
GR
GS
[1 0 0 1 276.76828 238.01427] CT
N
f1394637256
f
GR
GS
[1 0 0 1 276.76828 238.01427] CT
10.0 ML
2 LW
N
-3 0 M
3 0 L
S
GR
GS
[1 0 0 1 422.31708 174.75011] CT
N
f1394637256
f
GR
GS
[1 0 0 1 422.31708 174.75011] CT
10.0 ML
2 LW
N
-3 0 M
3 0 L
S
GR
GS
[1 0 0 1 131.21951 302.66284] CT
N
f1394637256
f
GR
GS
[1 0 0 1 131.21951 302.66284] CT
10.0 ML
2 LW
N
-3 0 M
3 0 L
S
GR
GS
[1 0 0 1 276.76828 226.13965] CT
N
f1394637256
f
GR
GS
[1 0 0 1 276.76828 226.13965] CT
10.0 ML
2 LW
N
-3 0 M
3 0 L
S
GR
GS
[1 0 0 1 422.31708 165.66612] CT
N
f1394637256
f
GR
GS
[1 0 0 1 422.31708 165.66612] CT
10.0 ML
2 LW
N
-3 0 M
3 0 L
S
GR
GS
1 LJ
2 LW
N
157.683 307.627 M
157.683 313.184 L
S
GR
GS
1 LJ
2 LW
N
303.232 203.925 M
303.232 206.304 L
S
GR
GS
1 LJ
2 LW
N
448.78 159.921 M
448.78 168.217 L
S
GR
GS
1 LJ
2 LW
N
157.683 307.627 M
157.683 302.815 L
S
GR
GS
1 LJ
2 LW
N
303.232 203.925 M
303.232 201.694 L
S
GR
GS
1 LJ
2 LW
N
448.78 159.921 M
448.78 153.184 L
S
GR
GS
[1 0 0 1 157.68292 313.18399] CT
N
f1394637256
f
GR
GS
[1 0 0 1 157.68292 313.18399] CT
10.0 ML
2 LW
N
-3 0 M
3 0 L
S
GR
GS
[1 0 0 1 303.23169 206.30385] CT
N
f1394637256
f
GR
GS
[1 0 0 1 303.23169 206.30385] CT
10.0 ML
2 LW
N
-3 0 M
3 0 L
S
GR
GS
[1 0 0 1 448.78049 168.21667] CT
N
f1394637256
f
GR
GS
[1 0 0 1 448.78049 168.21667] CT
10.0 ML
2 LW
N
-3 0 M
3 0 L
S
GR
GS
[1 0 0 1 157.68292 302.81485] CT
N
f1394637256
f
GR
GS
[1 0 0 1 157.68292 302.81485] CT
10.0 ML
2 LW
N
-3 0 M
3 0 L
S
GR
GS
[1 0 0 1 303.23169 201.69377] CT
N
f1394637256
f
GR
GS
[1 0 0 1 303.23169 201.69377] CT
10.0 ML
2 LW
N
-3 0 M
3 0 L
S
GR
GS
[1 0 0 1 448.78049 153.18442] CT
N
f1394637256
f
GR
GS
[1 0 0 1 448.78049 153.18442] CT
10.0 ML
2 LW
N
-3 0 M
3 0 L
S
GR
GS
1 LJ
0.5 LW
N
184.146 332.001 M
184.146 332.001 L
S
GR
GS
1 LJ
0.5 LW
N
329.695 270.849 M
329.695 270.849 L
S
GR
GS
1 LJ
0.5 LW
N
475.244 265.257 M
475.244 265.257 L
S
GR
GS
1 LJ
0.5 LW
N
184.146 332.001 M
184.146 332.001 L
S
GR
GS
1 LJ
0.5 LW
N
329.695 270.849 M
329.695 270.849 L
S
GR
GS
1 LJ
0.5 LW
N
475.244 265.257 M
475.244 265.257 L
S
GR
GS
[1 0 0 1 184.14633 332.00079] CT
N
f1394637256
f
GR
GS
[1 0 0 1 184.14633 332.00079] CT
10.0 ML
0.5 LW
N
-3 0 M
3 0 L
S
GR
GS
[1 0 0 1 329.6951 270.849] CT
N
f1394637256
f
GR
GS
[1 0 0 1 329.6951 270.849] CT
10.0 ML
0.5 LW
N
-3 0 M
3 0 L
S
GR
GS
[1 0 0 1 475.2439 265.25656] CT
N
f1394637256
f
GR
GS
[1 0 0 1 475.2439 265.25656] CT
10.0 ML
0.5 LW
N
-3 0 M
3 0 L
S
GR
GS
[1 0 0 1 184.14633 332.00079] CT
N
f1394637256
f
GR
GS
[1 0 0 1 184.14633 332.00079] CT
10.0 ML
0.5 LW
N
-3 0 M
3 0 L
S
GR
GS
[1 0 0 1 329.6951 270.849] CT
N
f1394637256
f
GR
GS
[1 0 0 1 329.6951 270.849] CT
10.0 ML
0.5 LW
N
-3 0 M
3 0 L
S
GR
GS
[1 0 0 1 475.2439 265.25656] CT
N
f1394637256
f
GR
GS
[1 0 0 1 475.2439 265.25656] CT
10.0 ML
0.5 LW
N
-3 0 M
3 0 L
S
GR
GS
1 GC
N
/f2138138980{336 140 M
336 38.5 L
85 38.5 L
85 140 L
cp}def
f2138138980
f
GR
GS
[1 0 0 1 122 52.5] CT
/Helvetica 20 F
GS
[1 0 0 1 0 0] CT
0 7.5 moveto 
1 -1 scale
(SRS) t 
GR
GR
GS
0 0.447 0.741 RC
N
/f722999616{119 61.5 M
119 43.5 L
89 43.5 L
89 61.5 L
cp}def
f722999616
f
GR
GS
10.0 ML
0.5 LW
N
89 61.5 M
89 43.5 L
119 43.5 L
119 61.5 L
cp
S
GR
GS
[1 0 0 1 122 77] CT
/Helvetica 20 F
GS
[1 0 0 1 0 0] CT
0 7.5 moveto 
1 -1 scale
(MLSS-Optimal) t 
GR
GR
GS
1 0 0 RC
N
/f-380226424{119 86 M
119 68 L
89 68 L
89 86 L
cp}def
f-380226424
f
GR
GS
10.0 ML
0.5 LW
N
89 86 M
89 68 L
119 68 L
119 86 L
cp
S
GR
GS
[1 0 0 1 122 101.5] CT
/Helvetica 20 F
GS
[1 0 0 1 0 0] CT
0 7.5 moveto 
1 -1 scale
(MLSS-Greedy) t 
GR
GR
GS
1 1 0 RC
N
/f526555306{119 110.5 M
119 92.5 L
89 92.5 L
89 110.5 L
cp}def
f526555306
f
GR
GS
10.0 ML
0.5 LW
N
89 110.5 M
89 92.5 L
119 92.5 L
119 110.5 L
cp
S
GR
GS
[1 0 0 1 122 126] CT
/Helvetica 20 F
GS
[1 0 0 1 0 0] CT
0 7.5 moveto 
1 -1 scale
(MLSS-Greedy-Partition) t 
GR
GR
GS
0.58 0.251 0.11 RC
N
/f314315696{119 135 M
119 117 L
89 117 L
89 135 L
cp}def
f314315696
f
GR
GS
10.0 ML
0.5 LW
N
89 135 M
89 117 L
119 117 L
119 135 L
cp
S
GR
GS
1 GC
10.0 ML
0.5 LW
N
85 140 M
85 38.5 L
336 38.5 L
336 140 L
cp
S
GR
%%Trailer
%%Pages: 1
%%EOF
