%!PS-Adobe-3.0 EPSF-3.0
%%Creator: (MATLAB, The Mathworks, Inc. Version 9.1.0.441655 \(R2016b\). Operating System: Mac OS X)
%%Title: /Users/junyang/workspace/DurPrediction/figs/queue-greedy.eps
%%CreationDate: 2020-06-08T18:13:54
%%Pages: (atend)
%%BoundingBox: 0 0 560 420
%%LanguageLevel: 3
%%EndComments
%%BeginProlog
%%BeginResource: procset (Apache XML Graphics Std ProcSet) 1.2 0
%%Version: 1.2 0
%%Copyright: (Copyright 2001-2003,2010 The Apache Software Foundation. License terms: http://www.apache.org/licenses/LICENSE-2.0)
/bd{bind def}bind def
/ld{load def}bd
/GR/grestore ld
/M/moveto ld
/LJ/setlinejoin ld
/C/curveto ld
/f/fill ld
/LW/setlinewidth ld
/GC/setgray ld
/t/show ld
/N/newpath ld
/CT/concat ld
/cp/closepath ld
/S/stroke ld
/L/lineto ld
/CC/setcmykcolor ld
/A/ashow ld
/GS/gsave ld
/RC/setrgbcolor ld
/RM/rmoveto ld
/ML/setmiterlimit ld
/re {4 2 roll M
1 index 0 rlineto
0 exch rlineto
neg 0 rlineto
cp } bd
/_ctm matrix def
/_tm matrix def
/BT { _ctm currentmatrix pop matrix _tm copy pop 0 0 moveto } bd
/ET { _ctm setmatrix } bd
/iTm { _ctm setmatrix _tm concat } bd
/Tm { _tm astore pop iTm 0 0 moveto } bd
/ux 0.0 def
/uy 0.0 def
/F {
  /Tp exch def
  /Tf exch def
  Tf findfont Tp scalefont setfont
  /cf Tf def  /cs Tp def
} bd
/ULS {currentpoint /uy exch def /ux exch def} bd
/ULE {
  /Tcx currentpoint pop def
  gsave
  newpath
  cf findfont cs scalefont dup
  /FontMatrix get 0 get /Ts exch def /FontInfo get dup
  /UnderlinePosition get Ts mul /To exch def
  /UnderlineThickness get Ts mul /Tt exch def
  ux uy To add moveto  Tcx uy To add lineto
  Tt setlinewidth stroke
  grestore
} bd
/OLE {
  /Tcx currentpoint pop def
  gsave
  newpath
  cf findfont cs scalefont dup
  /FontMatrix get 0 get /Ts exch def /FontInfo get dup
  /UnderlinePosition get Ts mul /To exch def
  /UnderlineThickness get Ts mul /Tt exch def
  ux uy To add cs add moveto Tcx uy To add cs add lineto
  Tt setlinewidth stroke
  grestore
} bd
/SOE {
  /Tcx currentpoint pop def
  gsave
  newpath
  cf findfont cs scalefont dup
  /FontMatrix get 0 get /Ts exch def /FontInfo get dup
  /UnderlinePosition get Ts mul /To exch def
  /UnderlineThickness get Ts mul /Tt exch def
  ux uy To add cs 10 mul 26 idiv add moveto Tcx uy To add cs 10 mul 26 idiv add lineto
  Tt setlinewidth stroke
  grestore
} bd
/QT {
/Y22 exch store
/X22 exch store
/Y21 exch store
/X21 exch store
currentpoint
/Y21 load 2 mul add 3 div exch
/X21 load 2 mul add 3 div exch
/X21 load 2 mul /X22 load add 3 div
/Y21 load 2 mul /Y22 load add 3 div
/X22 load /Y22 load curveto
} bd
/SSPD {
dup length /d exch dict def
{
/v exch def
/k exch def
currentpagedevice k known {
/cpdv currentpagedevice k get def
v cpdv ne {
/upd false def
/nullv v type /nulltype eq def
/nullcpdv cpdv type /nulltype eq def
nullv nullcpdv or
{
/upd true def
} {
/sametype v type cpdv type eq def
sametype {
v type /arraytype eq {
/vlen v length def
/cpdvlen cpdv length def
vlen cpdvlen eq {
0 1 vlen 1 sub {
/i exch def
/obj v i get def
/cpdobj cpdv i get def
obj cpdobj ne {
/upd true def
exit
} if
} for
} {
/upd true def
} ifelse
} {
v type /dicttype eq {
v {
/dv exch def
/dk exch def
/cpddv cpdv dk get def
dv cpddv ne {
/upd true def
exit
} if
} forall
} {
/upd true def
} ifelse
} ifelse
} if
} ifelse
upd true eq {
d k v put
} if
} if
} if
} forall
d length 0 gt {
d setpagedevice
} if
} bd
/RE { % /NewFontName [NewEncodingArray] /FontName RE -
  findfont dup length dict begin
  {
    1 index /FID ne
    {def} {pop pop} ifelse
  } forall
  /Encoding exch def
  /FontName 1 index def
  currentdict definefont pop
  end
} bind def
%%EndResource
%%BeginResource: procset (Apache XML Graphics EPS ProcSet) 1.0 0
%%Version: 1.0 0
%%Copyright: (Copyright 2002-2003 The Apache Software Foundation. License terms: http://www.apache.org/licenses/LICENSE-2.0)
/BeginEPSF { %def
/b4_Inc_state save def         % Save state for cleanup
/dict_count countdictstack def % Count objects on dict stack
/op_count count 1 sub def      % Count objects on operand stack
userdict begin                 % Push userdict on dict stack
/showpage { } def              % Redefine showpage, { } = null proc
0 setgray 0 setlinecap         % Prepare graphics state
1 setlinewidth 0 setlinejoin
10 setmiterlimit [ ] 0 setdash newpath
/languagelevel where           % If level not equal to 1 then
{pop languagelevel             % set strokeadjust and
1 ne                           % overprint to their defaults.
{false setstrokeadjust false setoverprint
} if
} if
} bd
/EndEPSF { %def
count op_count sub {pop} repeat            % Clean up stacks
countdictstack dict_count sub {end} repeat
b4_Inc_state restore
} bd
%%EndResource
%FOPBeginFontDict
%%IncludeResource: font Courier-Bold
%%IncludeResource: font Helvetica
%%IncludeResource: font Courier-BoldOblique
%%IncludeResource: font Courier-Oblique
%%IncludeResource: font Times-Roman
%%IncludeResource: font Helvetica-BoldOblique
%%IncludeResource: font Helvetica-Bold
%%IncludeResource: font Helvetica-Oblique
%%IncludeResource: font Times-BoldItalic
%%IncludeResource: font Courier
%%IncludeResource: font Times-Italic
%%IncludeResource: font Times-Bold
%%IncludeResource: font Symbol
%%IncludeResource: font ZapfDingbats
%FOPEndFontDict
%%BeginResource: encoding WinAnsiEncoding
/WinAnsiEncoding [
/.notdef /.notdef /.notdef /.notdef /.notdef
/.notdef /.notdef /.notdef /.notdef /.notdef
/.notdef /.notdef /.notdef /.notdef /.notdef
/.notdef /.notdef /.notdef /.notdef /.notdef
/.notdef /.notdef /.notdef /.notdef /.notdef
/.notdef /.notdef /.notdef /.notdef /.notdef
/.notdef /.notdef /space /exclam /quotedbl
/numbersign /dollar /percent /ampersand /quotesingle
/parenleft /parenright /asterisk /plus /comma
/hyphen /period /slash /zero /one
/two /three /four /five /six
/seven /eight /nine /colon /semicolon
/less /equal /greater /question /at
/A /B /C /D /E
/F /G /H /I /J
/K /L /M /N /O
/P /Q /R /S /T
/U /V /W /X /Y
/Z /bracketleft /backslash /bracketright /asciicircum
/underscore /quoteleft /a /b /c
/d /e /f /g /h
/i /j /k /l /m
/n /o /p /q /r
/s /t /u /v /w
/x /y /z /braceleft /bar
/braceright /asciitilde /bullet /Euro /bullet
/quotesinglbase /florin /quotedblbase /ellipsis /dagger
/daggerdbl /circumflex /perthousand /Scaron /guilsinglleft
/OE /bullet /Zcaron /bullet /bullet
/quoteleft /quoteright /quotedblleft /quotedblright /bullet
/endash /emdash /asciitilde /trademark /scaron
/guilsinglright /oe /bullet /zcaron /Ydieresis
/space /exclamdown /cent /sterling /currency
/yen /brokenbar /section /dieresis /copyright
/ordfeminine /guillemotleft /logicalnot /sfthyphen /registered
/macron /degree /plusminus /twosuperior /threesuperior
/acute /mu /paragraph /middot /cedilla
/onesuperior /ordmasculine /guillemotright /onequarter /onehalf
/threequarters /questiondown /Agrave /Aacute /Acircumflex
/Atilde /Adieresis /Aring /AE /Ccedilla
/Egrave /Eacute /Ecircumflex /Edieresis /Igrave
/Iacute /Icircumflex /Idieresis /Eth /Ntilde
/Ograve /Oacute /Ocircumflex /Otilde /Odieresis
/multiply /Oslash /Ugrave /Uacute /Ucircumflex
/Udieresis /Yacute /Thorn /germandbls /agrave
/aacute /acircumflex /atilde /adieresis /aring
/ae /ccedilla /egrave /eacute /ecircumflex
/edieresis /igrave /iacute /icircumflex /idieresis
/eth /ntilde /ograve /oacute /ocircumflex
/otilde /odieresis /divide /oslash /ugrave
/uacute /ucircumflex /udieresis /yacute /thorn
/ydieresis
] def
%%EndResource
%FOPBeginFontReencode
/Courier-Bold findfont
dup length dict begin
  {1 index /FID ne {def} {pop pop} ifelse} forall
  /Encoding WinAnsiEncoding def
  currentdict
end
/Courier-Bold exch definefont pop
/Helvetica findfont
dup length dict begin
  {1 index /FID ne {def} {pop pop} ifelse} forall
  /Encoding WinAnsiEncoding def
  currentdict
end
/Helvetica exch definefont pop
/Courier-BoldOblique findfont
dup length dict begin
  {1 index /FID ne {def} {pop pop} ifelse} forall
  /Encoding WinAnsiEncoding def
  currentdict
end
/Courier-BoldOblique exch definefont pop
/Courier-Oblique findfont
dup length dict begin
  {1 index /FID ne {def} {pop pop} ifelse} forall
  /Encoding WinAnsiEncoding def
  currentdict
end
/Courier-Oblique exch definefont pop
/Times-Roman findfont
dup length dict begin
  {1 index /FID ne {def} {pop pop} ifelse} forall
  /Encoding WinAnsiEncoding def
  currentdict
end
/Times-Roman exch definefont pop
/Helvetica-BoldOblique findfont
dup length dict begin
  {1 index /FID ne {def} {pop pop} ifelse} forall
  /Encoding WinAnsiEncoding def
  currentdict
end
/Helvetica-BoldOblique exch definefont pop
/Helvetica-Bold findfont
dup length dict begin
  {1 index /FID ne {def} {pop pop} ifelse} forall
  /Encoding WinAnsiEncoding def
  currentdict
end
/Helvetica-Bold exch definefont pop
/Helvetica-Oblique findfont
dup length dict begin
  {1 index /FID ne {def} {pop pop} ifelse} forall
  /Encoding WinAnsiEncoding def
  currentdict
end
/Helvetica-Oblique exch definefont pop
/Times-BoldItalic findfont
dup length dict begin
  {1 index /FID ne {def} {pop pop} ifelse} forall
  /Encoding WinAnsiEncoding def
  currentdict
end
/Times-BoldItalic exch definefont pop
/Courier findfont
dup length dict begin
  {1 index /FID ne {def} {pop pop} ifelse} forall
  /Encoding WinAnsiEncoding def
  currentdict
end
/Courier exch definefont pop
/Times-Italic findfont
dup length dict begin
  {1 index /FID ne {def} {pop pop} ifelse} forall
  /Encoding WinAnsiEncoding def
  currentdict
end
/Times-Italic exch definefont pop
/Times-Bold findfont
dup length dict begin
  {1 index /FID ne {def} {pop pop} ifelse} forall
  /Encoding WinAnsiEncoding def
  currentdict
end
/Times-Bold exch definefont pop
%FOPEndFontReencode
%%EndProlog
%%Page: 1 1
%%PageBoundingBox: 0 0 560 420
%%BeginPageSetup
[1 0 0 -1 0 420] CT
%%EndPageSetup
GS
1 GC
N
0 0 560 420 re
f
GR
GS
1 GC
N
0 0 560 420 re
f
GR
GS
1 GC
N
73 373.5 M
507 373.5 L
507 31.5 L
73 31.5 L
cp
f
GR
GS
0.149 GC
2 setlinecap
1 LJ
0.5 LW
N
73 373.5 M
507 373.5 L
S
GR
GS
0.149 GC
2 setlinecap
1 LJ
0.5 LW
N
145.333 373.5 M
145.333 369.16 L
S
GR
GS
0.149 GC
2 setlinecap
1 LJ
0.5 LW
N
290 373.5 M
290 369.16 L
S
GR
GS
0.149 GC
2 setlinecap
1 LJ
0.5 LW
N
434.667 373.5 M
434.667 369.16 L
S
GR
GS
[1 0 0 1 145.33333 378.70001] CT
0.149 GC
/Helvetica 16 F
GS
[1 0 0 1 0 0] CT
-20 16 moveto 
1 -1 scale
(Small) t 
GR
GR
GS
[1 0 0 1 290 378.70001] CT
0.149 GC
/Helvetica 16 F
GS
[1 0 0 1 0 0] CT
-15 16 moveto 
1 -1 scale
(Tiny) t 
GR
GR
GS
[1 0 0 1 434.66666 378.70001] CT
0.149 GC
/Helvetica 16 F
GS
[1 0 0 1 0 0] CT
-17 16 moveto 
1 -1 scale
(Rare) t 
GR
GR
GS
[1 0 0 1 290.00021 399.20001] CT
0.149 GC
/Helvetica 17.6 F
GS
[1 0 0 1 0 0] CT
-43 18 moveto 
1 -1 scale
(query type) t 
GR
GR
GS
0.149 GC
2 setlinecap
1 LJ
0.5 LW
N
73 373.5 M
73 31.5 L
S
GR
GS
0.149 GC
2 setlinecap
1 LJ
0.5 LW
N
73 373.5 M
77.34 373.5 L
S
GR
GS
0.149 GC
2 setlinecap
1 LJ
0.5 LW
N
73 288 M
77.34 288 L
S
GR
GS
0.149 GC
2 setlinecap
1 LJ
0.5 LW
N
73 202.5 M
77.34 202.5 L
S
GR
GS
0.149 GC
2 setlinecap
1 LJ
0.5 LW
N
73 117 M
77.34 117 L
S
GR
GS
0.149 GC
2 setlinecap
1 LJ
0.5 LW
N
73 31.5 M
77.34 31.5 L
S
GR
GS
0.149 GC
2 setlinecap
1 LJ
0.5 LW
N
73 373.5 M
75.17 373.5 L
S
GR
GS
0.149 GC
2 setlinecap
1 LJ
0.5 LW
N
73 347.762 M
75.17 347.762 L
S
GR
GS
0.149 GC
2 setlinecap
1 LJ
0.5 LW
N
73 332.706 M
75.17 332.706 L
S
GR
GS
0.149 GC
2 setlinecap
1 LJ
0.5 LW
N
73 322.024 M
75.17 322.024 L
S
GR
GS
0.149 GC
2 setlinecap
1 LJ
0.5 LW
N
73 313.738 M
75.17 313.738 L
S
GR
GS
0.149 GC
2 setlinecap
1 LJ
0.5 LW
N
73 306.968 M
75.17 306.968 L
S
GR
GS
0.149 GC
2 setlinecap
1 LJ
0.5 LW
N
73 301.244 M
75.17 301.244 L
S
GR
GS
0.149 GC
2 setlinecap
1 LJ
0.5 LW
N
73 296.286 M
75.17 296.286 L
S
GR
GS
0.149 GC
2 setlinecap
1 LJ
0.5 LW
N
73 291.912 M
75.17 291.912 L
S
GR
GS
0.149 GC
2 setlinecap
1 LJ
0.5 LW
N
73 288 M
75.17 288 L
S
GR
GS
0.149 GC
2 setlinecap
1 LJ
0.5 LW
N
73 262.262 M
75.17 262.262 L
S
GR
GS
0.149 GC
2 setlinecap
1 LJ
0.5 LW
N
73 247.206 M
75.17 247.206 L
S
GR
GS
0.149 GC
2 setlinecap
1 LJ
0.5 LW
N
73 236.524 M
75.17 236.524 L
S
GR
GS
0.149 GC
2 setlinecap
1 LJ
0.5 LW
N
73 228.238 M
75.17 228.238 L
S
GR
GS
0.149 GC
2 setlinecap
1 LJ
0.5 LW
N
73 221.468 M
75.17 221.468 L
S
GR
GS
0.149 GC
2 setlinecap
1 LJ
0.5 LW
N
73 215.744 M
75.17 215.744 L
S
GR
GS
0.149 GC
2 setlinecap
1 LJ
0.5 LW
N
73 210.786 M
75.17 210.786 L
S
GR
GS
0.149 GC
2 setlinecap
1 LJ
0.5 LW
N
73 206.412 M
75.17 206.412 L
S
GR
GS
0.149 GC
2 setlinecap
1 LJ
0.5 LW
N
73 202.5 M
75.17 202.5 L
S
GR
GS
0.149 GC
2 setlinecap
1 LJ
0.5 LW
N
73 176.762 M
75.17 176.762 L
S
GR
GS
0.149 GC
2 setlinecap
1 LJ
0.5 LW
N
73 161.706 M
75.17 161.706 L
S
GR
GS
0.149 GC
2 setlinecap
1 LJ
0.5 LW
N
73 151.024 M
75.17 151.024 L
S
GR
GS
0.149 GC
2 setlinecap
1 LJ
0.5 LW
N
73 142.738 M
75.17 142.738 L
S
GR
GS
0.149 GC
2 setlinecap
1 LJ
0.5 LW
N
73 135.968 M
75.17 135.968 L
S
GR
GS
0.149 GC
2 setlinecap
1 LJ
0.5 LW
N
73 130.244 M
75.17 130.244 L
S
GR
GS
0.149 GC
2 setlinecap
1 LJ
0.5 LW
N
73 125.286 M
75.17 125.286 L
S
GR
GS
0.149 GC
2 setlinecap
1 LJ
0.5 LW
N
73 120.912 M
75.17 120.912 L
S
GR
GS
0.149 GC
2 setlinecap
1 LJ
0.5 LW
N
73 117 M
75.17 117 L
S
GR
GS
0.149 GC
2 setlinecap
1 LJ
0.5 LW
N
73 91.262 M
75.17 91.262 L
S
GR
GS
0.149 GC
2 setlinecap
1 LJ
0.5 LW
N
73 76.206 M
75.17 76.206 L
S
GR
GS
0.149 GC
2 setlinecap
1 LJ
0.5 LW
N
73 65.524 M
75.17 65.524 L
S
GR
GS
0.149 GC
2 setlinecap
1 LJ
0.5 LW
N
73 57.238 M
75.17 57.238 L
S
GR
GS
0.149 GC
2 setlinecap
1 LJ
0.5 LW
N
73 50.468 M
75.17 50.468 L
S
GR
GS
0.149 GC
2 setlinecap
1 LJ
0.5 LW
N
73 44.744 M
75.17 44.744 L
S
GR
GS
0.149 GC
2 setlinecap
1 LJ
0.5 LW
N
73 39.786 M
75.17 39.786 L
S
GR
GS
0.149 GC
2 setlinecap
1 LJ
0.5 LW
N
73 35.412 M
75.17 35.412 L
S
GR
GS
0.149 GC
2 setlinecap
1 LJ
0.5 LW
N
73 31.5 M
75.17 31.5 L
S
GR
GS
[1 0 0 1 42 383] CT
0.149 GC
/Helvetica 16 F
GS
[1 0 0 1 0 0] CT
0 0 moveto 
1 -1 scale
(10) t 
GR
GR
GS
[1 0 0 1 60 375] CT
0.149 GC
/Helvetica 12.8 F
GS
[1 0 0 1 0 0] CT
0 0 moveto 
1 -1 scale
(5) t 
GR
GR
GS
[1 0 0 1 42 297] CT
0.149 GC
/Helvetica 16 F
GS
[1 0 0 1 0 0] CT
0 0 moveto 
1 -1 scale
(10) t 
GR
GR
GS
[1 0 0 1 60 289] CT
0.149 GC
/Helvetica 12.8 F
GS
[1 0 0 1 0 0] CT
0 0 moveto 
1 -1 scale
(6) t 
GR
GR
GS
[1 0 0 1 42 212] CT
0.149 GC
/Helvetica 16 F
GS
[1 0 0 1 0 0] CT
0 0 moveto 
1 -1 scale
(10) t 
GR
GR
GS
[1 0 0 1 60 204] CT
0.149 GC
/Helvetica 12.8 F
GS
[1 0 0 1 0 0] CT
0 0 moveto 
1 -1 scale
(7) t 
GR
GR
GS
[1 0 0 1 42 126] CT
0.149 GC
/Helvetica 16 F
GS
[1 0 0 1 0 0] CT
0 0 moveto 
1 -1 scale
(10) t 
GR
GR
GS
[1 0 0 1 60 118] CT
0.149 GC
/Helvetica 12.8 F
GS
[1 0 0 1 0 0] CT
0 0 moveto 
1 -1 scale
(8) t 
GR
GR
GS
[1 0 0 1 42 41] CT
0.149 GC
/Helvetica 16 F
GS
[1 0 0 1 0 0] CT
0 0 moveto 
1 -1 scale
(10) t 
GR
GR
GS
[1 0 0 1 60 33] CT
0.149 GC
/Helvetica 12.8 F
GS
[1 0 0 1 0 0] CT
0 0 moveto 
1 -1 scale
(9) t 
GR
GR
GS
[0 -1 1 0 39.3 202.49983] CT
0.149 GC
/Helvetica 17.6 F
GS
[1 0 0 1 0 0] CT
-129.5 -4 moveto 
1 -1 scale
(total number of simulation steps) t 
GR
GR
GS
0.149 GC
1 LJ
0.5 LW
N
73 373.5 M
507 373.5 L
S
GR
GS
1 1 0 RC
N
164.086 373.5 M
190.877 373.5 L
190.877 301.119 L
164.086 301.119 L
cp
f
GR
GS
1 1 0 RC
N
308.753 373.5 M
335.543 373.5 L
335.543 204.011 L
308.753 204.011 L
cp
f
GR
GS
1 1 0 RC
N
453.42 373.5 M
480.21 373.5 L
480.21 162.051 L
453.42 162.051 L
cp
f
GR
GS
10.0 ML
0.5 LW
N
164.086 373.5 M
164.086 301.119 L
190.877 301.119 L
190.877 373.5 L
cp
S
GR
GS
10.0 ML
0.5 LW
N
308.753 373.5 M
308.753 204.011 L
335.543 204.011 L
335.543 373.5 L
cp
S
GR
GS
10.0 ML
0.5 LW
N
453.42 373.5 M
453.42 162.051 L
480.21 162.051 L
480.21 373.5 L
cp
S
GR
GS
0.208 0.165 0.525 RC
N
100.326 373.5 M
126.044 373.5 L
126.044 289.7 L
100.326 289.7 L
cp
f
GR
GS
0.208 0.165 0.525 RC
N
244.993 373.5 M
270.711 373.5 L
270.711 192.255 L
244.993 192.255 L
cp
f
GR
GS
0.208 0.165 0.525 RC
N
389.659 373.5 M
415.378 373.5 L
415.378 92.055 L
389.659 92.055 L
cp
f
GR
GS
10.0 ML
0.5 LW
N
100.326 373.5 M
100.326 289.7 L
126.044 289.7 L
126.044 373.5 L
cp
S
GR
GS
10.0 ML
0.5 LW
N
244.993 373.5 M
244.993 192.255 L
270.711 192.255 L
270.711 373.5 L
cp
S
GR
GS
10.0 ML
0.5 LW
N
389.659 373.5 M
389.659 92.055 L
415.378 92.055 L
415.378 373.5 L
cp
S
GR
GS
1 0 0 RC
N
132.474 373.5 M
158.193 373.5 L
158.193 309.384 L
132.474 309.384 L
cp
f
GR
GS
1 0 0 RC
N
277.141 373.5 M
302.859 373.5 L
302.859 248.57 L
277.141 248.57 L
cp
f
GR
GS
1 0 0 RC
N
421.807 373.5 M
447.526 373.5 L
447.526 179.781 L
421.807 179.781 L
cp
f
GR
GS
10.0 ML
0.5 LW
N
132.474 373.5 M
132.474 309.384 L
158.193 309.384 L
158.193 373.5 L
cp
S
GR
GS
10.0 ML
0.5 LW
N
277.141 373.5 M
277.141 248.57 L
302.859 248.57 L
302.859 373.5 L
cp
S
GR
GS
10.0 ML
0.5 LW
N
421.807 373.5 M
421.807 179.781 L
447.526 179.781 L
447.526 373.5 L
cp
S
GR
GS
0.6 0.2 0 RC
N
164.622 373.5 M
190.341 373.5 L
190.341 353.79 L
164.622 353.79 L
cp
f
GR
GS
0.6 0.2 0 RC
N
309.289 373.5 M
335.007 373.5 L
335.007 278.415 L
309.289 278.415 L
cp
f
GR
GS
0.6 0.2 0 RC
N
453.956 373.5 M
479.674 373.5 L
479.674 257.671 L
453.956 257.671 L
cp
f
GR
GS
10.0 ML
0.5 LW
N
164.622 373.5 M
164.622 353.79 L
190.341 353.79 L
190.341 373.5 L
cp
S
GR
GS
10.0 ML
0.5 LW
N
309.289 373.5 M
309.289 278.415 L
335.007 278.415 L
335.007 373.5 L
cp
S
GR
GS
10.0 ML
0.5 LW
N
453.956 373.5 M
453.956 257.671 L
479.674 257.671 L
479.674 373.5 L
cp
S
GR
GS
1 LJ
2 LW
N
113.185 289.7 M
113.185 293.683 L
S
GR
GS
1 LJ
2 LW
N
257.852 192.255 M
257.852 196.821 L
S
GR
GS
1 LJ
2 LW
N
402.519 92.055 M
402.519 94.936 L
S
GR
GS
1 LJ
2 LW
N
113.185 289.7 M
113.185 286.103 L
S
GR
GS
1 LJ
2 LW
N
257.852 192.255 M
257.852 188.19 L
S
GR
GS
1 LJ
2 LW
N
402.519 92.055 M
402.519 89.381 L
S
GR
GS
[1 0 0 1 113.18518 293.68338] CT
N
-3 0 M
3 0 L
f
GR
GS
[1 0 0 1 113.18518 293.68338] CT
10.0 ML
2 LW
N
-3 0 M
3 0 L
S
GR
GS
[1 0 0 1 257.85187 196.82095] CT
N
/f1394637256{-3 0 M
3 0 L}def
f1394637256
f
GR
GS
[1 0 0 1 257.85187 196.82095] CT
10.0 ML
2 LW
N
-3 0 M
3 0 L
S
GR
GS
[1 0 0 1 402.51852 94.93644] CT
N
f1394637256
f
GR
GS
[1 0 0 1 402.51852 94.93644] CT
10.0 ML
2 LW
N
-3 0 M
3 0 L
S
GR
GS
[1 0 0 1 113.18518 286.10339] CT
N
f1394637256
f
GR
GS
[1 0 0 1 113.18518 286.10339] CT
10.0 ML
2 LW
N
-3 0 M
3 0 L
S
GR
GS
[1 0 0 1 257.85187 188.19019] CT
N
f1394637256
f
GR
GS
[1 0 0 1 257.85187 188.19019] CT
10.0 ML
2 LW
N
-3 0 M
3 0 L
S
GR
GS
[1 0 0 1 402.51852 89.38112] CT
N
f1394637256
f
GR
GS
[1 0 0 1 402.51852 89.38112] CT
10.0 ML
2 LW
N
-3 0 M
3 0 L
S
GR
GS
1 LJ
2 LW
N
145.333 309.384 M
145.333 315.122 L
S
GR
GS
1 LJ
2 LW
N
290 248.57 M
290 253.168 L
S
GR
GS
1 LJ
2 LW
N
434.667 179.781 M
434.667 187.351 L
S
GR
GS
1 LJ
2 LW
N
145.333 309.384 M
145.333 304.414 L
S
GR
GS
1 LJ
2 LW
N
290 248.57 M
290 244.479 L
S
GR
GS
1 LJ
2 LW
N
434.667 179.781 M
434.667 173.497 L
S
GR
GS
[1 0 0 1 145.33333 315.12244] CT
N
f1394637256
f
GR
GS
[1 0 0 1 145.33333 315.12244] CT
10.0 ML
2 LW
N
-3 0 M
3 0 L
S
GR
GS
[1 0 0 1 290 253.16756] CT
N
f1394637256
f
GR
GS
[1 0 0 1 290 253.16756] CT
10.0 ML
2 LW
N
-3 0 M
3 0 L
S
GR
GS
[1 0 0 1 434.66666 187.35088] CT
N
f1394637256
f
GR
GS
[1 0 0 1 434.66666 187.35088] CT
10.0 ML
2 LW
N
-3 0 M
3 0 L
S
GR
GS
[1 0 0 1 145.33333 304.41425] CT
N
f1394637256
f
GR
GS
[1 0 0 1 145.33333 304.41425] CT
10.0 ML
2 LW
N
-3 0 M
3 0 L
S
GR
GS
[1 0 0 1 290 244.47906] CT
N
f1394637256
f
GR
GS
[1 0 0 1 290 244.47906] CT
10.0 ML
2 LW
N
-3 0 M
3 0 L
S
GR
GS
[1 0 0 1 434.66666 173.49654] CT
N
f1394637256
f
GR
GS
[1 0 0 1 434.66666 173.49654] CT
10.0 ML
2 LW
N
-3 0 M
3 0 L
S
GR
GS
1 LJ
0.5 LW
N
177.481 353.79 M
177.481 353.79 L
S
GR
GS
1 LJ
0.5 LW
N
322.148 278.415 M
322.148 278.415 L
S
GR
GS
1 LJ
0.5 LW
N
466.815 257.671 M
466.815 257.671 L
S
GR
GS
1 LJ
0.5 LW
N
177.481 353.79 M
177.481 353.79 L
S
GR
GS
1 LJ
0.5 LW
N
322.148 278.415 M
322.148 278.415 L
S
GR
GS
1 LJ
0.5 LW
N
466.815 257.671 M
466.815 257.671 L
S
GR
GS
[1 0 0 1 177.48149 353.78986] CT
N
f1394637256
f
GR
GS
[1 0 0 1 177.48149 353.78986] CT
10.0 ML
0.5 LW
N
-3 0 M
3 0 L
S
GR
GS
[1 0 0 1 322.14816 278.41507] CT
N
f1394637256
f
GR
GS
[1 0 0 1 322.14816 278.41507] CT
10.0 ML
0.5 LW
N
-3 0 M
3 0 L
S
GR
GS
[1 0 0 1 466.81482 257.67078] CT
N
f1394637256
f
GR
GS
[1 0 0 1 466.81482 257.67078] CT
10.0 ML
0.5 LW
N
-3 0 M
3 0 L
S
GR
GS
[1 0 0 1 177.48149 353.78986] CT
N
f1394637256
f
GR
GS
[1 0 0 1 177.48149 353.78986] CT
10.0 ML
0.5 LW
N
-3 0 M
3 0 L
S
GR
GS
[1 0 0 1 322.14816 278.41507] CT
N
f1394637256
f
GR
GS
[1 0 0 1 322.14816 278.41507] CT
10.0 ML
0.5 LW
N
-3 0 M
3 0 L
S
GR
GS
[1 0 0 1 466.81482 257.67078] CT
N
f1394637256
f
GR
GS
[1 0 0 1 466.81482 257.67078] CT
10.0 ML
0.5 LW
N
-3 0 M
3 0 L
S
GR
GS
1 LJ
2 LW
N
177.481 301.119 M
177.481 304.82 L
S
GR
GS
1 LJ
2 LW
N
322.148 204.011 M
322.148 206.125 L
S
GR
GS
1 LJ
2 LW
N
466.815 162.051 M
466.815 170.123 L
S
GR
GS
1 LJ
2 LW
N
177.481 301.119 M
177.481 297.754 L
S
GR
GS
1 LJ
2 LW
N
322.148 204.011 M
322.148 202.011 L
S
GR
GS
1 LJ
2 LW
N
466.815 162.051 M
466.815 155.424 L
S
GR
GS
[1 0 0 1 177.48149 304.82001] CT
N
f1394637256
f
GR
GS
[1 0 0 1 177.48149 304.82001] CT
10.0 ML
2 LW
N
-3 0 M
3 0 L
S
GR
GS
[1 0 0 1 322.14816 206.12489] CT
N
f1394637256
f
GR
GS
[1 0 0 1 322.14816 206.12489] CT
10.0 ML
2 LW
N
-3 0 M
3 0 L
S
GR
GS
[1 0 0 1 466.81482 170.1228] CT
N
f1394637256
f
GR
GS
[1 0 0 1 466.81482 170.1228] CT
10.0 ML
2 LW
N
-3 0 M
3 0 L
S
GR
GS
[1 0 0 1 177.48149 297.75372] CT
N
f1394637256
f
GR
GS
[1 0 0 1 177.48149 297.75372] CT
10.0 ML
2 LW
N
-3 0 M
3 0 L
S
GR
GS
[1 0 0 1 322.14816 202.01122] CT
N
f1394637256
f
GR
GS
[1 0 0 1 322.14816 202.01122] CT
10.0 ML
2 LW
N
-3 0 M
3 0 L
S
GR
GS
[1 0 0 1 466.81482 155.42442] CT
N
f1394637256
f
GR
GS
[1 0 0 1 466.81482 155.42442] CT
10.0 ML
2 LW
N
-3 0 M
3 0 L
S
GR
GS
1 GC
N
/f-1982275442{89 144.5 M
89 43 L
353 43 L
353 144.5 L
cp}def
f-1982275442
f
GR
GS
[1 0 0 1 132.47466 57] CT
/Helvetica 20 F
GS
[1 0 0 1 0 0] CT
0 7.5 moveto 
1 -1 scale
(MLSS-Greedy) t 
GR
GR
GS
1 1 0 RC
N
/f-1551821568{99.465 66.35 M
99.465 47.65 L
129.474 47.65 L
129.474 66.35 L
cp}def
f-1551821568
f
GR
GS
10.0 ML
0.5 LW
N
99.465 66.35 M
99.465 47.65 L
129.474 47.65 L
129.474 66.35 L
cp
S
GR
GS
[1 0 0 1 132.47466 81.5] CT
/Helvetica 20 F
GS
[1 0 0 1 0 0] CT
0 7.5 moveto 
1 -1 scale
(SRS) t 
GR
GR
GS
0.208 0.165 0.525 RC
N
/f1659766694{99.465 90.85 M
99.465 72.15 L
129.474 72.15 L
129.474 90.85 L
cp}def
f1659766694
f
GR
GS
10.0 ML
0.5 LW
N
99.465 90.85 M
99.465 72.15 L
129.474 72.15 L
129.474 90.85 L
cp
S
GR
GS
[1 0 0 1 132.47466 106] CT
/Helvetica 20 F
GS
[1 0 0 1 0 0] CT
0 7.5 moveto 
1 -1 scale
(MLSS-Optimal) t 
GR
GR
GS
1 0 0 RC
N
/f2112345398{99.465 115.35 M
99.465 96.65 L
129.474 96.65 L
129.474 115.35 L
cp}def
f2112345398
f
GR
GS
10.0 ML
0.5 LW
N
99.465 115.35 M
99.465 96.65 L
129.474 96.65 L
129.474 115.35 L
cp
S
GR
GS
[1 0 0 1 132.47466 130.5] CT
/Helvetica 20 F
GS
[1 0 0 1 0 0] CT
0 7.5 moveto 
1 -1 scale
(MLSS-Greedy-Partition) t 
GR
GR
GS
0.6 0.2 0 RC
N
/f-442039350{99.465 139.85 M
99.465 121.15 L
129.474 121.15 L
129.474 139.85 L
cp}def
f-442039350
f
GR
GS
10.0 ML
0.5 LW
N
99.465 139.85 M
99.465 121.15 L
129.474 121.15 L
129.474 139.85 L
cp
S
GR
GS
1 GC
10.0 ML
0.5 LW
N
89 144.5 M
89 43 L
353 43 L
353 144.5 L
cp
S
GR
%%Trailer
%%Pages: 1
%%EOF
